#VRML V2.0 utf8


Group {
  children 
    Group {
      children 
        Group {
          children 
            Transform {
              translation 0 0 0
              rotation 0 0 1  0
              scale 1 1 1
              scaleOrientation 0 0 1  0
              center 0 0 0
              children 
                Switch {
                  whichChoice 1
                  choice [ 
                    Group {
                      children [ 
                        DEF o0 Group {
                          children 
                            Shape {
                              appearance 
                              Appearance {
                                material 
                                Material {
                                  diffuseColor 0.098039217 0.098039217 0.098039217
                                  shininess 1

                                }

                              }
                              geometry 
                              IndexedLineSet {
                                coord 
                                DEF o1 Coordinate {
                                  point [ -1.37795 -1.4468476 1.5452725,
                                      -1.37795 -0.91535252 1.5452725,
                                      -1.1811 -1.4468476 1.5452725,
                                      -1.1811 -0.91535252 1.5452725,
                                      -1.37795 -1.6830674 0.91535252,
                                      -1.37795 -1.4468476 0.91535252,
                                      -1.37795 -1.4468476 1.5452725,
                                      -1.37795 -0.91535252 1.5452725,
                                      -1.37795 -0.91535252 1.8011775,
                                      -1.37795 -0.0098425001 1.8011775,
                                      -1.37795 -0.0098425001 0.95472252,
                                      -1.37795 -0.26574749 0.95472252,
                                      -1.37795 -0.26574749 0.44291249,
                                      -1.37795 -0.89566749 0.44291249,
                                      -1.37795 -0.89566749 0.2066925,
                                      -1.37795 -1.3090525 0.2066925,
                                      -1.37795 -1.3090525 0.40354249,
                                      -1.37795 -1.6043276 0.40354249,
                                      -1.37795 -1.6043276 0.46259749,
                                      -1.37795 -1.6830674 0.46259749,
                                      -1.37795 -1.4468476 0.91535252,
                                      -1.37795 -1.4468476 1.5452725,
                                      -1.1811 -1.4468476 0.91535252,
                                      -1.1811 -1.4468476 1.5452725,
                                      -1.37795 -0.91535252 1.5452725,
                                      -1.37795 -0.91535252 1.8011775,
                                      -1.1811 -0.91535252 1.5452725,
                                      -1.1811 -0.91535252 1.8011775,
                                      -1.1811 -0.91535252 1.8011775,
                                      -1.1811 -1.6830674 1.8011775,
                                      -1.1811 -0.91535252 1.5452725,
                                      -1.1811 -1.4468476 1.5452725,
                                      -1.1811 -1.4468476 0.91535252,
                                      -1.1811 -1.6830674 0.91535252,
                                      -0.53149498 -1.6043276 0.40354249,
                                      -0.53149498 -1.3090525 0.40354249,
                                      -1.37795 -1.6043276 0.40354249,
                                      -1.37795 -1.3090525 0.40354249,
                                      -1.37795 -0.89566749 0.44291249,
                                      -1.37795 -0.89566749 0.2066925,
                                      -1.1811 -0.89566749 0.44291249,
                                      -1.1811 -0.89566749 0.2066925,
                                      0.62992001 -0.1673225 0.2066925,
                                      -0.62992001 -0.1673225 0.2066925,
                                      -0.62992001 -0.71850252 0.2066925,
                                      0.62992001 -0.71850252 0.2066925,
                                      -1.1811 -0.89566749 0.2066925,
                                      -1.37795 -0.89566749 0.2066925,
                                      -1.1811 -0.87598252 0.2066925,
                                      -1.1811 -0.0098425001 0.2066925,
                                      1.1811 -0.0098425001 0.2066925,
                                      1.1811 -0.87598252 0.2066925,
                                      1.1811 -0.89566749 0.2066925,
                                      1.37795 -0.89566749 0.2066925,
                                      1.37795 -1.3090525 0.2066925,
                                      -1.37795 -1.3090525 0.2066925,
                                      -1.25984 -0.87598252 0.44291249,
                                      -1.25984 -0.26574749 0.44291249,
                                      -1.1811 -0.87598252 0.44291249,
                                      -1.1811 -0.89566749 0.44291249,
                                      -1.37795 -0.89566749 0.44291249,
                                      -1.37795 -0.26574749 0.44291249,
                                      1.37795 -1.6043276 0.40354249,
                                      1.37795 -1.6043276 0.46259749,
                                      -1.37795 -1.6043276 0.46259749,
                                      -1.37795 -1.6043276 0.40354249,
                                      -0.53149498 -1.6043276 0.40354249,
                                      -0.452755 -1.6043276 0.40354249,
                                      -0.03937 -1.6043276 0.40354249,
                                      0.03937 -1.6043276 0.40354249,
                                      0.452755 -1.6043276 0.40354249,
                                      0.53149498 -1.6043276 0.40354249,
                                      -0.53149498 -1.3090525 0.40354249,
                                      -0.53149498 -1.3090525 0.2460625,
                                      -1.37795 -1.3090525 0.40354249,
                                      -1.37795 -1.3090525 0.2066925,
                                      1.37795 -1.3090525 0.2066925,
                                      1.37795 -1.3090525 0.40354249,
                                      0.53149498 -1.3090525 0.40354249,
                                      0.53149498 -1.3090525 0.2460625,
                                      0.452755 -1.3090525 0.2460625,
                                      0.452755 -1.3090525 0.40354249,
                                      0.03937 -1.3090525 0.40354249,
                                      0.03937 -1.3090525 0.2460625,
                                      -0.03937 -1.3090525 0.2460625,
                                      -0.03937 -1.3090525 0.40354249,
                                      -0.452755 -1.3090525 0.40354249,
                                      -0.452755 -1.3090525 0.2460625,
                                      -1.25984 -0.26574749 0.95472252,
                                      -1.37795 -0.26574749 0.95472252,
                                      -1.25984 -0.26574749 0.44291249,
                                      -1.37795 -0.26574749 0.44291249,
                                      0.98425001 -0.63976252 1.8011775,
                                      0.78740001 -0.63976252 1.8011775,
                                      0.98425001 -1.4468476 1.8011775,
                                      -0.98425001 -1.4468476 1.8011775,
                                      -0.98425001 -0.63976252 1.8011775,
                                      -0.78740001 -0.63976252 1.8011775,
                                      -0.78740001 -0.83661252 1.8011775,
                                      0.78740001 -0.83661252 1.8011775,
                                      -0.62992001 -0.1673225 1.8011775,
                                      -0.62992001 -0.71850252 1.8011775,
                                      0.62992001 -0.1673225 1.8011775,
                                      0.62992001 -0.71850252 1.8011775,
                                      -1.37795 -0.0098425001 1.8011775,
                                      -1.37795 -0.91535252 1.8011775,
                                      -1.1811 -0.91535252 1.8011775,
                                      -1.1811 -1.6830674 1.8011775,
                                      1.1811 -1.6830674 1.8011775,
                                      1.1811 -0.91535252 1.8011775,
                                      1.37795 -0.91535252 1.8011775,
                                      1.37795 -0.0098425001 1.8011775,
                                      -1.1811 -1.6830674 0.91535252,
                                      -1.37795 -1.6830674 0.91535252,
                                      -1.37795 -1.6830674 0.46259749,
                                      1.37795 -1.6830674 0.46259749,
                                      1.37795 -1.6830674 0.91535252,
                                      1.1811 -1.6830674 0.91535252,
                                      1.1811 -1.6830674 1.8011775,
                                      -1.1811 -1.6830674 1.8011775,
                                      -1.37795 -1.6830674 0.91535252,
                                      -1.37795 -1.4468476 0.91535252,
                                      -1.1811 -1.6830674 0.91535252,
                                      -1.1811 -1.4468476 0.91535252,
                                      1.25984 -0.0098425001 0.95472252,
                                      1.37795 -0.0098425001 0.95472252,
                                      1.25984 -0.0098425001 0.1476375,
                                      1.1811 -0.0098425001 0.1476375,
                                      1.1811 -0.0098425001 0.2066925,
                                      -1.1811 -0.0098425001 0.2066925,
                                      -1.1811 -0.0098425001 0.1476375,
                                      -1.25984 -0.0098425001 0.1476375,
                                      -1.25984 -0.0098425001 0.95472252,
                                      -1.37795 -0.0098425001 0.95472252,
                                      -1.37795 -0.0098425001 1.8011775,
                                      1.37795 -0.0098425001 1.8011775,
                                      -1.25984 -0.0098425001 0.95472252,
                                      -1.37795 -0.0098425001 0.95472252,
                                      -1.25984 -0.26574749 0.95472252,
                                      -1.37795 -0.26574749 0.95472252,
                                      1.37795 -1.6043276 0.46259749,
                                      1.37795 -1.6830674 0.46259749,
                                      -1.37795 -1.6830674 0.46259749,
                                      -1.37795 -1.6043276 0.46259749,
                                      -0.53149498 -1.5649575 0.2460625,
                                      -0.53149498 -1.3090525 0.2460625,
                                      -0.53149498 -1.5649575 0.1476375,
                                      -0.53149498 -1.9586575 0.1476375,
                                      -0.53149498 -1.9586575 0.26574749,
                                      -0.53149498 -1.6830674 0.26574749,
                                      -0.53149498 -1.6830674 0.40354249,
                                      -0.53149498 -1.6043276 0.40354249,
                                      -0.53149498 -1.3090525 0.40354249,
                                      -1.1811 -0.87598252 0.44291249,
                                      -1.1811 -0.89566749 0.44291249,
                                      -1.1811 -0.87598252 0.2066925,
                                      -1.1811 -0.89566749 0.2066925,
                                      1.1811 -0.87598252 0.2066925,
                                      1.1811 -0.0098425001 0.2066925,
                                      1.1811 -0.0098425001 0.1476375,
                                      1.1811 -0.87598252 0.1476375,
                                      1.1811 -0.87598252 0.44291249,
                                      1.1811 -0.87598252 0.2066925,
                                      1.1811 -0.89566749 0.44291249,
                                      1.1811 -0.89566749 0.2066925,
                                      1.37795 -1.3090525 0.2066925,
                                      1.37795 -0.89566749 0.2066925,
                                      1.37795 -0.89566749 0.44291249,
                                      1.37795 -0.26574749 0.44291249,
                                      1.37795 -0.26574749 0.95472252,
                                      1.37795 -0.0098425001 0.95472252,
                                      1.37795 -0.0098425001 1.8011775,
                                      1.37795 -0.91535252 1.8011775,
                                      1.37795 -0.91535252 1.5452725,
                                      1.37795 -1.4468476 1.5452725,
                                      1.37795 -1.4468476 0.91535252,
                                      1.37795 -1.6830674 0.91535252,
                                      1.37795 -1.6830674 0.46259749,
                                      1.37795 -1.6043276 0.46259749,
                                      1.37795 -1.6043276 0.40354249,
                                      1.37795 -1.3090525 0.40354249,
                                      -1.1811 -0.87598252 0.2066925,
                                      -1.1811 -0.0098425001 0.2066925,
                                      -1.1811 -0.87598252 0.1476375,
                                      -1.1811 -0.0098425001 0.1476375,
                                      -0.62992001 -0.71850252 0.2066925,
                                      -0.62992001 -0.71850252 1.8011775,
                                      -0.62992001 -0.1673225 0.2066925,
                                      -0.62992001 -0.1673225 1.8011775,
                                      0.62992001 -0.71850252 1.8011775,
                                      0.62992001 -0.1673225 1.8011775,
                                      0.62992001 -0.1673225 0.2066925,
                                      0.62992001 -0.71850252 0.2066925,
                                      0.2460625 -0.71850252 1.0925175,
                                      0.2460625 -0.71850252 1.4862175,
                                      -0.2460625 -0.71850252 1.4862175,
                                      -0.2460625 -0.71850252 1.0925175,
                                      -0.62992001 -0.71850252 1.8011775,
                                      0.62992001 -0.71850252 1.8011775,
                                      0.62992001 -0.71850252 0.2066925,
                                      -0.62992001 -0.71850252 0.2066925,
                                      0.62992001 -0.1673225 1.8011775,
                                      -0.62992001 -0.1673225 1.8011775,
                                      -0.62992001 -0.1673225 0.2066925,
                                      0.62992001 -0.1673225 0.2066925,
                                      1.37795 -0.89566749 0.44291249,
                                      1.37795 -0.89566749 0.2066925,
                                      1.1811 -0.89566749 0.2066925,
                                      1.1811 -0.89566749 0.44291249,
                                      -1.1811 -0.87598252 0.1476375,
                                      -1.1811 -0.87598252 0.2066925,
                                      -1.1811 -0.87598252 0.44291249,
                                      -1.25984 -0.87598252 0.44291249,
                                      -1.25984 -0.87598252 0.1476375,
                                      -1.25984 -0.87598252 0.44291249,
                                      -1.25984 -0.26574749 0.44291249,
                                      -1.25984 -0.26574749 0.95472252,
                                      -1.25984 -0.0098425001 0.95472252,
                                      -1.25984 -0.0098425001 0.1476375,
                                      -1.25984 -0.87598252 0.1476375,
                                      0.53149498 -1.6043276 0.40354249,
                                      0.53149498 -1.3090525 0.40354249,
                                      1.37795 -1.3090525 0.40354249,
                                      1.37795 -1.6043276 0.40354249,
                                      -0.452755 -1.6830674 0.40354249,
                                      -0.53149498 -1.6830674 0.40354249,
                                      -0.452755 -1.6043276 0.40354249,
                                      -0.53149498 -1.6043276 0.40354249,
                                      0.452755 -1.6043276 0.40354249,
                                      0.452755 -1.3090525 0.40354249,
                                      0.03937 -1.6043276 0.40354249,
                                      0.03937 -1.3090525 0.40354249,
                                      0.03937 -1.6830674 0.40354249,
                                      -0.03937 -1.6830674 0.40354249,
                                      0.03937 -1.6043276 0.40354249,
                                      -0.03937 -1.6043276 0.40354249,
                                      -0.03937 -1.6043276 0.40354249,
                                      -0.03937 -1.3090525 0.40354249,
                                      -0.452755 -1.6043276 0.40354249,
                                      -0.452755 -1.3090525 0.40354249,
                                      0.53149498 -1.6830674 0.40354249,
                                      0.452755 -1.6830674 0.40354249,
                                      0.53149498 -1.6043276 0.40354249,
                                      0.452755 -1.6043276 0.40354249,
                                      -0.452755 -1.9586575 0.1476375,
                                      -0.452755 -1.5649575 0.1476375,
                                      -0.452755 -1.5649575 0.2460625,
                                      -0.452755 -1.3090525 0.2460625,
                                      -0.452755 -1.3090525 0.40354249,
                                      -0.452755 -1.6043276 0.40354249,
                                      -0.452755 -1.6830674 0.40354249,
                                      -0.452755 -1.6830674 0.26574749,
                                      -0.452755 -1.9586575 0.26574749,
                                      0.03937 -1.3090525 0.2460625,
                                      0.03937 -1.5649575 0.2460625,
                                      -0.03937 -1.5649575 0.2460625,
                                      -0.03937 -1.3090525 0.2460625,
                                      0.53149498 -1.3090525 0.2460625,
                                      0.53149498 -1.5649575 0.2460625,
                                      0.452755 -1.5649575 0.2460625,
                                      0.452755 -1.3090525 0.2460625,
                                      -0.03937 -1.5649575 0.2460625,
                                      -0.03937 -1.3090525 0.2460625,
                                      -0.03937 -1.5649575 0.1476375,
                                      -0.03937 -1.9586575 0.1476375,
                                      -0.03937 -1.9586575 0.26574749,
                                      -0.03937 -1.6830674 0.26574749,
                                      -0.03937 -1.6830674 0.40354249,
                                      -0.03937 -1.6043276 0.40354249,
                                      -0.03937 -1.3090525 0.40354249,
                                      0.452755 -1.5649575 0.2460625,
                                      0.452755 -1.3090525 0.2460625,
                                      0.452755 -1.5649575 0.1476375,
                                      0.452755 -1.9586575 0.1476375,
                                      0.452755 -1.9586575 0.26574749,
                                      0.452755 -1.6830674 0.26574749,
                                      0.452755 -1.6830674 0.40354249,
                                      0.452755 -1.6043276 0.40354249,
                                      0.452755 -1.3090525 0.40354249,
                                      0.53149498 -1.9586575 0.1476375,
                                      0.53149498 -1.5649575 0.1476375,
                                      0.53149498 -1.5649575 0.2460625,
                                      0.53149498 -1.3090525 0.2460625,
                                      0.53149498 -1.3090525 0.40354249,
                                      0.53149498 -1.6043276 0.40354249,
                                      0.53149498 -1.6830674 0.40354249,
                                      0.53149498 -1.6830674 0.26574749,
                                      0.53149498 -1.9586575 0.26574749,
                                      -0.452755 -1.3090525 0.2460625,
                                      -0.452755 -1.5649575 0.2460625,
                                      -0.53149498 -1.5649575 0.2460625,
                                      -0.53149498 -1.3090525 0.2460625,
                                      0.03937 -1.9586575 0.1476375,
                                      0.03937 -1.5649575 0.1476375,
                                      0.03937 -1.5649575 0.2460625,
                                      0.03937 -1.3090525 0.2460625,
                                      0.03937 -1.3090525 0.40354249,
                                      0.03937 -1.6043276 0.40354249,
                                      0.03937 -1.6830674 0.40354249,
                                      0.03937 -1.6830674 0.26574749,
                                      0.03937 -1.9586575 0.26574749,
                                      -0.78740001 -0.83661252 1.8011775,
                                      -0.78740001 -0.63976252 1.8011775,
                                      -0.78740001 -0.63976252 0.77755749,
                                      -0.78740001 -0.83661252 0.77755749,
                                      -0.98425001 -1.4468476 1.8011775,
                                      0.98425001 -1.4468476 1.8011775,
                                      0.98425001 -1.4468476 0.77755749,
                                      -0.98425001 -1.4468476 0.77755749,
                                      0.78740001 -0.83661252 0.77755749,
                                      -0.78740001 -0.83661252 0.77755749,
                                      0.78740001 -0.83661252 1.8011775,
                                      -0.78740001 -0.83661252 1.8011775,
                                      -0.78740001 -0.63976252 1.8011775,
                                      -0.98425001 -0.63976252 1.8011775,
                                      -0.98425001 -0.63976252 0.77755749,
                                      -0.78740001 -0.63976252 0.77755749,
                                      1.37795 -0.91535252 1.5452725,
                                      1.37795 -0.91535252 1.8011775,
                                      1.1811 -0.91535252 1.8011775,
                                      1.1811 -0.91535252 1.5452725,
                                      1.1811 -0.91535252 1.8011775,
                                      1.1811 -1.6830674 1.8011775,
                                      1.1811 -1.6830674 0.91535252,
                                      1.1811 -1.4468476 0.91535252,
                                      1.1811 -1.4468476 1.5452725,
                                      1.1811 -0.91535252 1.5452725,
                                      0.98425001 -0.63976252 1.8011775,
                                      0.78740001 -0.63976252 1.8011775,
                                      0.78740001 -0.63976252 0.77755749,
                                      0.98425001 -0.63976252 0.77755749,
                                      -0.98425001 -0.63976252 1.8011775,
                                      -0.98425001 -1.4468476 1.8011775,
                                      -0.98425001 -1.4468476 0.77755749,
                                      -0.98425001 -0.63976252 0.77755749,
                                      0.78740001 -0.63976252 1.8011775,
                                      0.78740001 -0.83661252 1.8011775,
                                      0.78740001 -0.83661252 0.77755749,
                                      0.78740001 -0.63976252 0.77755749,
                                      0.98425001 -1.4468476 1.8011775,
                                      0.98425001 -0.63976252 1.8011775,
                                      0.98425001 -0.63976252 0.77755749,
                                      0.98425001 -1.4468476 0.77755749,
                                      1.37795 -1.6830674 0.91535252,
                                      1.37795 -1.4468476 0.91535252,
                                      1.1811 -1.4468476 0.91535252,
                                      1.1811 -1.6830674 0.91535252,
                                      1.25984 -0.26574749 0.95472252,
                                      1.25984 -0.0098425001 0.95472252,
                                      1.37795 -0.0098425001 0.95472252,
                                      1.37795 -0.26574749 0.95472252,
                                      -1.1811 -0.0098425001 0.1476375,
                                      -1.1811 -0.87598252 0.1476375,
                                      -1.25984 -0.87598252 0.1476375,
                                      -1.25984 -0.0098425001 0.1476375,
                                      1.1811 -0.0098425001 0.1476375,
                                      1.1811 -0.87598252 0.1476375,
                                      1.25984 -0.0098425001 0.1476375,
                                      1.25984 -0.87598252 0.1476375,
                                      1.25984 -0.87598252 0.44291249,
                                      1.25984 -0.26574749 0.44291249,
                                      1.25984 -0.87598252 0.1476375,
                                      1.25984 -0.0098425001 0.1476375,
                                      1.25984 -0.0098425001 0.95472252,
                                      1.25984 -0.26574749 0.95472252,
                                      -0.452755 -1.5649575 0.1476375,
                                      -0.53149498 -1.5649575 0.1476375,
                                      -0.53149498 -1.5649575 0.2460625,
                                      -0.452755 -1.5649575 0.2460625,
                                      -0.53149498 -1.9586575 0.26574749,
                                      -0.452755 -1.9586575 0.26574749,
                                      -0.53149498 -1.9586575 0.1476375,
                                      -0.452755 -1.9586575 0.1476375,
                                      -0.53149498 -1.9586575 0.1476375,
                                      -0.53149498 -1.5649575 0.1476375,
                                      -0.452755 -1.5649575 0.1476375,
                                      -0.452755 -1.9586575 0.1476375,
                                      -0.452755 -1.6830674 0.26574749,
                                      -0.452755 -1.6830674 0.40354249,
                                      -0.53149498 -1.6830674 0.40354249,
                                      -0.53149498 -1.6830674 0.26574749,
                                      -0.53149498 -1.9586575 0.26574749,
                                      -0.452755 -1.9586575 0.26574749,
                                      -0.452755 -1.6830674 0.26574749,
                                      -0.53149498 -1.6830674 0.26574749,
                                      1.1811 -0.87598252 0.1476375,
                                      1.1811 -0.87598252 0.2066925,
                                      1.25984 -0.87598252 0.1476375,
                                      1.25984 -0.87598252 0.44291249,
                                      1.1811 -0.87598252 0.44291249,
                                      1.1811 -0.87598252 0.44291249,
                                      1.1811 -0.89566749 0.44291249,
                                      1.25984 -0.87598252 0.44291249,
                                      1.25984 -0.26574749 0.44291249,
                                      1.37795 -0.26574749 0.44291249,
                                      1.37795 -0.89566749 0.44291249,
                                      1.25984 -0.26574749 0.44291249,
                                      1.25984 -0.26574749 0.95472252,
                                      1.37795 -0.26574749 0.95472252,
                                      1.37795 -0.26574749 0.44291249,
                                      1.37795 -1.4468476 0.91535252,
                                      1.37795 -1.4468476 1.5452725,
                                      1.1811 -1.4468476 1.5452725,
                                      1.1811 -1.4468476 0.91535252,
                                      1.37795 -1.4468476 1.5452725,
                                      1.37795 -0.91535252 1.5452725,
                                      1.1811 -0.91535252 1.5452725,
                                      1.1811 -1.4468476 1.5452725,
                                      0.2460625 -0.56102252 1.0925175,
                                      -0.2460625 -0.56102252 1.0925175,
                                      0.2460625 -0.71850252 1.0925175,
                                      -0.2460625 -0.71850252 1.0925175,
                                      0.2460625 -0.71850252 1.4862175,
                                      -0.2460625 -0.71850252 1.4862175,
                                      0.2460625 -0.56102252 1.4862175,
                                      -0.2460625 -0.56102252 1.4862175,
                                      -0.2460625 -0.56102252 1.0925175,
                                      -0.2460625 -0.56102252 1.4862175,
                                      -0.2460625 -0.71850252 1.0925175,
                                      -0.2460625 -0.71850252 1.4862175,
                                      0.2460625 -0.71850252 1.0925175,
                                      0.2460625 -0.71850252 1.4862175,
                                      0.2460625 -0.56102252 1.0925175,
                                      0.2460625 -0.56102252 1.4862175,
                                      0.03937 -1.6830674 0.26574749,
                                      0.03937 -1.6830674 0.40354249,
                                      -0.03937 -1.6830674 0.40354249,
                                      -0.03937 -1.6830674 0.26574749,
                                      0.53149498 -1.6830674 0.26574749,
                                      0.53149498 -1.6830674 0.40354249,
                                      0.452755 -1.6830674 0.40354249,
                                      0.452755 -1.6830674 0.26574749,
                                      0.03937 -1.5649575 0.1476375,
                                      -0.03937 -1.5649575 0.1476375,
                                      -0.03937 -1.5649575 0.2460625,
                                      0.03937 -1.5649575 0.2460625,
                                      0.53149498 -1.5649575 0.1476375,
                                      0.452755 -1.5649575 0.1476375,
                                      0.452755 -1.5649575 0.2460625,
                                      0.53149498 -1.5649575 0.2460625,
                                      -0.03937 -1.9586575 0.1476375,
                                      -0.03937 -1.5649575 0.1476375,
                                      0.03937 -1.5649575 0.1476375,
                                      0.03937 -1.9586575 0.1476375,
                                      -0.03937 -1.9586575 0.26574749,
                                      0.03937 -1.9586575 0.26574749,
                                      -0.03937 -1.9586575 0.1476375,
                                      0.03937 -1.9586575 0.1476375,
                                      -0.03937 -1.9586575 0.26574749,
                                      0.03937 -1.9586575 0.26574749,
                                      0.03937 -1.6830674 0.26574749,
                                      -0.03937 -1.6830674 0.26574749,
                                      0.452755 -1.9586575 0.26574749,
                                      0.53149498 -1.9586575 0.26574749,
                                      0.53149498 -1.6830674 0.26574749,
                                      0.452755 -1.6830674 0.26574749,
                                      0.452755 -1.9586575 0.1476375,
                                      0.452755 -1.5649575 0.1476375,
                                      0.53149498 -1.5649575 0.1476375,
                                      0.53149498 -1.9586575 0.1476375,
                                      0.452755 -1.9586575 0.26574749,
                                      0.53149498 -1.9586575 0.26574749,
                                      0.452755 -1.9586575 0.1476375,
                                      0.53149498 -1.9586575 0.1476375,
                                      -0.98425001 -0.63976252 0.77755749,
                                      -0.98425001 -1.4468476 0.77755749,
                                      0.98425001 -1.4468476 0.77755749,
                                      0.98425001 -0.63976252 0.77755749,
                                      0.78740001 -0.63976252 0.77755749,
                                      0.78740001 -0.83661252 0.77755749,
                                      -0.78740001 -0.83661252 0.77755749,
                                      -0.78740001 -0.63976252 0.77755749,
                                      0.2460625 -0.56102252 1.4862175,
                                      -0.2460625 -0.56102252 1.4862175,
                                      0.2460625 -0.56102252 1.0925175,
                                      -0.2460625 -0.56102252 1.0925175,
                                      -1.37795 -1.4468476 1.5452725,
                                      -1.37795 -0.91535252 1.5452725,
                                      -1.1811 -1.4468476 1.5452725,
                                      -1.1811 -0.91535252 1.5452725,
                                      -1.37795 -1.6830674 0.91535252,
                                      -1.37795 -1.4468476 0.91535252,
                                      -1.37795 -0.91535252 1.8011775,
                                      -1.37795 -0.0098425001 1.8011775,
                                      -1.37795 -0.0098425001 0.95472252,
                                      -1.37795 -0.26574749 0.95472252,
                                      -1.37795 -0.26574749 0.44291249,
                                      -1.37795 -0.89566749 0.44291249,
                                      -1.37795 -0.89566749 0.2066925,
                                      -1.37795 -1.3090525 0.2066925,
                                      -1.37795 -1.3090525 0.40354249,
                                      -1.37795 -1.6043276 0.40354249,
                                      -1.37795 -1.6043276 0.46259749,
                                      -1.37795 -1.6830674 0.46259749,
                                      -1.1811 -1.4468476 0.91535252,
                                      -1.1811 -0.91535252 1.8011775,
                                      -1.1811 -1.6830674 1.8011775,
                                      -1.1811 -1.6830674 0.91535252,
                                      -0.53149498 -1.6043276 0.40354249,
                                      -0.53149498 -1.3090525 0.40354249,
                                      -1.1811 -0.89566749 0.44291249,
                                      -1.1811 -0.89566749 0.2066925,
                                      0.62992001 -0.1673225 0.2066925,
                                      -0.62992001 -0.1673225 0.2066925,
                                      -0.62992001 -0.71850252 0.2066925,
                                      0.62992001 -0.71850252 0.2066925,
                                      -1.1811 -0.87598252 0.2066925,
                                      -1.1811 -0.0098425001 0.2066925,
                                      1.1811 -0.0098425001 0.2066925,
                                      1.1811 -0.87598252 0.2066925,
                                      1.1811 -0.89566749 0.2066925,
                                      1.37795 -0.89566749 0.2066925,
                                      1.37795 -1.3090525 0.2066925,
                                      -1.25984 -0.87598252 0.44291249,
                                      -1.25984 -0.26574749 0.44291249,
                                      -1.1811 -0.87598252 0.44291249,
                                      1.37795 -1.6043276 0.40354249,
                                      1.37795 -1.6043276 0.46259749,
                                      -0.452755 -1.6043276 0.40354249,
                                      -0.03937 -1.6043276 0.40354249,
                                      0.03937 -1.6043276 0.40354249,
                                      0.452755 -1.6043276 0.40354249,
                                      0.53149498 -1.6043276 0.40354249,
                                      -0.53149498 -1.3090525 0.2460625,
                                      1.37795 -1.3090525 0.40354249,
                                      0.53149498 -1.3090525 0.40354249,
                                      0.53149498 -1.3090525 0.2460625,
                                      0.452755 -1.3090525 0.2460625,
                                      0.452755 -1.3090525 0.40354249,
                                      0.03937 -1.3090525 0.40354249,
                                      0.03937 -1.3090525 0.2460625,
                                      -0.03937 -1.3090525 0.2460625,
                                      -0.03937 -1.3090525 0.40354249,
                                      -0.452755 -1.3090525 0.40354249,
                                      -0.452755 -1.3090525 0.2460625,
                                      -1.25984 -0.26574749 0.95472252,
                                      0.98425001 -0.63976252 1.8011775,
                                      0.78740001 -0.63976252 1.8011775,
                                      0.98425001 -1.4468476 1.8011775,
                                      -0.98425001 -1.4468476 1.8011775,
                                      -0.98425001 -0.63976252 1.8011775,
                                      -0.78740001 -0.63976252 1.8011775,
                                      -0.78740001 -0.83661252 1.8011775,
                                      0.78740001 -0.83661252 1.8011775,
                                      -0.62992001 -0.1673225 1.8011775,
                                      -0.62992001 -0.71850252 1.8011775,
                                      0.62992001 -0.1673225 1.8011775,
                                      0.62992001 -0.71850252 1.8011775,
                                      1.1811 -1.6830674 1.8011775,
                                      1.1811 -0.91535252 1.8011775,
                                      1.37795 -0.91535252 1.8011775,
                                      1.37795 -0.0098425001 1.8011775,
                                      1.37795 -1.6830674 0.46259749,
                                      1.37795 -1.6830674 0.91535252,
                                      1.1811 -1.6830674 0.91535252,
                                      1.25984 -0.0098425001 0.95472252,
                                      1.37795 -0.0098425001 0.95472252,
                                      1.25984 -0.0098425001 0.1476375,
                                      1.1811 -0.0098425001 0.1476375,
                                      -1.1811 -0.0098425001 0.1476375,
                                      -1.25984 -0.0098425001 0.1476375,
                                      -1.25984 -0.0098425001 0.95472252,
                                      -0.53149498 -1.5649575 0.2460625,
                                      -0.53149498 -1.5649575 0.1476375,
                                      -0.53149498 -1.9586575 0.1476375,
                                      -0.53149498 -1.9586575 0.26574749,
                                      -0.53149498 -1.6830674 0.26574749,
                                      -0.53149498 -1.6830674 0.40354249,
                                      1.1811 -0.87598252 0.1476375,
                                      1.1811 -0.87598252 0.44291249,
                                      1.1811 -0.89566749 0.44291249,
                                      1.37795 -0.89566749 0.44291249,
                                      1.37795 -0.26574749 0.44291249,
                                      1.37795 -0.26574749 0.95472252,
                                      1.37795 -0.91535252 1.5452725,
                                      1.37795 -1.4468476 1.5452725,
                                      1.37795 -1.4468476 0.91535252,
                                      -1.1811 -0.87598252 0.1476375,
                                      0.2460625 -0.71850252 1.0925175,
                                      0.2460625 -0.71850252 1.4862175,
                                      -0.2460625 -0.71850252 1.4862175,
                                      -0.2460625 -0.71850252 1.0925175,
                                      -1.25984 -0.87598252 0.1476375,
                                      -0.452755 -1.6830674 0.40354249,
                                      0.03937 -1.6830674 0.40354249,
                                      -0.03937 -1.6830674 0.40354249,
                                      0.53149498 -1.6830674 0.40354249,
                                      0.452755 -1.6830674 0.40354249,
                                      -0.452755 -1.9586575 0.1476375,
                                      -0.452755 -1.5649575 0.1476375,
                                      -0.452755 -1.5649575 0.2460625,
                                      -0.452755 -1.6830674 0.26574749,
                                      -0.452755 -1.9586575 0.26574749,
                                      0.03937 -1.5649575 0.2460625,
                                      -0.03937 -1.5649575 0.2460625,
                                      0.53149498 -1.5649575 0.2460625,
                                      0.452755 -1.5649575 0.2460625,
                                      -0.03937 -1.5649575 0.1476375,
                                      -0.03937 -1.9586575 0.1476375,
                                      -0.03937 -1.9586575 0.26574749,
                                      -0.03937 -1.6830674 0.26574749,
                                      0.452755 -1.5649575 0.1476375,
                                      0.452755 -1.9586575 0.1476375,
                                      0.452755 -1.9586575 0.26574749,
                                      0.452755 -1.6830674 0.26574749,
                                      0.53149498 -1.9586575 0.1476375,
                                      0.53149498 -1.5649575 0.1476375,
                                      0.53149498 -1.6830674 0.26574749,
                                      0.53149498 -1.9586575 0.26574749,
                                      0.03937 -1.9586575 0.1476375,
                                      0.03937 -1.5649575 0.1476375,
                                      0.03937 -1.6830674 0.26574749,
                                      0.03937 -1.9586575 0.26574749,
                                      -0.78740001 -0.63976252 0.77755749,
                                      -0.78740001 -0.83661252 0.77755749,
                                      0.98425001 -1.4468476 0.77755749,
                                      -0.98425001 -1.4468476 0.77755749,
                                      0.78740001 -0.83661252 0.77755749,
                                      -0.98425001 -0.63976252 0.77755749,
                                      1.1811 -0.91535252 1.5452725,
                                      1.1811 -1.4468476 0.91535252,
                                      1.1811 -1.4468476 1.5452725,
                                      0.78740001 -0.63976252 0.77755749,
                                      0.98425001 -0.63976252 0.77755749,
                                      1.25984 -0.26574749 0.95472252,
                                      1.25984 -0.87598252 0.1476375,
                                      1.25984 -0.87598252 0.44291249,
                                      1.25984 -0.26574749 0.44291249,
                                      0.2460625 -0.56102252 1.0925175,
                                      -0.2460625 -0.56102252 1.0925175,
                                      0.2460625 -0.56102252 1.4862175,
                                      -0.2460625 -0.56102252 1.4862175 ]

                                }
                                coordIndex [ 0, 1, -1, 2, 0, -1, 2, 3,
                                    -1, 3, 1, -1, 4, 5, -1, 5,
                                    6, -1, 7, 8, -1, 9, 8, -1,
                                    9, 10, -1, 10, 11, -1, 11, 12,
                                    -1, 12, 13, -1, 13, 14, -1, 14,
                                    15, -1, 15, 16, -1, 16, 17, -1,
                                    17, 18, -1, 18, 19, -1, 4, 19,
                                    -1, 22, 20, -1, 22, 23, -1, 26,
                                    27, -1, 27, 25, -1, 28, 29, -1,
                                    33, 32, -1, 29, 33, -1, 34, 35,
                                    -1, 36, 34, -1, 37, 35, -1, 40,
                                    38, -1, 40, 41, -1, 41, 39, -1,
                                    42, 43, -1, 43, 44, -1, 44, 45,
                                    -1, 45, 42, -1, 46, 48, -1, 48,
                                    49, -1, 50, 49, -1, 51, 50, -1,
                                    52, 51, -1, 52, 53, -1, 54, 53,
                                    -1, 55, 54, -1, 56, 57, -1, 56,
                                    58, -1, 58, 59, -1, 57, 61, -1,
                                    62, 63, -1, 64, 63, -1, 67, 66,
                                    -1, 67, 68, -1, 68, 69, -1, 69,
                                    70, -1, 70, 71, -1, 71, 62, -1,
                                    72, 73, -1, 76, 77, -1, 78, 77,
                                    -1, 79, 78, -1, 80, 79, -1, 81,
                                    80, -1, 82, 81, -1, 83, 82, -1,
                                    84, 83, -1, 85, 84, -1, 86, 85,
                                    -1, 87, 86, -1, 73, 87, -1, 88,
                                    89, -1, 90, 88, -1, 92, 93, -1,
                                    94, 92, -1, 95, 94, -1, 96, 95,
                                    -1, 97, 96, -1, 98, 97, -1, 99,
                                    98, -1, 93, 99, -1, 100, 101, -1,
                                    102, 100, -1, 103, 102, -1, 101, 103,
                                    -1, 107, 108, -1, 109, 108, -1, 109,
                                    110, -1, 110, 111, -1, 111, 104, -1,
                                    112, 113, -1, 114, 115, -1, 116, 115,
                                    -1, 117, 116, -1, 118, 117, -1, 124,
                                    125, -1, 124, 126, -1, 126, 127, -1,
                                    128, 127, -1, 129, 130, -1, 131, 130,
                                    -1, 132, 131, -1, 132, 133, -1, 135,
                                    125, -1, 138, 136, -1, 140, 141, -1,
                                    144, 145, -1, 144, 146, -1, 147, 146,
                                    -1, 148, 147, -1, 149, 148, -1, 150,
                                    149, -1, 150, 151, -1, 153, 155, -1,
                                    159, 160, -1, 160, 157, -1, 161, 162,
                                    -1, 161, 163, -1, 163, 164, -1, 167,
                                    166, -1, 168, 167, -1, 169, 168, -1,
                                    170, 169, -1, 173, 172, -1, 174, 173,
                                    -1, 175, 174, -1, 176, 175, -1, 180,
                                    179, -1, 183, 181, -1, 184, 183, -1,
                                    185, 186, -1, 187, 188, -1, 191, 190,
                                    -1, 192, 189, -1, 193, 194, -1, 194,
                                    195, -1, 196, 195, -1, 193, 196, -1,
                                    208, 205, -1, 213, 212, -1, 213, 209,
                                    -1, 218, 219, -1, 220, 221, -1, 224,
                                    225, -1, 224, 226, -1, 228, 229, -1,
                                    230, 231, -1, 232, 233, -1, 232, 234,
                                    -1, 233, 235, -1, 236, 237, -1, 238,
                                    239, -1, 240, 241, -1, 240, 242, -1,
                                    241, 243, -1, 244, 245, -1, 246, 245,
                                    -1, 247, 246, -1, 251, 250, -1, 251,
                                    252, -1, 244, 252, -1, 253, 254, -1,
                                    254, 255, -1, 255, 256, -1, 257, 258,
                                    -1, 258, 259, -1, 259, 260, -1, 261,
                                    263, -1, 264, 263, -1, 265, 264, -1,
                                    266, 265, -1, 267, 266, -1, 270, 272,
                                    -1, 273, 272, -1, 274, 273, -1, 275,
                                    274, -1, 276, 275, -1, 279, 280, -1,
                                    281, 280, -1, 286, 285, -1, 286, 287,
                                    -1, 279, 287, -1, 289, 290, -1, 292,
                                    293, -1, 294, 293, -1, 299, 298, -1,
                                    299, 300, -1, 292, 300, -1, 303, 302,
                                    -1, 304, 303, -1, 304, 301, -1, 307,
                                    306, -1, 308, 307, -1, 308, 305, -1,
                                    309, 310, -1, 309, 311, -1, 315, 314,
                                    -1, 316, 315, -1, 320, 319, -1, 320,
                                    317, -1, 323, 324, -1, 324, 325, -1,
                                    325, 326, -1, 329, 328, -1, 330, 329,
                                    -1, 330, 327, -1, 334, 333, -1, 338,
                                    337, -1, 342, 341, -1, 345, 344, -1,
                                    347, 348, -1, 347, 350, -1, 357, 358,
                                    -1, 358, 356, -1, 359, 360, -1, 361,
                                    359, -1, 360, 364, -1, 365, 366, -1,
                                    369, 370, -1, 371, 372, -1, 380, 377,
                                    -1, 388, 389, -1, 393, 394, -1, 402,
                                    401, -1, 408, 409, -1, 408, 410, -1,
                                    411, 409, -1, 412, 414, -1, 414, 415,
                                    -1, 415, 413, -1, 416, 417, -1, 422,
                                    423, -1, 427, 424, -1, 431, 428, -1,
                                    432, 433, -1, 436, 437, -1, 440, 443,
                                    -1, 444, 445, -1, 452, 453, -1, 456,
                                    459, -1 ]

                              }

                            }

                        },
                          
                        DEF o2 Group {
                          children 
                            Shape {
                              appearance 
                              Appearance {
                                material 
                                Material {
                                  diffuseColor 1 0.98823529 0.79215688

                                }

                              }
                              geometry 
                              IndexedFaceSet {
                                coord 
                                USE o1
                                color 
                                Color {
                                  color [ 1 0.98823529 0.79215688,
                                      1 0.98823529 0.79215688,
                                      1 0.98823529 0.79215688,
                                      1 0.98823529 0.79215688,
                                      1 0.98823529 0.79215688,
                                      1 0.98823529 0.79215688,
                                      1 0.98823529 0.79215688,
                                      1 0.98823529 0.79215688,
                                      1 0.98823529 0.79215688,
                                      1 0.98823529 0.79215688,
                                      1 0.98823529 0.79215688,
                                      1 0.98823529 0.79215688,
                                      1 0.98823529 0.79215688,
                                      1 0.98823529 0.79215688,
                                      1 0.98823529 0.79215688,
                                      1 0.98823529 0.79215688,
                                      1 0.98823529 0.79215688,
                                      1 0.98823529 0.79215688,
                                      0.75294119 0.75294119 0.75294119,
                                      0 0 0.627451,
                                      0.75294119 0.75294119 0.75294119,
                                      0 0 0.627451,
                                      1 0.98823529 0.79215688,
                                      0.75294119 0.75294119 0.75294119,
                                      1 0.98823529 0.79215688,
                                      1 0.98823529 0.79215688,
                                      1 0.98823529 0.79215688,
                                      1 0.98823529 0.79215688,
                                      1 0.98823529 0.79215688,
                                      0.75294119 0.75294119 0.75294119,
                                      0.75294119 0.75294119 0.75294119,
                                      1 0.98823529 0.79215688,
                                      0.75294119 0.75294119 0.75294119,
                                      1 0.98823529 0.79215688,
                                      0.75294119 0.75294119 0.75294119,
                                      1 0.98823529 0.79215688,
                                      0.75294119 0.75294119 0.75294119,
                                      0.75294119 0.75294119 0.75294119,
                                      0.75294119 0.75294119 0.75294119,
                                      0.75294119 0.75294119 0.75294119,
                                      0.75294119 0.75294119 0.75294119,
                                      0.75294119 0.75294119 0.75294119,
                                      0.75294119 0.75294119 0.75294119,
                                      0.75294119 0.75294119 0.75294119,
                                      0.75294119 0.75294119 0.75294119,
                                      1 0.98823529 0.79215688,
                                      1 0.98823529 0.79215688,
                                      1 0.98823529 0.79215688,
                                      1 0.98823529 0.79215688,
                                      1 0.98823529 0.79215688,
                                      1 0.98823529 0.79215688,
                                      1 0.98823529 0.79215688,
                                      1 0.98823529 0.79215688,
                                      1 0.98823529 0.79215688,
                                      1 0.98823529 0.79215688,
                                      1 0.98823529 0.79215688,
                                      1 0.98823529 0.79215688,
                                      0.75294119 0.75294119 0.75294119,
                                      0.75294119 0.75294119 0.75294119,
                                      0.75294119 0.75294119 0.75294119,
                                      0.75294119 0.75294119 0.75294119,
                                      0.75294119 0.75294119 0.75294119,
                                      0.75294119 0.75294119 0.75294119,
                                      0.75294119 0.75294119 0.75294119,
                                      0.75294119 0.75294119 0.75294119,
                                      0.75294119 0.75294119 0.75294119,
                                      1 0.98823529 0.79215688,
                                      1 0.98823529 0.79215688,
                                      1 0.98823529 0.79215688,
                                      1 0.98823529 0.79215688,
                                      1 0.98823529 0.79215688,
                                      1 0.98823529 0.79215688,
                                      0 0 0.627451,
                                      0 0 0.627451,
                                      0.75294119 0.75294119 0.75294119,
                                      0.75294119 0.75294119 0.75294119,
                                      0.75294119 0.75294119 0.75294119,
                                      0.75294119 0.75294119 0.75294119,
                                      0.75294119 0.75294119 0.75294119,
                                      0.75294119 0.75294119 0.75294119,
                                      0.75294119 0.75294119 0.75294119,
                                      0.75294119 0.75294119 0.75294119,
                                      0.75294119 0.75294119 0.75294119,
                                      0.75294119 0.75294119 0.75294119,
                                      1 0.98823529 0.79215688,
                                      1 0.98823529 0.79215688 ]

                                }
                                colorPerVertex FALSE
                                coordIndex [ 1, 0, 2, -1, 3, 1, 2, -1,
                                    7, 5, 6, -1, 5, 18, 4, -1,
                                    4, 18, 19, -1, 8, 9, 7, -1,
                                    18, 16, 17, -1, 5, 16, 18, -1,
                                    7, 13, 5, -1, 5, 13, 16, -1,
                                    9, 11, 7, -1, 7, 11, 13, -1,
                                    16, 14, 15, -1, 13, 14, 16, -1,
                                    9, 10, 11, -1, 11, 12, 13, -1,
                                    20, 23, 21, -1, 22, 23, 20, -1,
                                    26, 25, 24, -1, 26, 27, 25, -1,
                                    30, 31, 28, -1, 33, 31, 32, -1,
                                    33, 29, 31, -1, 31, 29, 28, -1,
                                    37, 34, 36, -1, 35, 34, 37, -1,
                                    40, 39, 38, -1, 40, 41, 39, -1,
                                    47, 46, 55, -1, 48, 44, 46, -1,
                                    46, 44, 55, -1, 48, 49, 44, -1,
                                    49, 43, 44, -1, 44, 45, 55, -1,
                                    45, 54, 55, -1, 45, 52, 54, -1,
                                    45, 51, 52, -1, 52, 53, 54, -1,
                                    42, 50, 45, -1, 45, 50, 51, -1,
                                    49, 50, 43, -1, 43, 50, 42, -1,
                                    59, 60, 56, -1, 58, 59, 56, -1,
                                    61, 56, 60, -1, 57, 56, 61, -1,
                                    65, 66, 64, -1, 62, 63, 71, -1,
                                    63, 64, 71, -1, 71, 64, 70, -1,
                                    70, 64, 69, -1, 69, 64, 68, -1,
                                    68, 64, 67, -1, 67, 64, 66, -1,
                                    75, 73, 74, -1, 73, 72, 74, -1,
                                    87, 84, 86, -1, 84, 85, 86, -1,
                                    83, 81, 82, -1, 80, 81, 83, -1,
                                    79, 77, 78, -1, 76, 77, 79, -1,
                                    75, 76, 84, -1, 84, 76, 83, -1,
                                    83, 76, 80, -1, 80, 76, 79, -1,
                                    75, 84, 87, -1, 75, 87, 73, -1,
                                    88, 90, 91, -1, 88, 91, 89, -1,
                                    96, 105, 106, -1, 104, 105, 96, -1,
                                    101, 97, 98, -1, 100, 96, 97, -1,
                                    100, 104, 96, -1, 100, 97, 101, -1,
                                    108, 95, 107, -1, 94, 95, 108, -1,
                                    93, 103, 99, -1, 110, 92, 109, -1,
                                    102, 93, 92, -1, 102, 103, 93, -1,
                                    111, 102, 92, -1, 111, 92, 110, -1,
                                    92, 94, 109, -1, 95, 96, 106, -1,
                                    98, 99, 101, -1, 101, 99, 103, -1,
                                    106, 107, 95, -1, 108, 109, 94, -1,
                                    111, 104, 102, -1, 102, 104, 100, -1,
                                    116, 117, 115, -1, 117, 114, 115, -1,
                                    117, 112, 114, -1, 112, 113, 114, -1,
                                    118, 119, 117, -1, 117, 119, 112, -1,
                                    123, 121, 120, -1, 123, 120, 122, -1,
                                    131, 129, 130, -1, 133, 134, 132, -1,
                                    132, 128, 129, -1, 128, 126, 127, -1,
                                    134, 124, 132, -1, 132, 124, 128, -1,
                                    124, 135, 125, -1, 134, 135, 124, -1,
                                    124, 126, 128, -1, 131, 132, 129, -1,
                                    136, 138, 139, -1, 137, 136, 139, -1,
                                    143, 141, 142, -1, 140, 141, 143, -1,
                                    148, 149, 147, -1, 151, 149, 150, -1,
                                    151, 144, 149, -1, 151, 152, 144, -1,
                                    149, 146, 147, -1, 144, 146, 149, -1,
                                    152, 145, 144, -1, 155, 154, 153, -1,
                                    156, 154, 155, -1, 157, 158, 159, -1,
                                    160, 157, 159, -1, 162, 161, 163, -1,
                                    162, 163, 164, -1, 179, 180, 178, -1,
                                    178, 176, 177, -1, 165, 166, 180, -1,
                                    178, 175, 176, -1, 180, 175, 178, -1,
                                    166, 167, 180, -1, 180, 167, 175, -1,
                                    175, 173, 174, -1, 167, 173, 175, -1,
                                    168, 169, 167, -1, 167, 169, 173, -1,
                                    170, 171, 169, -1, 173, 171, 172, -1,
                                    169, 171, 173, -1, 184, 182, 181, -1,
                                    184, 181, 183, -1, 185, 188, 186, -1,
                                    187, 188, 185, -1, 192, 189, 191, -1,
                                    189, 190, 191, -1, 200, 196, 199, -1,
                                    200, 197, 196, -1, 197, 195, 196, -1,
                                    196, 193, 199, -1, 194, 198, 193, -1,
                                    195, 198, 194, -1, 197, 198, 195, -1,
                                    193, 198, 199, -1, 204, 201, 203, -1,
                                    201, 202, 203, -1, 205, 207, 208, -1,
                                    205, 206, 207, -1, 209, 210, 213, -1,
                                    210, 212, 213, -1, 210, 211, 212, -1,
                                    217, 215, 216, -1, 214, 215, 219, -1,
                                    215, 218, 219, -1, 217, 218, 215, -1,
                                    221, 223, 220, -1, 222, 223, 221, -1,
                                    224, 227, 225, -1, 224, 226, 227, -1,
                                    231, 228, 230, -1, 229, 228, 231, -1,
                                    232, 234, 233, -1, 233, 234, 235, -1,
                                    239, 236, 238, -1, 237, 236, 239, -1,
                                    240, 243, 241, -1, 240, 242, 243, -1,
                                    245, 251, 244, -1, 244, 251, 252, -1,
                                    245, 246, 251, -1, 251, 249, 250, -1,
                                    246, 249, 251, -1, 247, 248, 246, -1,
                                    246, 248, 249, -1, 256, 254, 255, -1,
                                    253, 254, 256, -1, 260, 258, 259, -1,
                                    257, 258, 260, -1, 265, 266, 264, -1,
                                    268, 266, 267, -1, 268, 261, 266, -1,
                                    266, 263, 264, -1, 261, 263, 266, -1,
                                    268, 269, 261, -1, 269, 262, 261, -1,
                                    274, 275, 273, -1, 277, 275, 276, -1,
                                    277, 270, 275, -1, 275, 272, 273, -1,
                                    270, 272, 275, -1, 277, 278, 270, -1,
                                    278, 271, 270, -1, 280, 286, 279, -1,
                                    279, 286, 287, -1, 280, 281, 286, -1,
                                    286, 284, 285, -1, 281, 284, 286, -1,
                                    282, 283, 281, -1, 281, 283, 284, -1,
                                    291, 289, 290, -1, 288, 289, 291, -1,
                                    293, 299, 292, -1, 292, 299, 300, -1,
                                    293, 294, 299, -1, 299, 297, 298, -1,
                                    294, 297, 299, -1, 295, 296, 294, -1,
                                    294, 296, 297, -1, 302, 303, 301, -1,
                                    301, 303, 304, -1, 308, 306, 307, -1,
                                    305, 306, 308, -1, 310, 309, 312, -1,
                                    309, 311, 312, -1, 315, 313, 314, -1,
                                    316, 313, 315, -1, 320, 318, 319, -1,
                                    317, 318, 320, -1, 324, 325, 323, -1,
                                    325, 322, 323, -1, 326, 321, 325, -1,
                                    325, 321, 322, -1, 329, 327, 328, -1,
                                    330, 327, 329, -1, 334, 332, 333, -1,
                                    334, 331, 332, -1, 337, 335, 336, -1,
                                    338, 335, 337, -1, 342, 339, 341, -1,
                                    339, 340, 341, -1, 343, 344, 346, -1,
                                    344, 345, 346, -1, 347, 348, 350, -1,
                                    348, 349, 350, -1, 351, 353, 354, -1,
                                    351, 352, 353, -1, 357, 356, 355, -1,
                                    357, 358, 356, -1, 364, 360, 363, -1,
                                    360, 362, 363, -1, 359, 361, 360, -1,
                                    360, 361, 362, -1, 366, 367, 365, -1,
                                    367, 368, 365, -1, 371, 370, 369, -1,
                                    372, 370, 371, -1, 374, 376, 373, -1,
                                    375, 376, 374, -1, 380, 378, 379, -1,
                                    377, 378, 380, -1, 382, 383, 381, -1,
                                    383, 384, 381, -1, 386, 388, 389, -1,
                                    387, 386, 385, -1, 387, 388, 386, -1,
                                    390, 392, 391, -1, 394, 392, 393, -1,
                                    394, 395, 392, -1, 392, 395, 391, -1,
                                    397, 399, 396, -1, 398, 399, 397, -1,
                                    403, 401, 402, -1, 400, 401, 403, -1,
                                    404, 405, 407, -1, 405, 406, 407, -1,
                                    411, 408, 410, -1, 409, 408, 411, -1,
                                    414, 413, 412, -1, 414, 415, 413, -1,
                                    419, 416, 418, -1, 417, 416, 419, -1,
                                    420, 423, 421, -1, 422, 423, 420, -1,
                                    427, 425, 426, -1, 424, 425, 427, -1,
                                    428, 429, 430, -1, 428, 430, 431, -1,
                                    433, 434, 432, -1, 434, 435, 432, -1,
                                    437, 438, 436, -1, 438, 439, 436, -1,
                                    441, 443, 440, -1, 442, 443, 441, -1,
                                    447, 445, 444, -1, 447, 444, 446, -1,
                                    449, 450, 448, -1, 450, 451, 448, -1,
                                    453, 454, 452, -1, 454, 455, 452, -1,
                                    457, 459, 456, -1, 458, 459, 457, -1,
                                    462, 461, 460, -1, 463, 461, 462, -1,
                                    464, 465, 470, -1, 471, 464, 470, -1,
                                    466, 470, 465, -1, 469, 470, 466, -1,
                                    467, 468, 469, -1, 467, 469, 466, -1,
                                    472, 474, 473, -1, 473, 474, 475, -1 ]
                                colorIndex [ 0, 0, 1, 1, 1, 1, 1, 1,
                                    1, 1, 1, 1, 1, 1, 1, 1,
                                    2, 2, 3, 3, 4, 4, 4, 4,
                                    5, 5, 6, 6, 7, 7, 7, 7,
                                    7, 7, 7, 7, 7, 7, 7, 7,
                                    7, 7, 8, 8, 8, 8, 9, 9,
                                    9, 9, 9, 9, 9, 9, 10, 10,
                                    10, 10, 10, 10, 10, 10, 10, 10,
                                    10, 10, 10, 10, 11, 11, 12, 12,
                                    12, 12, 12, 12, 12, 12, 12, 12,
                                    12, 12, 12, 12, 12, 12, 12, 12,
                                    12, 12, 12, 12, 13, 13, 13, 13,
                                    13, 13, 14, 14, 15, 15, 15, 15,
                                    15, 15, 15, 15, 15, 15, 16, 16,
                                    17, 17, 18, 18, 18, 18, 18, 18,
                                    18, 19, 19, 20, 20, 21, 21, 22,
                                    22, 22, 22, 22, 22, 22, 22, 22,
                                    22, 22, 22, 22, 22, 23, 23, 24,
                                    24, 25, 25, 26, 26, 26, 26, 26,
                                    26, 26, 26, 27, 27, 28, 28, 29,
                                    29, 29, 30, 30, 30, 30, 31, 31,
                                    32, 32, 33, 33, 34, 34, 35, 35,
                                    36, 36, 37, 37, 37, 37, 37, 37,
                                    37, 38, 38, 39, 39, 40, 40, 40,
                                    40, 40, 40, 40, 41, 41, 41, 41,
                                    41, 41, 41, 42, 42, 42, 42, 42,
                                    42, 42, 43, 43, 44, 44, 44, 44,
                                    44, 44, 44, 45, 45, 46, 46, 47,
                                    47, 48, 48, 49, 49, 50, 50, 50,
                                    50, 51, 51, 52, 52, 53, 53, 54,
                                    54, 55, 55, 56, 56, 57, 57, 58,
                                    58, 59, 59, 59, 59, 60, 60, 61,
                                    61, 62, 62, 63, 63, 64, 64, 65,
                                    65, 65, 66, 66, 66, 66, 67, 67,
                                    68, 68, 69, 69, 70, 70, 71, 71,
                                    72, 72, 73, 73, 74, 74, 75, 75,
                                    76, 76, 77, 77, 78, 78, 79, 79,
                                    80, 80, 81, 81, 82, 82, 83, 83,
                                    84, 84, 84, 84, 84, 84, 85, 85 ]
                                ccw TRUE
                                solid FALSE
                                convex TRUE
                                creaseAngle 0

                              }

                            }

                        },
                          
                        DEF o3 Group {
                          children 
                            Shape {
                              appearance 
                              Appearance {
                                material 
                                Material {
                                  emissiveColor 0.098039217 0.098039217 0.098039217

                                }

                              }
                              geometry 
                              PointSet {
                                coord 
                                USE o1

                              }

                            }

                        } ]

                    },
                      
                    USE o2,
                      
                    Group {
                      children [ 
                        USE o0,
                          
                        USE o3 ]

                    },
                      
                    USE o3 ]

                }

            }

        }

    }

}
