(module DB2J314 (layer F.Cu) (tedit 56C75BB5)
  (descr "Diode Mini-MELF Standard")
  (tags "Diode Mini-MELF Standard")
  (attr smd)
  (fp_text reference REF** (at 0.2032 -1.9177) (layer F.SilkS)
    (effects (font (size 0.4 0.4) (thickness 0.1)))
  )
  (fp_text value DB2J314 (at 0.01016 2.01676) (layer F.Fab)
    (effects (font (size 0.4 0.4) (thickness 0.1)))
  )
  (fp_line (start -0.61992 0.32772) (end 0.63008 0.32772) (layer F.SilkS) (width 0.05))
  (fp_line (start -0.625 -0.85) (end 0.625 -0.85) (layer F.SilkS) (width 0.05))
  (fp_line (start 0.625 -0.85) (end 0.625 0.85) (layer F.SilkS) (width 0.05))
  (fp_line (start 0.625 0.85) (end -0.625 0.85) (layer F.SilkS) (width 0.05))
  (fp_line (start -0.625 0.85) (end -0.625 -0.85) (layer F.SilkS) (width 0.05))
  (fp_text user K (at 1.0033 0.9525) (layer F.SilkS)
    (effects (font (size 0.5 0.5) (thickness 0.125)))
  )
  (fp_text user A (at 0.98044 -0.93472) (layer F.SilkS)
    (effects (font (size 0.4 0.4) (thickness 0.1)))
  )
  (pad 1 smd rect (at 0 0.975) (size 0.5 0.55) (layers F.Cu F.Paste F.Mask))
  (pad 2 smd rect (at 0 -0.975) (size 0.35 0.55) (layers F.Cu F.Paste F.Mask))
  (model Diodes_SMD.3dshapes/MiniMELF_Standard.wrl
    (at (xyz 0 0 0))
    (scale (xyz 0.3937 0.3937 0.3937))
    (rotate (xyz 0 0 0))
  )
)
