PCBNEW-LibModule-V1  Fri 13 Jun 2014 10:51:02 PM EDT
# encoding utf-8
Units mm
$INDEX
MOSFET-LFPAK56
$EndINDEX
$MODULE MOSFET-LFPAK56
Po 0 0 0 15 539BB779 00000000 ~~
Li MOSFET-LFPAK56
Sc 0
AR 
Op 0 0 0
T0 0 -2.7 1 1 0 0.15 N V 21 N "MOSFET-LFPAK56"
T1 -0.5 -2.7 1 1 0 0.15 N V 21 N "VAL**"
$PAD
Sh "1" R 0.6 1.3 0 0 0
Dr 0 0 0
At SMD N 00888000
Ne 0 ""
Po -1.905 2.54
$EndPAD
$PAD
Sh "2" R 0.6 1.3 0 0 0
Dr 0 0 0
At SMD N 00888000
Ne 0 ""
Po -0.635 2.54
$EndPAD
$PAD
Sh "3" R 0.6 1.3 0 0 0
Dr 0 0 0
At SMD N 00888000
Ne 0 ""
Po 0.635 2.54
$EndPAD
$PAD
Sh "4" R 0.6 1.3 0 0 0
Dr 0 0 0
At SMD N 00888000
Ne 0 ""
Po 1.905 2.54
$EndPAD
$PAD
Sh "5" R 4.9 4.65 0 0 0
Dr 0 0 0
At SMD N 00888000
Ne 0 ""
Po 0 -1.143
$EndPAD
$EndMODULE MOSFET-LFPAK56
$EndLIBRARY 
