 
PCBNEW-LibModule-V1  Wed 29 Oct 2014 04:22:44 PM EDT
# encoding utf-8
Units mm
$INDEX
RPSMA_EDGE
$EndINDEX
$MODULE RPSMA_EDGE
Po 0 0 0 15 54514C87 00000000 ~~
Li RPSMA_EDGE
Sc 0
AR 
Op 0 0 0
T0 3.5 -0.25 1 1 900 0.15 N V 21 N "RPSMA_EDGE"
T1 5.05 -0.35 1 1 900 0.15 N V 21 N "VAL**"
$PAD
Sh "1" R 1.1 4.5 0 0 900
Dr 0 0 0
At SMD N 00888000
Ne 0 ""
Po 0 -2.54
$EndPAD
$PAD
Sh "2" R 1.1 4.5 0 0 900
Dr 0 0 0
At SMD N 00888000
Ne 0 ""
Po 0 0
$EndPAD
$PAD
Sh "1" R 1.1 4.5 0 0 900
Dr 0 0 0
At SMD N 00888000
Ne 0 ""
Po 0 2.54
$EndPAD
$PAD
Sh "1" R 1.1 4.5 0 0 900
Dr 0 0 0
At SMD N 00C80001
Ne 0 ""
Po 0 -2.54
$EndPAD
$PAD
Sh "1" R 1.1 4.5 0 0 900
Dr 0 0 0
At SMD N 00880001
Ne 0 ""
Po 0 2.54
$EndPAD
$EndMODULE RPSMA_EDGE
$EndLIBRARY