(module SM05B-GHS-TB (layer F.Cu) (tedit 56D59CCB)
  (fp_text reference REF** (at -4.41706 -4.7752) (layer F.SilkS)
    (effects (font (size 0.6 0.6) (thickness 0.15)))
  )
  (fp_text value SM05B-GHS-BT (at 0.07874 1.20904) (layer F.Fab)
    (effects (font (size 0.6 0.6) (thickness 0.15)))
  )
  (fp_line (start 4.75 0) (end 4.75 -4.25) (layer F.SilkS) (width 0.05))
  (fp_line (start 4.75 0) (end -4.75 0) (layer F.SilkS) (width 0.05))
  (fp_line (start -4.75 0) (end -4.75 -4.25) (layer F.SilkS) (width 0.05))
  (fp_line (start -4.75 -4.25) (end 4.75 -4.25) (layer F.SilkS) (width 0.05))
  (pad 5 smd rect (at -2.5 -4.4627) (size 0.6 1.7) (layers F.Cu F.Paste F.Mask))
  (pad 4 smd rect (at -1.25 -4.45) (size 0.6 1.7) (layers F.Cu F.Paste F.Mask))
  (pad 1 smd rect (at 2.5 -4.45) (size 0.6 1.7) (layers F.Cu F.Paste F.Mask))
  (pad 3 smd rect (at 0 -4.45) (size 0.6 1.7) (layers F.Cu F.Paste F.Mask))
  (pad 2 smd rect (at 1.25 -4.45) (size 0.6 1.7) (layers F.Cu F.Paste F.Mask))
  (pad "" smd rect (at -4.35 -1.1) (size 1 2.7) (layers F.Cu F.Paste F.Mask))
  (pad "" smd rect (at 4.35 -1.1) (size 1 2.7) (layers F.Cu F.Paste F.Mask))
  (model JST_GH/SM05B-GHS-TB.wrl
    (at (xyz 0 0 0))
    (scale (xyz 1 1 1))
    (rotate (xyz 0 0 0))
  )
)
