(module XBEE-868LP (layer F.Cu) (tedit 569239B3)
  (fp_text reference REF** (at 0.05842 5.00888) (layer F.SilkS)
    (effects (font (size 1 1) (thickness 0.15)))
  )
  (fp_text value XBEE-868LP (at 0.09906 -4.13512) (layer F.Fab)
    (effects (font (size 1 1) (thickness 0.15)))
  )
  (fp_line (start 11 -16.89) (end 11 16.89) (layer F.SilkS) (width 0.05))
  (fp_line (start -11 -16.89) (end -11 16.89) (layer F.SilkS) (width 0.05))
  (fp_line (start -11 16.89) (end 11 16.89) (layer F.SilkS) (width 0.05))
  (fp_line (start -11 -16.89) (end 11 -16.89) (layer F.SilkS) (width 0.05))
  (pad 2 smd rect (at -11.125 -7.19) (size 2.08 1.52) (layers F.Cu F.Paste F.Mask))
  (pad 37 smd rect (at 11.125 -15.19) (size 2.08 1.52) (layers F.Cu F.Paste F.Mask))
  (pad 1 smd rect (at -11.125 -9.19) (size 2.08 1.52) (layers F.Cu F.Paste F.Mask))
  (pad 1 smd circle (at -10.08 -9.19) (size 1.52 1.52) (layers F.Cu F.Paste F.Mask))
  (pad 3 smd rect (at -11.125 -5.19) (size 2.08 1.52) (layers F.Cu F.Paste F.Mask))
  (pad 4 smd rect (at -11.125 -3.19) (size 2.08 1.52) (layers F.Cu F.Paste F.Mask))
  (pad 5 smd rect (at -11.125 -1.19) (size 2.08 1.52) (layers F.Cu F.Paste F.Mask))
  (pad 6 smd rect (at -11.125 0.81) (size 2.08 1.52) (layers F.Cu F.Paste F.Mask))
  (pad 7 smd rect (at -11.125 2.81) (size 2.08 1.52) (layers F.Cu F.Paste F.Mask))
  (pad 8 smd rect (at -11.125 4.81) (size 2.08 1.52) (layers F.Cu F.Paste F.Mask))
  (pad 9 smd rect (at -11.125 6.81) (size 2.08 1.52) (layers F.Cu F.Paste F.Mask))
  (pad 10 smd rect (at -11.125 8.81) (size 2.08 1.52) (layers F.Cu F.Paste F.Mask))
  (pad 11 smd rect (at -11.125 10.81) (size 2.08 1.52) (layers F.Cu F.Paste F.Mask))
  (pad 12 smd rect (at -11.125 12.81) (size 2.08 1.52) (layers F.Cu F.Paste F.Mask))
  (pad 13 smd rect (at -11.125 14.81) (size 2.08 1.52) (layers F.Cu F.Paste F.Mask))
  (pad 14 smd rect (at -7.125 17.03) (size 1.52 2.08) (layers F.Cu F.Paste F.Mask))
  (pad 15 smd rect (at -5.125 17.03) (size 1.52 2.08) (layers F.Cu F.Paste F.Mask))
  (pad 16 smd rect (at -3.125 17.03) (size 1.52 2.08) (layers F.Cu F.Paste F.Mask))
  (pad 17 smd rect (at -1.125 17.03) (size 1.52 2.08) (layers F.Cu F.Paste F.Mask))
  (pad 18 smd rect (at 0.875 17.03) (size 1.52 2.08) (layers F.Cu F.Paste F.Mask))
  (pad 19 smd rect (at 2.875 17.03) (size 1.52 2.08) (layers F.Cu F.Paste F.Mask))
  (pad 20 smd rect (at 4.875 17.03) (size 1.52 2.08) (layers F.Cu F.Paste F.Mask))
  (pad 21 smd rect (at 6.875 17.03) (size 1.52 2.08) (layers F.Cu F.Paste F.Mask))
  (pad 23 smd rect (at 11.125 12.81) (size 2.08 1.52) (layers F.Cu F.Paste F.Mask))
  (pad 22 smd rect (at 11.125 14.81) (size 2.08 1.52) (layers F.Cu F.Paste F.Mask))
  (pad 24 smd rect (at 11.125 10.81) (size 2.08 1.52) (layers F.Cu F.Paste F.Mask))
  (pad 25 smd rect (at 11.125 8.81) (size 2.08 1.52) (layers F.Cu F.Paste F.Mask))
  (pad 26 smd rect (at 11.125 6.81) (size 2.08 1.52) (layers F.Cu F.Paste F.Mask))
  (pad 27 smd rect (at 11.125 4.81) (size 2.08 1.52) (layers F.Cu F.Paste F.Mask))
  (pad 28 smd rect (at 11.125 2.81) (size 2.08 1.52) (layers F.Cu F.Paste F.Mask))
  (pad 29 smd rect (at 11.125 0.81) (size 2.08 1.52) (layers F.Cu F.Paste F.Mask))
  (pad 30 smd rect (at 11.125 -1.19) (size 2.08 1.52) (layers F.Cu F.Paste F.Mask))
  (pad 31 smd rect (at 11.125 -3.19) (size 2.08 1.52) (layers F.Cu F.Paste F.Mask))
  (pad 32 smd rect (at 11.125 -5.19) (size 2.08 1.52) (layers F.Cu F.Paste F.Mask))
  (pad 33 smd rect (at 11.125 -7.19) (size 2.08 1.52) (layers F.Cu F.Paste F.Mask))
  (pad 34 smd rect (at 11.125 -9.19) (size 2.08 1.52) (layers F.Cu F.Paste F.Mask))
  (pad 35 smd rect (at 11.125 -11.19) (size 2.08 1.52) (layers F.Cu F.Paste F.Mask))
  (pad 36 smd rect (at 11.125 -13.19) (size 2.08 1.52) (layers F.Cu F.Paste F.Mask))
  (pad 2 smd circle (at -10.08 -7.19) (size 1.52 1.52) (layers F.Cu F.Paste F.Mask))
  (pad 3 smd circle (at -10.08 -5.19) (size 1.52 1.52) (layers F.Cu F.Paste F.Mask))
  (pad 4 smd circle (at -10.08 -3.19) (size 1.52 1.52) (layers F.Cu F.Paste F.Mask))
  (pad 5 smd circle (at -10.08 -1.19) (size 1.52 1.52) (layers F.Cu F.Paste F.Mask))
  (pad 6 smd circle (at -10.08 0.81) (size 1.52 1.52) (layers F.Cu F.Paste F.Mask))
  (pad 7 smd circle (at -10.08 2.81) (size 1.52 1.52) (layers F.Cu F.Paste F.Mask))
  (pad 8 smd circle (at -10.08 4.81) (size 1.52 1.52) (layers F.Cu F.Paste F.Mask))
  (pad 9 smd circle (at -10.08 6.81) (size 1.52 1.52) (layers F.Cu F.Paste F.Mask))
  (pad 10 smd circle (at -10.08 8.81) (size 1.52 1.52) (layers F.Cu F.Paste F.Mask))
  (pad 11 smd circle (at -10.08 10.81) (size 1.52 1.52) (layers F.Cu F.Paste F.Mask))
  (pad 12 smd circle (at -10.08 12.81) (size 1.52 1.52) (layers F.Cu F.Paste F.Mask))
  (pad 13 smd circle (at -10.08 14.81) (size 1.52 1.52) (layers F.Cu F.Paste F.Mask))
  (pad 14 smd circle (at -7.125 15.895) (size 1.52 1.52) (layers F.Cu F.Paste F.Mask))
  (pad 15 smd circle (at -5.125 15.895) (size 1.52 1.52) (layers F.Cu F.Paste F.Mask))
  (pad 16 smd circle (at -3.125 15.895) (size 1.52 1.52) (layers F.Cu F.Paste F.Mask))
  (pad 17 smd circle (at -1.125 15.895) (size 1.52 1.52) (layers F.Cu F.Paste F.Mask))
  (pad 18 smd circle (at 0.875 15.895) (size 1.52 1.52) (layers F.Cu F.Paste F.Mask))
  (pad 19 smd circle (at 2.875 15.895) (size 1.52 1.52) (layers F.Cu F.Paste F.Mask))
  (pad 20 smd circle (at 4.875 15.895) (size 1.52 1.52) (layers F.Cu F.Paste F.Mask))
  (pad 21 smd circle (at 6.875 15.895) (size 1.52 1.52) (layers F.Cu F.Paste F.Mask))
  (pad 22 smd circle (at 10.08 14.81) (size 1.52 1.52) (layers F.Cu F.Paste F.Mask))
  (pad 23 smd circle (at 10.08 12.81) (size 1.52 1.52) (layers F.Cu F.Paste F.Mask))
  (pad 24 smd circle (at 10.08 10.81) (size 1.52 1.52) (layers F.Cu F.Paste F.Mask))
  (pad 25 smd circle (at 10.08 8.81) (size 1.52 1.52) (layers F.Cu F.Paste F.Mask))
  (pad 26 smd circle (at 10.08 6.81) (size 1.52 1.52) (layers F.Cu F.Paste F.Mask))
  (pad 27 smd circle (at 10.08 4.81) (size 1.52 1.52) (layers F.Cu F.Paste F.Mask))
  (pad 28 smd circle (at 10.08 2.81) (size 1.52 1.52) (layers F.Cu F.Paste F.Mask))
  (pad 29 smd circle (at 10.08 0.81) (size 1.52 1.52) (layers F.Cu F.Paste F.Mask))
  (pad 30 smd circle (at 10.08 -1.19) (size 1.52 1.52) (layers F.Cu F.Paste F.Mask))
  (pad 31 smd circle (at 10.08 -3.19) (size 1.52 1.52) (layers F.Cu F.Paste F.Mask))
  (pad 32 smd circle (at 10.08 -5.19) (size 1.52 1.52) (layers F.Cu F.Paste F.Mask))
  (pad 33 smd circle (at 10.08 -7.19) (size 1.52 1.52) (layers F.Cu F.Paste F.Mask))
  (pad 34 smd circle (at 10.08 -9.19) (size 1.52 1.52) (layers F.Cu F.Paste F.Mask))
  (pad 35 smd circle (at 10.08 -11.19) (size 1.52 1.52) (layers F.Cu F.Paste F.Mask))
  (pad 36 smd circle (at 10.08 -13.19) (size 1.52 1.52) (layers F.Cu F.Paste F.Mask))
  (pad 37 smd circle (at 10.08 -15.19) (size 1.52 1.52) (layers F.Cu F.Paste F.Mask))
  (model ../../../../../home/ubuntu/HEXAGON-ROBOTICS/LIBS/JoanTheSpark/KiCAD/3D-shapes/Module_XBee-868LP.wrl
    (at (xyz 0 0 0))
    (scale (xyz 1 1 1))
    (rotate (xyz 0 0 0))
  )
)
