%!PS-Adobe-3.0
%%Creator: PCBNEW
%%CreationDate: Thu Feb 25 18:48:39 2016
%%Title: /home/ubuntu/HEXAGON-ROBOTICS/HEXAGON-ROBOTICS-GNSS-DR/GERBER/DR8-B.cu.ps
%%Pages: 1
%%PageOrder: Ascend
%%BoundingBox: 0 0 596 842
%%DocumentMedia: A4 595 842 0 () ()
%%Orientation: Landscape
%%EndComments
%%BeginProlog
/line { newpath moveto lineto stroke } bind def
/cir0 { newpath 0 360 arc stroke } bind def
/cir1 { newpath 0 360 arc gsave fill grestore stroke } bind def
/cir2 { newpath 0 360 arc gsave fill grestore stroke } bind def
/arc0 { newpath arc stroke } bind def
/arc1 { newpath 4 index 4 index moveto arc closepath gsave fill
    grestore stroke } bind def
/arc2 { newpath 4 index 4 index moveto arc closepath gsave fill
    grestore stroke } bind def
/poly0 { stroke } bind def
/poly1 { closepath gsave fill grestore stroke } bind def
/poly2 { closepath gsave fill grestore stroke } bind def
/rect0 { rectstroke } bind def
/rect1 { rectfill } bind def
/rect2 { rectfill } bind def
/linemode0 { 0 setlinecap 0 setlinejoin 0 setlinewidth } bind def
/linemode1 { 1 setlinecap 1 setlinejoin } bind def
/dashedline { [200] 100 setdash } bind def
/solidline { [] 0 setdash } bind def
/phantomshow { moveto
    /KicadFont findfont 0.000001 scalefont setfont
    show } bind def
/textshow { gsave
    findfont exch scalefont setfont concat 1 scale 0 0 moveto show
    } bind def
/reencodefont {
  findfont dup length dict begin
  { 1 index /FID ne
    { def }
    { pop pop } ifelse
  } forall
  /Encoding ISOLatin1Encoding def
  currentdict
  end } bind def
/KicadFont /Helvetica reencodefont definefont pop
/KicadFont-Bold /Helvetica-Bold reencodefont definefont pop
/KicadFont-Oblique /Helvetica-Oblique reencodefont definefont pop
/KicadFont-BoldOblique /Helvetica-BoldOblique reencodefont definefont pop
%%EndProlog
%%Page: 1 1
%%BeginPageSetup
gsave
0.0072 0.0072 scale
linemode1
82680 0 translate 90 rotate
39.3701 setlinewidth
%%EndPageSetup
0 0 0 setrgbcolor
0 0 0 setrgbcolor
0 setlinewidth
newpath
41557.8 37364.6 moveto
41557.8 38939.4 lineto
42778.3 38939.4 lineto
42778.3 37364.6 lineto
41557.8 37364.6 lineto
poly1
0 0 0 setrgbcolor
newpath
36163.4 37372.6 moveto
36163.4 38947.4 lineto
37344.6 38947.4 lineto
37344.6 37372.6 lineto
36163.4 37372.6 lineto
poly1
0 0 0 setrgbcolor
38390.7 43305 236.22 cir1
39.3701 setlinewidth
0 0 0 setrgbcolor
0 setlinewidth
newpath
32165.4 41656.4 moveto
32165.4 41971.3 lineto
32874 41971.3 lineto
32874 41656.4 lineto
32165.4 41656.4 lineto
poly1
0 0 0 setrgbcolor
newpath
32165.4 47168.2 moveto
32165.4 47483.1 lineto
32874 47483.1 lineto
32874 47168.2 lineto
32165.4 47168.2 lineto
poly1
0 0 0 setrgbcolor
newpath
36889.8 47168.2 moveto
36889.8 47483.1 lineto
37598.4 47483.1 lineto
37598.4 47168.2 lineto
36889.8 47168.2 lineto
poly1
0 0 0 setrgbcolor
newpath
36889.8 46735.1 moveto
36889.8 47050.1 lineto
37598.4 47050.1 lineto
37598.4 46735.1 lineto
36889.8 46735.1 lineto
poly1
0 0 0 setrgbcolor
newpath
36889.8 46302 moveto
36889.8 46617 lineto
37598.4 46617 lineto
37598.4 46302 lineto
36889.8 46302 lineto
poly1
0 0 0 setrgbcolor
newpath
36889.8 45869 moveto
36889.8 46183.9 lineto
37598.4 46183.9 lineto
37598.4 45869 lineto
36889.8 45869 lineto
poly1
0 0 0 setrgbcolor
newpath
36889.8 45435.9 moveto
36889.8 45750.9 lineto
37598.4 45750.9 lineto
37598.4 45435.9 lineto
36889.8 45435.9 lineto
poly1
0 0 0 setrgbcolor
newpath
36889.8 45002.8 moveto
36889.8 45317.8 lineto
37598.4 45317.8 lineto
37598.4 45002.8 lineto
36889.8 45002.8 lineto
poly1
0 0 0 setrgbcolor
newpath
36889.8 44569.8 moveto
36889.8 44884.7 lineto
37598.4 44884.7 lineto
37598.4 44569.8 lineto
36889.8 44569.8 lineto
poly1
0 0 0 setrgbcolor
newpath
36889.8 43388.7 moveto
36889.8 43703.6 lineto
37598.4 43703.6 lineto
37598.4 43388.7 lineto
36889.8 43388.7 lineto
poly1
0 0 0 setrgbcolor
newpath
36889.8 42955.6 moveto
36889.8 43270.6 lineto
37598.4 43270.6 lineto
37598.4 42955.6 lineto
36889.8 42955.6 lineto
poly1
0 0 0 setrgbcolor
newpath
36889.8 42522.5 moveto
36889.8 42837.5 lineto
37598.4 42837.5 lineto
37598.4 42522.5 lineto
36889.8 42522.5 lineto
poly1
0 0 0 setrgbcolor
newpath
36889.8 42089.4 moveto
36889.8 42404.4 lineto
37598.4 42404.4 lineto
37598.4 42089.4 lineto
36889.8 42089.4 lineto
poly1
0 0 0 setrgbcolor
newpath
36889.8 41656.4 moveto
36889.8 41971.3 lineto
37598.4 41971.3 lineto
37598.4 41656.4 lineto
36889.8 41656.4 lineto
poly1
0 0 0 setrgbcolor
newpath
32165.4 42089.4 moveto
32165.4 42404.4 lineto
32874 42404.4 lineto
32874 42089.4 lineto
32165.4 42089.4 lineto
poly1
0 0 0 setrgbcolor
newpath
32165.4 42522.5 moveto
32165.4 42837.5 lineto
32874 42837.5 lineto
32874 42522.5 lineto
32165.4 42522.5 lineto
poly1
0 0 0 setrgbcolor
newpath
32165.4 42955.6 moveto
32165.4 43270.6 lineto
32874 43270.6 lineto
32874 42955.6 lineto
32165.4 42955.6 lineto
poly1
0 0 0 setrgbcolor
newpath
32165.4 43388.7 moveto
32165.4 43703.6 lineto
32874 43703.6 lineto
32874 43388.7 lineto
32165.4 43388.7 lineto
poly1
0 0 0 setrgbcolor
newpath
32165.4 44569.8 moveto
32165.4 44884.7 lineto
32874 44884.7 lineto
32874 44569.8 lineto
32165.4 44569.8 lineto
poly1
0 0 0 setrgbcolor
newpath
32165.4 45002.8 moveto
32165.4 45317.8 lineto
32874 45317.8 lineto
32874 45002.8 lineto
32165.4 45002.8 lineto
poly1
0 0 0 setrgbcolor
newpath
32165.4 45435.9 moveto
32165.4 45750.9 lineto
32874 45750.9 lineto
32874 45435.9 lineto
32165.4 45435.9 lineto
poly1
0 0 0 setrgbcolor
newpath
32165.4 45869 moveto
32165.4 46183.9 lineto
32874 46183.9 lineto
32874 45869 lineto
32165.4 45869 lineto
poly1
0 0 0 setrgbcolor
newpath
32165.4 46302 moveto
32165.4 46617 lineto
32874 46617 lineto
32874 46302 lineto
32165.4 46302 lineto
poly1
0 0 0 setrgbcolor
newpath
32165.4 46735.1 moveto
32165.4 47050.1 lineto
32874 47050.1 lineto
32874 46735.1 lineto
32165.4 46735.1 lineto
poly1
0 0 0 setrgbcolor
newpath
43374 46648.5 moveto
43374 46845.4 lineto
43610.2 46845.4 lineto
43610.2 46648.5 lineto
43374 46648.5 lineto
poly1
0 0 0 setrgbcolor
newpath
43807.1 46648.5 moveto
43807.1 46845.4 lineto
44043.3 46845.4 lineto
44043.3 46648.5 lineto
43807.1 46648.5 lineto
poly1
0 0 0 setrgbcolor
newpath
43409.4 43695.7 moveto
43409.4 43892.6 lineto
43645.7 43892.6 lineto
43645.7 43695.7 lineto
43409.4 43695.7 lineto
poly1
0 0 0 setrgbcolor
newpath
43842.5 43695.7 moveto
43842.5 43892.6 lineto
44078.7 43892.6 lineto
44078.7 43695.7 lineto
43842.5 43695.7 lineto
poly1
0 0 0 setrgbcolor
newpath
43389.8 44465.4 moveto
43389.8 44760.7 lineto
43704.7 44760.7 lineto
43704.7 44465.4 lineto
43389.8 44465.4 lineto
poly1
0 0 0 setrgbcolor
newpath
43980.3 44465.4 moveto
43980.3 44760.7 lineto
44295.3 44760.7 lineto
44295.3 44465.4 lineto
43980.3 44465.4 lineto
poly1
0 0 0 setrgbcolor
newpath
42523.6 41780.4 moveto
42523.6 41485.1 lineto
42208.7 41485.1 lineto
42208.7 41780.4 lineto
42523.6 41780.4 lineto
poly1
0 0 0 setrgbcolor
newpath
41933.1 41780.4 moveto
41933.1 41485.1 lineto
41618.1 41485.1 lineto
41618.1 41780.4 lineto
41933.1 41780.4 lineto
poly1
0 0 0 setrgbcolor
newpath
40852.4 48809.9 moveto
41147.6 48809.9 lineto
41147.6 48495 lineto
40852.4 48495 lineto
40852.4 48809.9 lineto
poly1
0 0 0 setrgbcolor
newpath
40852.4 48219.4 moveto
41147.6 48219.4 lineto
41147.6 47904.4 lineto
40852.4 47904.4 lineto
40852.4 48219.4 lineto
poly1
0 0 0 setrgbcolor
newpath
41667.3 48802 moveto
41962.6 48802 lineto
41962.6 48487.1 lineto
41667.3 48487.1 lineto
41667.3 48802 lineto
poly1
0 0 0 setrgbcolor
newpath
41667.3 48211.5 moveto
41962.6 48211.5 lineto
41962.6 47896.5 lineto
41667.3 47896.5 lineto
41667.3 48211.5 lineto
poly1
0 0 0 setrgbcolor
newpath
38692.9 46475.3 moveto
39204.7 46475.3 lineto
39204.7 46199.7 lineto
38692.9 46199.7 lineto
38692.9 46475.3 lineto
poly1
0 0 0 setrgbcolor
newpath
38692.9 45727.2 moveto
39204.7 45727.2 lineto
39204.7 45451.7 lineto
38692.9 45451.7 lineto
38692.9 45727.2 lineto
poly1
0 0 0 setrgbcolor
newpath
39838.6 48928 moveto
40350.4 48928 lineto
40350.4 48652.4 lineto
39838.6 48652.4 lineto
39838.6 48928 lineto
poly1
0 0 0 setrgbcolor
newpath
39838.6 48180 moveto
40350.4 48180 lineto
40350.4 47904.4 lineto
39838.6 47904.4 lineto
39838.6 48180 lineto
poly1
0 0 0 setrgbcolor
newpath
43419.8 42642.9 moveto
43419.8 42902.9 lineto
43579.8 42902.9 lineto
43579.8 42642.9 lineto
43419.8 42642.9 lineto
poly1
0 0 0 setrgbcolor
newpath
43939.8 42642.9 moveto
43939.8 42902.9 lineto
44099.8 42902.9 lineto
44099.8 42642.9 lineto
43939.8 42642.9 lineto
poly1
0 0 0 setrgbcolor
newpath
43679.8 42642.9 moveto
43679.8 42902.9 lineto
43839.8 42902.9 lineto
43839.8 42642.9 lineto
43679.8 42642.9 lineto
poly1
0 0 0 setrgbcolor
newpath
43939.8 41842.9 moveto
43939.8 42102.9 lineto
44099.8 42102.9 lineto
44099.8 41842.9 lineto
43939.8 41842.9 lineto
poly1
0 0 0 setrgbcolor
newpath
43419.8 41842.9 moveto
43419.8 42102.9 lineto
43579.8 42102.9 lineto
43579.8 41842.9 lineto
43419.8 41842.9 lineto
poly1
0 0 0 setrgbcolor
newpath
36543.3 40156.4 moveto
36326.8 40156.4 lineto
36326.8 40353.2 lineto
36543.3 40353.2 lineto
36543.3 40156.4 lineto
poly1
0 0 0 setrgbcolor
newpath
37311 40185.9 moveto
37094.5 40185.9 lineto
37094.5 40323.7 lineto
37311 40323.7 lineto
37311 40185.9 lineto
poly1
0 0 0 setrgbcolor
newpath
42834.6 39471.3 moveto
42834.6 39254.8 lineto
42637.8 39254.8 lineto
42637.8 39471.3 lineto
42834.6 39471.3 lineto
poly1
0 0 0 setrgbcolor
newpath
42805.1 40239.1 moveto
42805.1 40022.5 lineto
42667.3 40022.5 lineto
42667.3 40239.1 lineto
42805.1 40239.1 lineto
poly1
0 0 0 setrgbcolor
newpath
36082.7 39412.3 moveto
36082.7 39648.5 lineto
36240.2 39648.5 lineto
36240.2 39412.3 lineto
36082.7 39412.3 lineto
poly1
0 0 0 setrgbcolor
newpath
36437 39412.3 moveto
36437 39648.5 lineto
36594.5 39648.5 lineto
36594.5 39412.3 lineto
36437 39412.3 lineto
poly1
0 0 0 setrgbcolor
newpath
41948.8 39565.8 moveto
41712.6 39565.8 lineto
41712.6 39723.3 lineto
41948.8 39723.3 lineto
41948.8 39565.8 lineto
poly1
0 0 0 setrgbcolor
newpath
41948.8 39920.2 moveto
41712.6 39920.2 lineto
41712.6 40077.6 lineto
41948.8 40077.6 lineto
41948.8 39920.2 lineto
poly1
0 0 0 setrgbcolor
newpath
44350.4 38910.3 moveto
44350.4 38615 lineto
44035.4 38615 lineto
44035.4 38910.3 lineto
44350.4 38910.3 lineto
poly1
0 0 0 setrgbcolor
newpath
43759.8 38910.3 moveto
43759.8 38615 lineto
43444.9 38615 lineto
43444.9 38910.3 lineto
43759.8 38910.3 lineto
poly1
0 0 0 setrgbcolor
newpath
44409.5 39943.5 moveto
44409.5 39628.5 lineto
44094.5 39628.5 lineto
44094.5 39943.5 lineto
44409.5 39943.5 lineto
poly1
0 0 0 setrgbcolor
newpath
43661.4 39943.5 moveto
43661.4 39628.5 lineto
43346.4 39628.5 lineto
43346.4 39943.5 lineto
43661.4 39943.5 lineto
poly1
0 0 0 setrgbcolor
newpath
44035.5 40730.5 moveto
44035.5 40415.5 lineto
43720.5 40415.5 lineto
43720.5 40730.5 lineto
44035.5 40730.5 lineto
poly1
0 0 0 setrgbcolor
newpath
45505.5 45363.5 moveto
46305.5 45363.5 lineto
46305.5 44563.5 lineto
45505.5 44563.5 lineto
45505.5 45363.5 lineto
poly1
0 0 0 setrgbcolor
newpath
45505.5 46938.3 moveto
46305.5 46938.3 lineto
46305.5 46138.3 lineto
45505.5 46138.3 lineto
45505.5 46938.3 lineto
poly1
0 0 0 setrgbcolor
newpath
42670.9 49524.1 moveto
42670.9 50324.1 lineto
43470.9 50324.1 lineto
43470.9 49524.1 lineto
42670.9 49524.1 lineto
poly1
0 0 0 setrgbcolor
newpath
39600 49524.1 moveto
39600 50324.1 lineto
40400 50324.1 lineto
40400 49524.1 lineto
39600 49524.1 lineto
poly1
0 0 0 setrgbcolor
newpath
41096.1 49524.1 moveto
41096.1 50324.1 lineto
41896.1 50324.1 lineto
41896.1 49524.1 lineto
41096.1 49524.1 lineto
poly1
0 0 0 setrgbcolor
newpath
32325 39132 moveto
32011 39132 lineto
32011 39446 lineto
32325 39446 lineto
32325 39132 lineto
poly1
0 0 0 setrgbcolor
newpath
32325 39722 moveto
32011 39722 lineto
32011 40036 lineto
32325 40036 lineto
32325 39722 lineto
poly1
0 0 0 setrgbcolor
newpath
33125 39140 moveto
32811 39140 lineto
32811 39454 lineto
33125 39454 lineto
33125 39140 lineto
poly1
0 0 0 setrgbcolor
newpath
33125 39730 moveto
32811 39730 lineto
32811 40044 lineto
33125 40044 lineto
33125 39730 lineto
poly1
0 0 0 setrgbcolor
newpath
35047.8 40711.9 moveto
35047.8 40200.1 lineto
34772.2 40200.1 lineto
34772.2 40711.9 lineto
35047.8 40711.9 lineto
poly1
0 0 0 setrgbcolor
newpath
34299.8 40711.9 moveto
34299.8 40200.1 lineto
34024.2 40200.1 lineto
34024.2 40711.9 lineto
34299.8 40711.9 lineto
poly1
0 0 0 setrgbcolor
newpath
35095.8 39399.9 moveto
35095.8 38888.1 lineto
34820.2 38888.1 lineto
34820.2 39399.9 lineto
35095.8 39399.9 lineto
poly1
0 0 0 setrgbcolor
newpath
34347.8 39399.9 moveto
34347.8 38888.1 lineto
34072.2 38888.1 lineto
34072.2 39399.9 lineto
34347.8 39399.9 lineto
poly1
0 0 0 setrgbcolor
newpath
35183.1 48176.1 moveto
34887.8 48176.1 lineto
34887.8 48491 lineto
35183.1 48491 lineto
35183.1 48176.1 lineto
poly1
0 0 0 setrgbcolor
newpath
35183.1 48766.6 moveto
34887.8 48766.6 lineto
34887.8 49081.6 lineto
35183.1 49081.6 lineto
35183.1 48766.6 lineto
poly1
0 0 0 setrgbcolor
newpath
41141.6 43388.7 moveto
41141.6 42758.7 lineto
40117.6 42758.7 lineto
40117.6 43388.7 lineto
41141.6 43388.7 lineto
poly1
0 0 0 setrgbcolor
newpath
42559.6 43388.7 moveto
42559.6 42758.7 lineto
41535.6 42758.7 lineto
41535.6 43388.7 lineto
42559.6 43388.7 lineto
poly1
0 0 0 setrgbcolor
newpath
40945 45908.4 moveto
40945 45278.4 lineto
39764 45278.4 lineto
39764 45908.4 lineto
40945 45908.4 lineto
poly1
0 0 0 setrgbcolor
newpath
42677 45908.4 moveto
42677 45278.4 lineto
41496 45278.4 lineto
41496 45908.4 lineto
42677 45908.4 lineto
poly1
0 0 0 setrgbcolor
newpath
36683.1 49747.4 moveto
36683.1 50494.4 lineto
37145.1 50494.4 lineto
37145.1 49747.4 lineto
36683.1 49747.4 lineto
poly1
0 0 0 setrgbcolor
newpath
37343.1 49747.4 moveto
37343.1 50494.4 lineto
37805.1 50494.4 lineto
37805.1 49747.4 lineto
37343.1 49747.4 lineto
poly1
0 0 0 setrgbcolor
newpath
37923.6 49747.4 moveto
37923.6 50494.4 lineto
38858.6 50494.4 lineto
38858.6 49747.4 lineto
37923.6 49747.4 lineto
poly1
0 0 0 setrgbcolor
newpath
35629.6 49747.4 moveto
35629.6 50494.4 lineto
36564.6 50494.4 lineto
36564.6 49747.4 lineto
35629.6 49747.4 lineto
poly1
0 0 0 setrgbcolor
newpath
37923.1 48802.4 moveto
37923.1 49629.4 lineto
38503.1 49629.4 lineto
38503.1 48802.4 lineto
37923.1 48802.4 lineto
poly1
0 0 0 setrgbcolor
newpath
35985.1 48802.4 moveto
35985.1 49629.4 lineto
36565.1 49629.4 lineto
36565.1 48802.4 lineto
35985.1 48802.4 lineto
poly1
0 0 0 setrgbcolor
newpath
36643.6 48802.4 moveto
36643.6 49345.4 lineto
36820.6 49345.4 lineto
36820.6 48802.4 lineto
36643.6 48802.4 lineto
poly1
0 0 0 setrgbcolor
newpath
36899.6 48802.4 moveto
36899.6 49345.4 lineto
37076.6 49345.4 lineto
37076.6 48802.4 lineto
36899.6 48802.4 lineto
poly1
0 0 0 setrgbcolor
newpath
37155.6 48802.4 moveto
37155.6 49345.4 lineto
37332.6 49345.4 lineto
37332.6 48802.4 lineto
37155.6 48802.4 lineto
poly1
0 0 0 setrgbcolor
newpath
37411.6 48802.4 moveto
37411.6 49345.4 lineto
37588.6 49345.4 lineto
37588.6 48802.4 lineto
37411.6 48802.4 lineto
poly1
0 0 0 setrgbcolor
newpath
37667.6 48802.4 moveto
37667.6 49345.4 lineto
37844.6 49345.4 lineto
37844.6 48802.4 lineto
37667.6 48802.4 lineto
poly1
0 0 0 setrgbcolor
newpath
44980.3 42453.6 moveto
45649.6 42453.6 lineto
45649.6 42217.4 lineto
44980.3 42217.4 lineto
44980.3 42453.6 lineto
poly1
0 0 0 setrgbcolor
newpath
44980.3 41961.5 moveto
45649.6 41961.5 lineto
45649.6 41725.3 lineto
44980.3 41725.3 lineto
44980.3 41961.5 lineto
poly1
0 0 0 setrgbcolor
newpath
44980.3 41469.4 moveto
45649.6 41469.4 lineto
45649.6 41233.1 lineto
44980.3 41233.1 lineto
44980.3 41469.4 lineto
poly1
0 0 0 setrgbcolor
newpath
44980.3 39993 moveto
45649.6 39993 lineto
45649.6 39756.8 lineto
44980.3 39756.8 lineto
44980.3 39993 lineto
poly1
0 0 0 setrgbcolor
newpath
44980.3 40977.2 moveto
45649.6 40977.2 lineto
45649.6 40741 lineto
44980.3 40741 lineto
44980.3 40977.2 lineto
poly1
0 0 0 setrgbcolor
newpath
44980.3 40485.1 moveto
45649.6 40485.1 lineto
45649.6 40248.9 lineto
44980.3 40248.9 lineto
44980.3 40485.1 lineto
poly1
0 0 0 setrgbcolor
newpath
46043.3 43260.7 moveto
47106.3 43260.7 lineto
47106.3 42867 lineto
46043.3 42867 lineto
46043.3 43260.7 lineto
poly1
0 0 0 setrgbcolor
newpath
46043.3 39343.4 moveto
47106.3 39343.4 lineto
47106.3 38949.7 lineto
46043.3 38949.7 lineto
46043.3 39343.4 lineto
poly1
0 0 0 setrgbcolor
newpath
43265.7 46120.9 moveto
43561 46120.9 lineto
43561 45806 lineto
43265.7 45806 lineto
43265.7 46120.9 lineto
poly1
0 0 0 setrgbcolor
newpath
43265.7 45530.4 moveto
43561 45530.4 lineto
43561 45215.4 lineto
43265.7 45215.4 lineto
43265.7 45530.4 lineto
poly1
0 0 0 setrgbcolor
42165.4 37541.8 177.165 cir1
39.3701 setlinewidth
0 0 0 setrgbcolor
0 setlinewidth
39641.7 48345.7 177.165 cir1
39.3701 setlinewidth
0 0 0 setrgbcolor
0 setlinewidth
38086.6 48443.8 177.165 cir1
39.3701 setlinewidth
0 0 0 setrgbcolor
0 setlinewidth
37905.5 42676.1 177.165 cir1
39.3701 setlinewidth
0 0 0 setrgbcolor
0 setlinewidth
32334.6 41148.5 177.165 cir1
39.3701 setlinewidth
0 0 0 setrgbcolor
0 setlinewidth
37937 41833.5 177.165 cir1
39.3701 setlinewidth
0 0 0 setrgbcolor
0 setlinewidth
42063 44262.7 177.165 cir1
39.3701 setlinewidth
0 0 0 setrgbcolor
0 setlinewidth
35039.4 49534.3 177.165 cir1
39.3701 setlinewidth
0 0 0 setrgbcolor
0 setlinewidth
32515.7 47829.6 177.165 cir1
39.3701 setlinewidth
0 0 0 setrgbcolor
0 setlinewidth
40259.8 44286.3 177.165 cir1
39.3701 setlinewidth
0 0 0 setrgbcolor
0 setlinewidth
39633.9 44699.7 177.165 cir1
39.3701 setlinewidth
0 0 0 setrgbcolor
0 setlinewidth
42322.8 40231.2 177.165 cir1
39.3701 setlinewidth
0 0 0 setrgbcolor
0 setlinewidth
42295.3 40907.6 177.165 cir1
39.3701 setlinewidth
0 0 0 setrgbcolor
0 setlinewidth
41244.1 47755.8 118.11 cir1
39.3701 setlinewidth
0 0 0 setrgbcolor
0 setlinewidth
39531 46491 118.11 cir1
39.3701 setlinewidth
0 0 0 setrgbcolor
0 setlinewidth
44785.2 38521.5 118.11 cir1
39.3701 setlinewidth
0 0 0 setrgbcolor
0 setlinewidth
33437 41128.8 118.11 cir1
39.3701 setlinewidth
0 0 0 setrgbcolor
0 setlinewidth
33433.1 43113.1 118.11 cir1
39.3701 setlinewidth
0 0 0 setrgbcolor
0 setlinewidth
44697 38820.9 118.11 cir1
39.3701 setlinewidth
0 0 0 setrgbcolor
0 setlinewidth
33770.7 41227.3 118.11 cir1
39.3701 setlinewidth
0 0 0 setrgbcolor
0 setlinewidth
33728.3 43109.1 118.11 cir1
39.3701 setlinewidth
0 0 0 setrgbcolor
0 setlinewidth
46740.2 42479.2 118.11 cir1
39.3701 setlinewidth
0 0 0 setrgbcolor
0 setlinewidth
46815 43723.3 118.11 cir1
39.3701 setlinewidth
0 0 0 setrgbcolor
0 setlinewidth
38730.3 46676.1 118.11 cir1
39.3701 setlinewidth
0 0 0 setrgbcolor
0 setlinewidth
42023.6 47380.8 118.11 cir1
39.3701 setlinewidth
0 0 0 setrgbcolor
0 setlinewidth
44720.3 40858.4 118.11 cir1
39.3701 setlinewidth
0 0 0 setrgbcolor
0 setlinewidth
44711.2 40386.9 118.11 cir1
39.3701 setlinewidth
0 0 0 setrgbcolor
0 setlinewidth
39326.8 49798.1 118.11 cir1
39.3701 setlinewidth
0 0 0 setrgbcolor
0 setlinewidth
35291.3 43695.7 118.11 cir1
39.3701 setlinewidth
0 0 0 setrgbcolor
0 setlinewidth
42358.3 48022.5 118.11 cir1
39.3701 setlinewidth
0 0 0 setrgbcolor
0 setlinewidth
42433.1 47250.9 118.11 cir1
39.3701 setlinewidth
0 0 0 setrgbcolor
0 setlinewidth
40767.7 50046.1 118.11 cir1
39.3701 setlinewidth
0 0 0 setrgbcolor
0 setlinewidth
35063 43904.4 118.11 cir1
39.3701 setlinewidth
0 0 0 setrgbcolor
0 setlinewidth
42232.3 46746.9 118.11 cir1
39.3701 setlinewidth
0 0 0 setrgbcolor
0 setlinewidth
40968.5 46715.4 118.11 cir1
39.3701 setlinewidth
0 0 0 setrgbcolor
0 setlinewidth
41929.1 46932 118.11 cir1
39.3701 setlinewidth
0 0 0 setrgbcolor
0 setlinewidth
40817 46991.4 118.11 cir1
39.3701 setlinewidth
0 0 0 setrgbcolor
0 setlinewidth
41315 39613.1 177.165 cir1
39.3701 setlinewidth
0 0 0 setrgbcolor
0 setlinewidth
39480.3 42243 177.165 cir1
39.3701 setlinewidth
0 0 0 setrgbcolor
0 setlinewidth
40228.3 42246.9 177.165 cir1
39.3701 setlinewidth
0 0 0 setrgbcolor
0 setlinewidth
44192.9 39278.4 177.165 cir1
39.3701 setlinewidth
0 0 0 setrgbcolor
0 setlinewidth
35212.6 39876.9 177.165 cir1
39.3701 setlinewidth
0 0 0 setrgbcolor
0 setlinewidth
44357.6 40287.1 177.165 cir1
39.3701 setlinewidth
0 0 0 setrgbcolor
0 setlinewidth
33488.2 38888.7 177.165 cir1
39.3701 setlinewidth
0 0 0 setrgbcolor
0 setlinewidth
33507.9 39841.4 177.165 cir1
39.3701 setlinewidth
0 0 0 setrgbcolor
0 setlinewidth
39103.6 46676.1 118.11 cir1
39.3701 setlinewidth
0 0 0 setrgbcolor
0 setlinewidth
37098.4 48211.5 118.11 cir1
39.3701 setlinewidth
0 0 0 setrgbcolor
196.85 setlinewidth
newpath
37244.1 42246.9 moveto
38051.2 42246.9 lineto
stroke
0 0 0 setrgbcolor
newpath
38390.7 42586.5 moveto
38390.7 43305 lineto
stroke
0 0 0 setrgbcolor
newpath
38051.2 42246.9 moveto
38390.7 42586.5 lineto
stroke
0 0 0 setrgbcolor
newpath
43413.4 45963.5 moveto
43413.4 46317.8 lineto
stroke
0 0 0 setrgbcolor
newpath
43413.4 46317.8 moveto
43279.5 46451.7 lineto
stroke
0 0 0 setrgbcolor
newpath
43279.5 46451.7 moveto
43177.2 46451.7 lineto
stroke
0 0 0 setrgbcolor
newpath
36732.1 48605.6 moveto
36732.1 49073.9 lineto
stroke
0 0 0 setrgbcolor
newpath
39606.6 47491 moveto
39161.7 47935.9 lineto
stroke
0 0 0 setrgbcolor
newpath
41055.3 47555.1 moveto
40646.5 47555.1 lineto
stroke
0 0 0 setrgbcolor
newpath
36732.1 48103 moveto
36732.1 48605.6 lineto
stroke
0 0 0 setrgbcolor
newpath
41348.5 47261.9 moveto
41055.3 47555.1 lineto
stroke
0 0 0 setrgbcolor
newpath
41348.5 47113.6 moveto
41348.5 47261.9 lineto
stroke
0 0 0 setrgbcolor
newpath
39161.7 47935.9 moveto
36899.2 47935.9 lineto
stroke
0 0 0 setrgbcolor
newpath
42010.4 46451.7 moveto
41348.5 47113.6 lineto
stroke
0 0 0 setrgbcolor
newpath
43177.2 46451.7 moveto
42010.4 46451.7 lineto
stroke
0 0 0 setrgbcolor
newpath
43492.1 46746.9 moveto
43472.4 46746.9 lineto
stroke
0 0 0 setrgbcolor
newpath
36899.2 47935.9 moveto
36732.1 48103 lineto
stroke
0 0 0 setrgbcolor
newpath
40582.4 47491 moveto
39606.6 47491 lineto
stroke
0 0 0 setrgbcolor
newpath
40646.5 47555.1 moveto
40582.4 47491 lineto
stroke
0 0 0 setrgbcolor
newpath
43472.4 46746.9 moveto
43177.2 46451.7 lineto
stroke
0 0 0 setrgbcolor
newpath
43496.1 46743 moveto
43492.1 46746.9 lineto
stroke
0 0 0 setrgbcolor
newpath
43925.2 46746.9 moveto
43925.2 44825.7 lineto
stroke
0 0 0 setrgbcolor
newpath
43925.2 44825.7 moveto
44137.8 44613.1 lineto
stroke
0 0 0 setrgbcolor
newpath
44137.8 44613.1 moveto
44137.8 43971.3 lineto
stroke
0 0 0 setrgbcolor
newpath
44137.8 43971.3 moveto
43960.6 43794.2 lineto
stroke
0 0 0 setrgbcolor
newpath
45315 42335.5 moveto
44318.9 42335.5 lineto
stroke
0 0 0 setrgbcolor
newpath
44318.9 42335.5 moveto
43963.8 42335.5 lineto
stroke
0 0 0 setrgbcolor
newpath
44318.9 43140.6 moveto
44318.9 42335.5 lineto
stroke
0 0 0 setrgbcolor
newpath
43960.6 43794.2 moveto
43960.6 43498.9 lineto
stroke
0 0 0 setrgbcolor
newpath
43960.6 43498.9 moveto
44318.9 43140.6 lineto
stroke
0 0 0 setrgbcolor
newpath
43963.8 42335.5 moveto
43759.8 42539.4 lineto
stroke
0 0 0 setrgbcolor
newpath
42165.4 37792.3 moveto
42165.4 37541.8 lineto
stroke
0 0 0 setrgbcolor
newpath
42165.4 38149.3 moveto
42165.4 37792.3 lineto
stroke
0 0 0 setrgbcolor
newpath
42168.1 38152 moveto
42165.4 38149.3 lineto
stroke
0 0 0 setrgbcolor
newpath
39712.6 47746.9 moveto
39641.7 47817.9 lineto
stroke
0 0 0 setrgbcolor
newpath
39641.7 47817.9 moveto
39641.7 48095.2 lineto
stroke
0 0 0 setrgbcolor
newpath
39641.7 48095.2 moveto
39641.7 48345.7 lineto
stroke
0 0 0 setrgbcolor
newpath
40476.4 47746.9 moveto
39712.6 47746.9 lineto
stroke
0 0 0 setrgbcolor
newpath
40791.3 48061.9 moveto
40476.4 47746.9 lineto
stroke
0 0 0 setrgbcolor
newpath
41000 48061.9 moveto
40791.3 48061.9 lineto
stroke
0 0 0 setrgbcolor
newpath
41000 48061.9 moveto
41807.1 48061.9 lineto
stroke
0 0 0 setrgbcolor
newpath
41807.1 48061.9 moveto
41815 48054 lineto
stroke
0 0 0 setrgbcolor
newpath
37500.1 48890.9 moveto
37755.9 48635.1 lineto
stroke
0 0 0 setrgbcolor
newpath
37755.9 48635.1 moveto
37947.3 48443.8 lineto
stroke
0 0 0 setrgbcolor
newpath
37756.1 49073.9 moveto
37756.1 48635.3 lineto
stroke
0 0 0 setrgbcolor
newpath
37756.1 48635.3 moveto
37755.9 48635.1 lineto
stroke
0 0 0 setrgbcolor
newpath
37500.1 49073.9 moveto
37500.1 48890.9 lineto
stroke
0 0 0 setrgbcolor
newpath
37947.3 48443.8 moveto
38086.6 48443.8 lineto
stroke
0 0 0 setrgbcolor
newpath
43759.8 42772.9 moveto
43759.8 42539.4 lineto
stroke
0 0 0 setrgbcolor
newpath
43759.8 42539.4 moveto
43705.8 42485.4 lineto
stroke
0 0 0 setrgbcolor
newpath
43705.8 42485.4 moveto
43344.7 42485.4 lineto
stroke
0 0 0 setrgbcolor
newpath
43344.7 42485.4 moveto
42756.4 43073.7 lineto
stroke
0 0 0 setrgbcolor
newpath
42756.4 43073.7 moveto
42047.6 43073.7 lineto
stroke
0 0 0 setrgbcolor
newpath
41775.6 41632.8 moveto
41775.6 42801.7 lineto
stroke
0 0 0 setrgbcolor
newpath
41775.6 42801.7 moveto
42047.6 43073.7 lineto
stroke
0 0 0 setrgbcolor
newpath
37244.1 42680 moveto
37901.6 42680 lineto
stroke
0 0 0 setrgbcolor
newpath
37901.6 42680 moveto
37905.5 42676.1 lineto
stroke
0 0 0 setrgbcolor
newpath
32334.6 41148.5 moveto
32334.6 41628.8 lineto
stroke
0 0 0 setrgbcolor
newpath
32334.6 41628.8 moveto
32519.7 41813.9 lineto
stroke
0 0 0 setrgbcolor
newpath
32168 39879 moveto
32168 40981.9 lineto
stroke
0 0 0 setrgbcolor
newpath
32168 40981.9 moveto
32334.6 41148.5 lineto
stroke
0 0 0 setrgbcolor
newpath
32968 39887 moveto
32176 39887 lineto
stroke
0 0 0 setrgbcolor
newpath
32176 39887 moveto
32168 39879 lineto
stroke
0 0 0 setrgbcolor
newpath
37244.1 41813.9 moveto
37917.3 41813.9 lineto
stroke
0 0 0 setrgbcolor
newpath
37917.3 41813.9 moveto
37937 41833.5 lineto
stroke
0 0 0 setrgbcolor
newpath
42063 44262.7 moveto
42063 45569.9 lineto
stroke
0 0 0 setrgbcolor
newpath
42063 45569.9 moveto
42086.5 45593.4 lineto
stroke
0 0 0 setrgbcolor
newpath
42047.6 43073.7 moveto
42047.6 44247.3 lineto
stroke
0 0 0 setrgbcolor
newpath
42047.6 44247.3 moveto
42063 44262.7 lineto
stroke
0 0 0 setrgbcolor
newpath
42168.1 38152 moveto
42168.1 37992.2 lineto
stroke
0 0 0 setrgbcolor
newpath
35035.4 48924.1 moveto
35035.4 49530.4 lineto
stroke
0 0 0 setrgbcolor
newpath
35035.4 49530.4 moveto
35039.4 49534.3 lineto
stroke
0 0 0 setrgbcolor
newpath
32519.7 47325.7 moveto
32519.7 47825.7 lineto
stroke
0 0 0 setrgbcolor
newpath
32519.7 47825.7 moveto
32515.7 47829.6 lineto
stroke
0 0 0 setrgbcolor
newpath
43602.4 38762.7 moveto
42778.7 38762.7 lineto
stroke
0 0 0 setrgbcolor
newpath
42778.7 38762.7 moveto
42168.1 38152 lineto
stroke
0 0 0 setrgbcolor
newpath
43503.9 39786 moveto
43503.9 38861.1 lineto
stroke
0 0 0 setrgbcolor
newpath
43503.9 38861.1 moveto
43602.4 38762.7 lineto
stroke
0 0 0 setrgbcolor
78.7402 setlinewidth
newpath
43413.4 45372.9 moveto
43413.4 44746.9 lineto
stroke
0 0 0 setrgbcolor
newpath
43413.4 44746.9 moveto
43547.2 44613.1 lineto
stroke
0 0 0 setrgbcolor
newpath
43527.6 43794.2 moveto
43527.6 44593.4 lineto
stroke
0 0 0 setrgbcolor
newpath
43527.6 44593.4 moveto
43547.2 44613.1 lineto
stroke
0 0 0 setrgbcolor
newpath
43499.8 42772.9 moveto
43499.8 43262.7 lineto
stroke
0 0 0 setrgbcolor
newpath
43499.8 43262.7 moveto
43499.8 43766.5 lineto
stroke
0 0 0 setrgbcolor
newpath
44019.8 42772.9 moveto
44019.8 42981.7 lineto
stroke
0 0 0 setrgbcolor
newpath
44019.8 42981.7 moveto
43738.8 43262.7 lineto
stroke
0 0 0 setrgbcolor
newpath
43738.8 43262.7 moveto
43499.8 43262.7 lineto
stroke
0 0 0 setrgbcolor
newpath
43499.8 43766.5 moveto
43527.6 43794.2 lineto
stroke
0 0 0 setrgbcolor
196.85 setlinewidth
newpath
40259.8 44286.3 moveto
40437 44109.1 lineto
stroke
0 0 0 setrgbcolor
newpath
40437 44109.1 moveto
40704.6 44109.1 lineto
stroke
0 0 0 setrgbcolor
newpath
40704.6 44109.1 moveto
41378.1 43435.6 lineto
stroke
0 0 0 setrgbcolor
newpath
41378.1 43435.6 moveto
41378.1 41441.7 lineto
stroke
0 0 0 setrgbcolor
newpath
41378.1 41441.7 moveto
41912.1 40907.6 lineto
stroke
0 0 0 setrgbcolor
newpath
41912.1 40907.6 moveto
42044.7 40907.6 lineto
stroke
0 0 0 setrgbcolor
newpath
42044.7 40907.6 moveto
42295.3 40907.6 lineto
stroke
0 0 0 setrgbcolor
newpath
37244.1 44727.2 moveto
39606.3 44727.2 lineto
stroke
0 0 0 setrgbcolor
newpath
39606.3 44727.2 moveto
39633.9 44699.7 lineto
stroke
0 0 0 setrgbcolor
newpath
42366.1 41632.8 moveto
43159.7 41632.8 lineto
stroke
0 0 0 setrgbcolor
newpath
43159.7 41632.8 moveto
43499.8 41972.9 lineto
stroke
0 0 0 setrgbcolor
newpath
42322.8 40231.2 moveto
42635.8 40231.2 lineto
stroke
0 0 0 setrgbcolor
newpath
42635.8 40231.2 moveto
42736.2 40130.8 lineto
stroke
0 0 0 setrgbcolor
newpath
42366.1 41632.8 moveto
42366.1 40978.5 lineto
stroke
0 0 0 setrgbcolor
newpath
42366.1 40978.5 moveto
42295.3 40907.6 lineto
stroke
0 0 0 setrgbcolor
78.7402 setlinewidth
newpath
41411.1 47755.8 moveto
41244.1 47755.8 lineto
stroke
0 0 0 setrgbcolor
newpath
41999 47755.8 moveto
41411.1 47755.8 lineto
stroke
0 0 0 setrgbcolor
newpath
42061 47817.8 moveto
41999 47755.8 lineto
stroke
0 0 0 setrgbcolor
newpath
41815 48634.7 moveto
42061 48388.7 lineto
stroke
0 0 0 setrgbcolor
newpath
42061 48388.7 moveto
42061 47817.8 lineto
stroke
0 0 0 setrgbcolor
newpath
41815 48644.6 moveto
41815 48634.7 lineto
stroke
0 0 0 setrgbcolor
newpath
39090.6 45160.3 moveto
39531 45600.8 lineto
stroke
0 0 0 setrgbcolor
newpath
39531 45600.8 moveto
39531 46324 lineto
stroke
0 0 0 setrgbcolor
newpath
37244.1 45160.3 moveto
39090.6 45160.3 lineto
stroke
0 0 0 setrgbcolor
newpath
39531 46324 moveto
39531 46491 lineto
stroke
0 0 0 setrgbcolor
newpath
41000 48652.4 moveto
41807.1 48652.4 lineto
stroke
0 0 0 setrgbcolor
newpath
41807.1 48652.4 moveto
41815 48644.6 lineto
stroke
0 0 0 setrgbcolor
newpath
40094.5 48042.2 moveto
40212.6 48042.2 lineto
stroke
0 0 0 setrgbcolor
newpath
40212.6 48042.2 moveto
40822.8 48652.4 lineto
stroke
0 0 0 setrgbcolor
newpath
40822.8 48652.4 moveto
41000 48652.4 lineto
stroke
0 0 0 setrgbcolor
newpath
44618.2 38521.5 moveto
44785.2 38521.5 lineto
stroke
0 0 0 setrgbcolor
newpath
35338.6 41010.7 moveto
35535.4 40813.9 lineto
stroke
0 0 0 setrgbcolor
newpath
44607.1 38521.5 moveto
44618.2 38521.5 lineto
stroke
0 0 0 setrgbcolor
newpath
43210.5 37124.9 moveto
44607.1 38521.5 lineto
stroke
0 0 0 setrgbcolor
newpath
36047.2 37124.9 moveto
43210.5 37124.9 lineto
stroke
0 0 0 setrgbcolor
newpath
35535.4 37636.7 moveto
36047.2 37124.9 lineto
stroke
0 0 0 setrgbcolor
newpath
35535.4 40813.9 moveto
35535.4 37636.7 lineto
stroke
0 0 0 setrgbcolor
newpath
33555.1 41010.7 moveto
35338.6 41010.7 lineto
stroke
0 0 0 setrgbcolor
newpath
33437 41128.8 moveto
33555.1 41010.7 lineto
stroke
0 0 0 setrgbcolor
newpath
32519.7 44727.2 moveto
32519.7 44491 lineto
stroke
0 0 0 setrgbcolor
newpath
32519.7 44491 moveto
33433.1 43577.6 lineto
stroke
0 0 0 setrgbcolor
newpath
33433.1 43577.6 moveto
33433.1 43113.1 lineto
stroke
0 0 0 setrgbcolor
newpath
44578.9 38702.8 moveto
44697 38820.9 lineto
stroke
0 0 0 setrgbcolor
newpath
43142.2 37266.2 moveto
44578.9 38702.8 lineto
stroke
0 0 0 setrgbcolor
newpath
35316.9 41227.3 moveto
35673.2 40870.9 lineto
stroke
0 0 0 setrgbcolor
newpath
33770.7 41227.3 moveto
35316.9 41227.3 lineto
stroke
0 0 0 setrgbcolor
newpath
35673.2 40870.9 moveto
35673.2 37693.8 lineto
stroke
0 0 0 setrgbcolor
newpath
36100.8 37266.2 moveto
43142.2 37266.2 lineto
stroke
0 0 0 setrgbcolor
newpath
35673.2 37693.8 moveto
36100.8 37266.2 lineto
stroke
0 0 0 setrgbcolor
newpath
32519.7 45160.3 moveto
32952.8 45160.3 lineto
stroke
0 0 0 setrgbcolor
newpath
32952.8 45160.3 moveto
33728.3 44384.7 lineto
stroke
0 0 0 setrgbcolor
newpath
33728.3 44384.7 moveto
33728.3 43109.1 lineto
stroke
0 0 0 setrgbcolor
newpath
46740.2 42479.2 moveto
46740.2 42312.2 lineto
stroke
0 0 0 setrgbcolor
newpath
46740.2 42312.2 moveto
45779.2 41351.3 lineto
stroke
0 0 0 setrgbcolor
newpath
45779.2 41351.3 moveto
45728.3 41351.3 lineto
stroke
0 0 0 setrgbcolor
newpath
45728.3 41351.3 moveto
45315 41351.3 lineto
stroke
0 0 0 setrgbcolor
newpath
46822.8 44217.4 moveto
46822.8 43731.2 lineto
stroke
0 0 0 setrgbcolor
newpath
46822.8 43731.2 moveto
46815 43723.3 lineto
stroke
0 0 0 setrgbcolor
newpath
46822.8 44217.4 moveto
46822.8 47212.3 lineto
stroke
0 0 0 setrgbcolor
newpath
42141.7 47498.9 moveto
42023.6 47380.8 lineto
stroke
0 0 0 setrgbcolor
newpath
46536.3 47498.9 moveto
42141.7 47498.9 lineto
stroke
0 0 0 setrgbcolor
newpath
46822.8 47212.3 moveto
46536.3 47498.9 lineto
stroke
0 0 0 setrgbcolor
newpath
45315 41351.3 moveto
45466.4 41351.3 lineto
stroke
0 0 0 setrgbcolor
newpath
37244.1 46459.5 moveto
38513.8 46459.5 lineto
stroke
0 0 0 setrgbcolor
newpath
38513.8 46459.5 moveto
38612.2 46557.9 lineto
stroke
0 0 0 setrgbcolor
newpath
38612.2 46557.9 moveto
38730.3 46676.1 lineto
stroke
0 0 0 setrgbcolor
newpath
42023.6 47380.8 moveto
43070.9 48428 lineto
stroke
0 0 0 setrgbcolor
newpath
43070.9 48428 moveto
43070.9 49924.1 lineto
stroke
0 0 0 setrgbcolor
newpath
32519.7 46026.5 moveto
32086.6 46026.5 lineto
stroke
0 0 0 setrgbcolor
newpath
35141.7 38471.3 moveto
35141.7 37640.6 lineto
stroke
0 0 0 setrgbcolor
newpath
32086.6 46026.5 moveto
31774.8 45714.6 lineto
stroke
0 0 0 setrgbcolor
newpath
44952.3 38167.2 moveto
45885.8 39100.7 lineto
stroke
0 0 0 setrgbcolor
newpath
31774.8 45714.6 moveto
31774.8 38995.8 lineto
stroke
0 0 0 setrgbcolor
newpath
31774.8 38995.8 moveto
32181.1 38589.4 lineto
stroke
0 0 0 setrgbcolor
newpath
32181.1 38589.4 moveto
35023.6 38589.4 lineto
stroke
0 0 0 setrgbcolor
newpath
35023.6 38589.4 moveto
35141.7 38471.3 lineto
stroke
0 0 0 setrgbcolor
newpath
43484.2 36849.3 moveto
44802.1 38167.2 lineto
stroke
0 0 0 setrgbcolor
newpath
35141.7 37640.6 moveto
35933.1 36849.3 lineto
stroke
0 0 0 setrgbcolor
newpath
35933.1 36849.3 moveto
43484.2 36849.3 lineto
stroke
0 0 0 setrgbcolor
newpath
44887.3 40858.4 moveto
44720.3 40858.4 lineto
stroke
0 0 0 setrgbcolor
newpath
44802.1 38167.2 moveto
44952.3 38167.2 lineto
stroke
0 0 0 setrgbcolor
newpath
45885.8 39100.7 moveto
45885.8 40504.8 lineto
stroke
0 0 0 setrgbcolor
newpath
45885.8 40504.8 moveto
45532.2 40858.4 lineto
stroke
0 0 0 setrgbcolor
newpath
45532.2 40858.4 moveto
44887.3 40858.4 lineto
stroke
0 0 0 setrgbcolor
newpath
34958 39144 moveto
35174.6 39144 lineto
stroke
0 0 0 setrgbcolor
newpath
35174.6 39144 moveto
35303.7 39273.1 lineto
stroke
0 0 0 setrgbcolor
newpath
35303.7 39273.1 moveto
35303.7 39564.1 lineto
stroke
0 0 0 setrgbcolor
newpath
35990.2 36987.1 moveto
43427.2 36987.1 lineto
stroke
0 0 0 setrgbcolor
newpath
44895.2 38305 moveto
45748 39157.8 lineto
stroke
0 0 0 setrgbcolor
newpath
35397.6 37579.6 moveto
35990.2 36987.1 lineto
stroke
0 0 0 setrgbcolor
newpath
45748 40071.7 moveto
45432.9 40386.9 lineto
stroke
0 0 0 setrgbcolor
newpath
45748 39157.8 moveto
45748 40071.7 lineto
stroke
0 0 0 setrgbcolor
newpath
44745 38305 moveto
44895.2 38305 lineto
stroke
0 0 0 setrgbcolor
newpath
43427.2 36987.1 moveto
44745 38305 lineto
stroke
0 0 0 setrgbcolor
newpath
31912.6 45419.3 moveto
31912.6 39564.1 lineto
stroke
0 0 0 setrgbcolor
newpath
32519.7 45593.4 moveto
32086.6 45593.4 lineto
stroke
0 0 0 setrgbcolor
newpath
32086.6 45593.4 moveto
31912.6 45419.3 lineto
stroke
0 0 0 setrgbcolor
newpath
35303.7 39564.1 moveto
35397.6 39470.1 lineto
stroke
0 0 0 setrgbcolor
newpath
45432.9 40386.9 moveto
44711.2 40386.9 lineto
stroke
0 0 0 setrgbcolor
newpath
35397.6 39470.1 moveto
35397.6 37579.6 lineto
stroke
0 0 0 setrgbcolor
newpath
31912.6 39564.1 moveto
35303.7 39564.1 lineto
stroke
0 0 0 setrgbcolor
newpath
46570.9 47045 moveto
46365 47250.9 lineto
stroke
0 0 0 setrgbcolor
newpath
46570.9 44651.7 moveto
46570.9 47045 lineto
stroke
0 0 0 setrgbcolor
newpath
45807.1 43887.9 moveto
46570.9 44651.7 lineto
stroke
0 0 0 setrgbcolor
newpath
45494.9 41843.4 moveto
45807.1 42155.6 lineto
stroke
0 0 0 setrgbcolor
newpath
42600.1 47250.9 moveto
42433.1 47250.9 lineto
stroke
0 0 0 setrgbcolor
newpath
45315 41843.4 moveto
45494.9 41843.4 lineto
stroke
0 0 0 setrgbcolor
newpath
45807.1 42155.6 moveto
45807.1 43887.9 lineto
stroke
0 0 0 setrgbcolor
newpath
46365 47250.9 moveto
42600.1 47250.9 lineto
stroke
0 0 0 setrgbcolor
newpath
39326.8 49798.1 moveto
39874 49798.1 lineto
stroke
0 0 0 setrgbcolor
newpath
39874 49798.1 moveto
40000 49924.1 lineto
stroke
0 0 0 setrgbcolor
newpath
32519.7 42246.9 moveto
33842.5 42246.9 lineto
stroke
0 0 0 setrgbcolor
newpath
33842.5 42246.9 moveto
35291.3 43695.7 lineto
stroke
0 0 0 setrgbcolor
newpath
42358.3 48022.5 moveto
42198.8 48182 lineto
stroke
0 0 0 setrgbcolor
newpath
42198.8 48182 moveto
42198.8 48743 lineto
stroke
0 0 0 setrgbcolor
newpath
42198.8 48743 moveto
41516.1 49425.7 lineto
stroke
0 0 0 setrgbcolor
newpath
41516.1 49425.7 moveto
40977.2 49425.7 lineto
stroke
0 0 0 setrgbcolor
newpath
40977.2 49425.7 moveto
40478.7 49924.1 lineto
stroke
0 0 0 setrgbcolor
newpath
40478.7 49924.1 moveto
40000 49924.1 lineto
stroke
0 0 0 setrgbcolor
newpath
40767.7 50046.1 moveto
41374 50046.1 lineto
stroke
0 0 0 setrgbcolor
newpath
41374 50046.1 moveto
41496.1 49924.1 lineto
stroke
0 0 0 setrgbcolor
newpath
32519.7 42680 moveto
33838.6 42680 lineto
stroke
0 0 0 setrgbcolor
newpath
33838.6 42680 moveto
35063 43904.4 lineto
stroke
0 0 0 setrgbcolor
newpath
38948.8 45589.4 moveto
37248 45589.4 lineto
stroke
0 0 0 setrgbcolor
newpath
37248 45589.4 moveto
37244.1 45593.4 lineto
stroke
0 0 0 setrgbcolor
newpath
42444.5 46746.9 moveto
42641.3 46943.8 lineto
stroke
0 0 0 setrgbcolor
newpath
42232.3 46746.9 moveto
42444.5 46746.9 lineto
stroke
0 0 0 setrgbcolor
newpath
42641.3 46943.8 moveto
45021.3 46943.8 lineto
stroke
0 0 0 setrgbcolor
newpath
45426.8 46538.3 moveto
45905.5 46538.3 lineto
stroke
0 0 0 setrgbcolor
newpath
45021.3 46943.8 moveto
45426.8 46538.3 lineto
stroke
0 0 0 setrgbcolor
newpath
37244.1 46892.6 moveto
40595.3 46892.6 lineto
stroke
0 0 0 setrgbcolor
newpath
40595.3 46892.6 moveto
40772.4 46715.4 lineto
stroke
0 0 0 setrgbcolor
newpath
40772.4 46715.4 moveto
40968.5 46715.4 lineto
stroke
0 0 0 setrgbcolor
newpath
45905.5 45442.2 moveto
46403.9 45940.6 lineto
stroke
0 0 0 setrgbcolor
newpath
42537 47034.3 moveto
42198.5 47034.3 lineto
stroke
0 0 0 setrgbcolor
newpath
45905.5 44963.5 moveto
45905.5 45442.2 lineto
stroke
0 0 0 setrgbcolor
newpath
42584.3 47081.6 moveto
42537 47034.3 lineto
stroke
0 0 0 setrgbcolor
newpath
46403.9 47017 moveto
46339.4 47081.6 lineto
stroke
0 0 0 setrgbcolor
newpath
46339.4 47081.6 moveto
42584.3 47081.6 lineto
stroke
0 0 0 setrgbcolor
newpath
42096.2 46932 moveto
41929.1 46932 lineto
stroke
0 0 0 setrgbcolor
newpath
42198.5 47034.3 moveto
42096.2 46932 lineto
stroke
0 0 0 setrgbcolor
newpath
46403.9 45940.6 moveto
46403.9 47017 lineto
stroke
0 0 0 setrgbcolor
newpath
39131.6 47325.7 moveto
39426.9 47030.4 lineto
stroke
0 0 0 setrgbcolor
newpath
37244.1 47325.7 moveto
39131.6 47325.7 lineto
stroke
0 0 0 setrgbcolor
newpath
40777.9 47030.4 moveto
40817 46991.4 lineto
stroke
0 0 0 setrgbcolor
newpath
39426.9 47030.4 moveto
40777.9 47030.4 lineto
stroke
0 0 0 setrgbcolor
196.85 setlinewidth
newpath
41346.4 39644.6 moveto
41315 39613.1 lineto
stroke
0 0 0 setrgbcolor
newpath
41830.7 39644.6 moveto
41346.4 39644.6 lineto
stroke
0 0 0 setrgbcolor
newpath
36161.4 39530.4 moveto
36161.4 39656.4 lineto
stroke
0 0 0 setrgbcolor
newpath
38842.5 41227.2 moveto
39480.3 41865 lineto
stroke
0 0 0 setrgbcolor
newpath
36161.4 39656.4 moveto
36397.6 39892.6 lineto
stroke
0 0 0 setrgbcolor
newpath
36397.6 39892.6 moveto
36633.9 39892.6 lineto
stroke
0 0 0 setrgbcolor
newpath
36633.9 39892.6 moveto
36854.3 40113.1 lineto
stroke
0 0 0 setrgbcolor
newpath
36854.3 40113.1 moveto
36854.3 40367 lineto
stroke
0 0 0 setrgbcolor
newpath
36854.3 40367 moveto
37714.6 41227.2 lineto
stroke
0 0 0 setrgbcolor
newpath
37714.6 41227.2 moveto
38842.5 41227.2 lineto
stroke
0 0 0 setrgbcolor
newpath
39480.3 41865 moveto
39480.3 42243 lineto
stroke
0 0 0 setrgbcolor
newpath
41830.7 39644.6 moveto
42454.7 39644.6 lineto
stroke
0 0 0 setrgbcolor
newpath
42454.7 39644.6 moveto
42736.2 39363.1 lineto
stroke
0 0 0 setrgbcolor
newpath
36161.4 39530.4 moveto
36161.4 39981.2 lineto
stroke
0 0 0 setrgbcolor
newpath
36161.4 39981.2 moveto
36435 40254.8 lineto
stroke
0 0 0 setrgbcolor
newpath
39480.3 42243 moveto
38736.2 41498.9 lineto
stroke
0 0 0 setrgbcolor
newpath
38736.2 41498.9 moveto
36763.8 41498.9 lineto
stroke
0 0 0 setrgbcolor
newpath
36763.8 41498.9 moveto
36732.3 41530.4 lineto
stroke
0 0 0 setrgbcolor
newpath
33070.9 46459.5 moveto
32519.7 46459.5 lineto
stroke
0 0 0 setrgbcolor
newpath
36732.3 41530.4 moveto
36732.3 42798.1 lineto
stroke
0 0 0 setrgbcolor
newpath
36732.3 42798.1 moveto
33070.9 46459.5 lineto
stroke
0 0 0 setrgbcolor
newpath
40629.6 43073.7 moveto
40629.6 42648.2 lineto
stroke
0 0 0 setrgbcolor
newpath
40629.6 42648.2 moveto
40228.3 42246.9 lineto
stroke
0 0 0 setrgbcolor
newpath
41830.7 39998.9 moveto
40889.8 39998.9 lineto
stroke
0 0 0 setrgbcolor
newpath
38120.5 39723.3 moveto
36754 38356.9 lineto
stroke
0 0 0 setrgbcolor
newpath
36754 38356.9 moveto
36754 38160 lineto
stroke
0 0 0 setrgbcolor
newpath
40889.8 39998.9 moveto
40614.2 39723.3 lineto
stroke
0 0 0 setrgbcolor
newpath
40614.2 39723.3 moveto
38120.5 39723.3 lineto
stroke
0 0 0 setrgbcolor
newpath
36754 38160 moveto
36754 39292.1 lineto
stroke
0 0 0 setrgbcolor
newpath
36754 39292.1 moveto
36515.7 39530.4 lineto
stroke
0 0 0 setrgbcolor
newpath
36661.4 38067.4 moveto
36754 38160 lineto
stroke
0 0 0 setrgbcolor
newpath
40354.5 45081.5 moveto
40354.5 45593.4 lineto
stroke
0 0 0 setrgbcolor
newpath
40354.5 44925 moveto
40354.5 45081.5 lineto
stroke
0 0 0 setrgbcolor
newpath
39838.6 44409.1 moveto
40354.5 44925 lineto
stroke
0 0 0 setrgbcolor
newpath
39838.6 41120.9 moveto
39838.6 44409.1 lineto
stroke
0 0 0 setrgbcolor
newpath
40386.5 40573 moveto
39838.6 41120.9 lineto
stroke
0 0 0 setrgbcolor
newpath
35379.9 48333.5 moveto
35035.4 48333.5 lineto
stroke
0 0 0 setrgbcolor
newpath
39055.7 47680 moveto
36033.5 47680 lineto
stroke
0 0 0 setrgbcolor
newpath
39500.6 47235.1 moveto
39055.7 47680 lineto
stroke
0 0 0 setrgbcolor
newpath
40630 45593.4 moveto
41244.1 46207.5 lineto
stroke
0 0 0 setrgbcolor
newpath
40752.5 47299.2 moveto
40688.4 47235.1 lineto
stroke
0 0 0 setrgbcolor
newpath
41092.6 47155.9 moveto
40949.3 47299.2 lineto
stroke
0 0 0 setrgbcolor
newpath
41244.1 46839.5 moveto
41092.6 46991 lineto
stroke
0 0 0 setrgbcolor
newpath
40688.4 47235.1 moveto
39500.6 47235.1 lineto
stroke
0 0 0 setrgbcolor
newpath
40354.5 45593.4 moveto
40630 45593.4 lineto
stroke
0 0 0 setrgbcolor
newpath
41092.6 46991 moveto
41092.6 47155.9 lineto
stroke
0 0 0 setrgbcolor
newpath
40949.3 47299.2 moveto
40752.5 47299.2 lineto
stroke
0 0 0 setrgbcolor
newpath
36033.5 47680 moveto
35379.9 48333.5 lineto
stroke
0 0 0 setrgbcolor
newpath
41244.1 46207.5 moveto
41244.1 46839.5 lineto
stroke
0 0 0 setrgbcolor
newpath
37202.8 40254.8 moveto
40068.3 40254.8 lineto
stroke
0 0 0 setrgbcolor
newpath
40068.3 40254.8 moveto
40386.5 40573 lineto
stroke
0 0 0 setrgbcolor
newpath
43878 40573 moveto
40386.5 40573 lineto
stroke
0 0 0 setrgbcolor
newpath
35035.4 48333.5 moveto
35035.4 48325.7 lineto
stroke
0 0 0 setrgbcolor
newpath
35035.4 48325.7 moveto
34874 48164.3 lineto
stroke
0 0 0 setrgbcolor
newpath
31968.5 46892.6 moveto
32519.7 46892.6 lineto
stroke
0 0 0 setrgbcolor
newpath
34874 48164.3 moveto
31992.1 48164.3 lineto
stroke
0 0 0 setrgbcolor
newpath
31992.1 48164.3 moveto
31933.1 48105.2 lineto
stroke
0 0 0 setrgbcolor
newpath
31933.1 48105.2 moveto
31933.1 46928 lineto
stroke
0 0 0 setrgbcolor
newpath
31933.1 46928 moveto
31968.5 46892.6 lineto
stroke
0 0 0 setrgbcolor
newpath
32519.7 46892.6 moveto
33102.4 46892.6 lineto
stroke
0 0 0 setrgbcolor
newpath
33102.4 46892.6 moveto
36881.9 43113.1 lineto
stroke
0 0 0 setrgbcolor
newpath
36881.9 43113.1 moveto
37244.1 43113.1 lineto
stroke
0 0 0 setrgbcolor
newpath
44192.9 38762.7 moveto
44192.9 39278.4 lineto
stroke
0 0 0 setrgbcolor
newpath
44192.9 39278.4 moveto
44192.9 40122.5 lineto
stroke
0 0 0 setrgbcolor
newpath
34910 40456 moveto
34910 40179.4 lineto
stroke
0 0 0 setrgbcolor
newpath
34910 40179.4 moveto
35212.6 39876.9 lineto
stroke
0 0 0 setrgbcolor
newpath
44769.8 39874.9 moveto
44534.7 40110 lineto
stroke
0 0 0 setrgbcolor
newpath
44192.9 40122.5 moveto
44357.6 40287.1 lineto
stroke
0 0 0 setrgbcolor
newpath
45315 39874.9 moveto
44769.8 39874.9 lineto
stroke
0 0 0 setrgbcolor
newpath
44534.7 40110 moveto
44357.6 40287.1 lineto
stroke
0 0 0 setrgbcolor
newpath
44192.9 38762.7 moveto
44192.9 39726.9 lineto
stroke
0 0 0 setrgbcolor
newpath
44192.9 39726.9 moveto
44252 39786 lineto
stroke
0 0 0 setrgbcolor
newpath
33488.2 38888.7 moveto
32568.3 38888.7 lineto
stroke
0 0 0 setrgbcolor
newpath
32568.3 38888.7 moveto
32168 39289 lineto
stroke
0 0 0 setrgbcolor
newpath
34162 40456 moveto
34122.5 40456 lineto
stroke
0 0 0 setrgbcolor
newpath
34122.5 40456 moveto
33507.9 39841.4 lineto
stroke
0 0 0 setrgbcolor
newpath
33875.3 39144 moveto
33722.3 39297 lineto
stroke
0 0 0 setrgbcolor
newpath
34210 39144 moveto
33875.3 39144 lineto
stroke
0 0 0 setrgbcolor
newpath
33722.3 39297 moveto
32968 39297 lineto
stroke
0 0 0 setrgbcolor
78.7402 setlinewidth
newpath
39070.9 46676.1 moveto
39103.6 46676.1 lineto
stroke
0 0 0 setrgbcolor
newpath
38948.8 46337.5 moveto
38948.8 46554 lineto
stroke
0 0 0 setrgbcolor
newpath
38948.8 46554 moveto
39070.9 46676.1 lineto
stroke
0 0 0 setrgbcolor
newpath
36988.1 48321.8 moveto
37098.4 48211.5 lineto
stroke
0 0 0 setrgbcolor
newpath
36988.1 49073.9 moveto
36988.1 48321.8 lineto
stroke
0 0 0 setrgbcolor
newpath
38851.4 48790.2 moveto
39759.8 48790.2 lineto
stroke
0 0 0 setrgbcolor
newpath
37244.1 48723.7 moveto
37799.6 48168.2 lineto
stroke
0 0 0 setrgbcolor
newpath
39759.8 48790.2 moveto
40094.5 48790.2 lineto
stroke
0 0 0 setrgbcolor
newpath
37799.6 48168.2 moveto
38229.3 48168.2 lineto
stroke
0 0 0 setrgbcolor
newpath
38229.3 48168.2 moveto
38851.4 48790.2 lineto
stroke
0 0 0 setrgbcolor
newpath
37244.1 49073.9 moveto
37244.1 48723.7 lineto
stroke
showpage
grestore
%%EOF
