%!PS-Adobe-3.0
%%Creator: PCBNEW
%%CreationDate: Thu Feb 25 18:48:39 2016
%%Title: /home/ubuntu/HEXAGON-ROBOTICS/HEXAGON-ROBOTICS-GNSS-DR/GERBER/DR8-F.Mask.ps
%%Pages: 1
%%PageOrder: Ascend
%%BoundingBox: 0 0 596 842
%%DocumentMedia: A4 595 842 0 () ()
%%Orientation: Landscape
%%EndComments
%%BeginProlog
/line { newpath moveto lineto stroke } bind def
/cir0 { newpath 0 360 arc stroke } bind def
/cir1 { newpath 0 360 arc gsave fill grestore stroke } bind def
/cir2 { newpath 0 360 arc gsave fill grestore stroke } bind def
/arc0 { newpath arc stroke } bind def
/arc1 { newpath 4 index 4 index moveto arc closepath gsave fill
    grestore stroke } bind def
/arc2 { newpath 4 index 4 index moveto arc closepath gsave fill
    grestore stroke } bind def
/poly0 { stroke } bind def
/poly1 { closepath gsave fill grestore stroke } bind def
/poly2 { closepath gsave fill grestore stroke } bind def
/rect0 { rectstroke } bind def
/rect1 { rectfill } bind def
/rect2 { rectfill } bind def
/linemode0 { 0 setlinecap 0 setlinejoin 0 setlinewidth } bind def
/linemode1 { 1 setlinecap 1 setlinejoin } bind def
/dashedline { [200] 100 setdash } bind def
/solidline { [] 0 setdash } bind def
/phantomshow { moveto
    /KicadFont findfont 0.000001 scalefont setfont
    show } bind def
/textshow { gsave
    findfont exch scalefont setfont concat 1 scale 0 0 moveto show
    } bind def
/reencodefont {
  findfont dup length dict begin
  { 1 index /FID ne
    { def }
    { pop pop } ifelse
  } forall
  /Encoding ISOLatin1Encoding def
  currentdict
  end } bind def
/KicadFont /Helvetica reencodefont definefont pop
/KicadFont-Bold /Helvetica-Bold reencodefont definefont pop
/KicadFont-Oblique /Helvetica-Oblique reencodefont definefont pop
/KicadFont-BoldOblique /Helvetica-BoldOblique reencodefont definefont pop
%%EndProlog
%%Page: 1 1
%%BeginPageSetup
gsave
0.0072 0.0072 scale
linemode1
82680 0 translate 90 rotate
39.3701 setlinewidth
%%EndPageSetup
0 0 0 setrgbcolor
0 0 0 setrgbcolor
0 setlinewidth
38390.7 43305 314.961 cir1
39.3701 setlinewidth
0 0 0 setrgbcolor
0 setlinewidth
newpath
46384.3 40390.2 moveto
45426.8 40390.2 lineto
45426.8 41347.7 lineto
46384.3 41347.7 lineto
46384.3 40390.2 lineto
poly1
0 0 0 setrgbcolor
newpath
45406.3 46198.7 moveto
46363.7 46198.7 lineto
46363.7 45241.3 lineto
45406.3 45241.3 lineto
45406.3 46198.7 lineto
poly1
0 0 0 setrgbcolor
newpath
46384.3 41965 moveto
45426.8 41965 lineto
45426.8 42922.5 lineto
46384.3 42922.5 lineto
46384.3 41965 lineto
poly1
0 0 0 setrgbcolor
newpath
46353.6 46821.3 moveto
45396.1 46821.3 lineto
45396.1 47778.7 lineto
46353.6 47778.7 lineto
46353.6 46821.3 lineto
poly1
0 0 0 setrgbcolor
newpath
46363.7 43596.3 moveto
45406.3 43596.3 lineto
45406.3 44553.7 lineto
46363.7 44553.7 lineto
46363.7 43596.3 lineto
poly1
0 0 0 setrgbcolor
newpath
46384.3 38815.4 moveto
45426.8 38815.4 lineto
45426.8 39772.9 lineto
46384.3 39772.9 lineto
46384.3 38815.4 lineto
poly1
showpage
grestore
%%EOF
