%!PS-Adobe-3.0
%%Creator: PCBNEW
%%CreationDate: Thu Feb 25 18:48:39 2016
%%Title: /home/ubuntu/HEXAGON-ROBOTICS/HEXAGON-ROBOTICS-GNSS-DR/GERBER/DR8-B.CrtYd.ps
%%Pages: 1
%%PageOrder: Ascend
%%BoundingBox: 0 0 596 842
%%DocumentMedia: A4 595 842 0 () ()
%%Orientation: Landscape
%%EndComments
%%BeginProlog
/line { newpath moveto lineto stroke } bind def
/cir0 { newpath 0 360 arc stroke } bind def
/cir1 { newpath 0 360 arc gsave fill grestore stroke } bind def
/cir2 { newpath 0 360 arc gsave fill grestore stroke } bind def
/arc0 { newpath arc stroke } bind def
/arc1 { newpath 4 index 4 index moveto arc closepath gsave fill
    grestore stroke } bind def
/arc2 { newpath 4 index 4 index moveto arc closepath gsave fill
    grestore stroke } bind def
/poly0 { stroke } bind def
/poly1 { closepath gsave fill grestore stroke } bind def
/poly2 { closepath gsave fill grestore stroke } bind def
/rect0 { rectstroke } bind def
/rect1 { rectfill } bind def
/rect2 { rectfill } bind def
/linemode0 { 0 setlinecap 0 setlinejoin 0 setlinewidth } bind def
/linemode1 { 1 setlinecap 1 setlinejoin } bind def
/dashedline { [200] 100 setdash } bind def
/solidline { [] 0 setdash } bind def
/phantomshow { moveto
    /KicadFont findfont 0.000001 scalefont setfont
    show } bind def
/textshow { gsave
    findfont exch scalefont setfont concat 1 scale 0 0 moveto show
    } bind def
/reencodefont {
  findfont dup length dict begin
  { 1 index /FID ne
    { def }
    { pop pop } ifelse
  } forall
  /Encoding ISOLatin1Encoding def
  currentdict
  end } bind def
/KicadFont /Helvetica reencodefont definefont pop
/KicadFont-Bold /Helvetica-Bold reencodefont definefont pop
/KicadFont-Oblique /Helvetica-Oblique reencodefont definefont pop
/KicadFont-BoldOblique /Helvetica-BoldOblique reencodefont definefont pop
%%EndProlog
%%Page: 1 1
%%BeginPageSetup
gsave
0.0072 0.0072 scale
linemode1
82680 0 translate 90 rotate
39.3701 setlinewidth
%%EndPageSetup
0 0 0 setrgbcolor
0 0 0 setrgbcolor
19.685 setlinewidth
newpath
43255.9 46510.7 moveto
44161.4 46510.7 lineto
stroke
0 0 0 setrgbcolor
newpath
43255.9 46983.1 moveto
44161.4 46983.1 lineto
stroke
0 0 0 setrgbcolor
newpath
43255.9 46510.7 moveto
43255.9 46983.1 lineto
stroke
0 0 0 setrgbcolor
newpath
44161.4 46510.7 moveto
44161.4 46983.1 lineto
stroke
0 0 0 setrgbcolor
newpath
43291.3 43558 moveto
44196.9 43558 lineto
stroke
0 0 0 setrgbcolor
newpath
43291.3 44030.4 moveto
44196.9 44030.4 lineto
stroke
0 0 0 setrgbcolor
newpath
43291.3 43558 moveto
43291.3 44030.4 lineto
stroke
0 0 0 setrgbcolor
newpath
44196.9 43558 moveto
44196.9 44030.4 lineto
stroke
0 0 0 setrgbcolor
newpath
43271.7 44317.8 moveto
44413.4 44317.8 lineto
stroke
0 0 0 setrgbcolor
newpath
43271.7 44908.3 moveto
44413.4 44908.3 lineto
stroke
0 0 0 setrgbcolor
newpath
43271.7 44317.8 moveto
43271.7 44908.3 lineto
stroke
0 0 0 setrgbcolor
newpath
44413.4 44317.8 moveto
44413.4 44908.3 lineto
stroke
0 0 0 setrgbcolor
newpath
42641.7 41928 moveto
41500 41928 lineto
stroke
0 0 0 setrgbcolor
newpath
42641.7 41337.5 moveto
41500 41337.5 lineto
stroke
0 0 0 setrgbcolor
newpath
42641.7 41928 moveto
42641.7 41337.5 lineto
stroke
0 0 0 setrgbcolor
newpath
41500 41928 moveto
41500 41337.5 lineto
stroke
0 0 0 setrgbcolor
newpath
40704.7 48928 moveto
40704.7 47786.3 lineto
stroke
0 0 0 setrgbcolor
newpath
41295.3 48928 moveto
41295.3 47786.3 lineto
stroke
0 0 0 setrgbcolor
newpath
40704.7 48928 moveto
41295.3 48928 lineto
stroke
0 0 0 setrgbcolor
newpath
40704.7 47786.3 moveto
41295.3 47786.3 lineto
stroke
0 0 0 setrgbcolor
newpath
41519.7 48920.2 moveto
41519.7 47778.4 lineto
stroke
0 0 0 setrgbcolor
newpath
42110.2 48920.2 moveto
42110.2 47778.4 lineto
stroke
0 0 0 setrgbcolor
newpath
41519.7 48920.2 moveto
42110.2 48920.2 lineto
stroke
0 0 0 setrgbcolor
newpath
41519.7 47778.4 moveto
42110.2 47778.4 lineto
stroke
0 0 0 setrgbcolor
newpath
38555.1 46593.4 moveto
38555.1 45333.5 lineto
stroke
0 0 0 setrgbcolor
newpath
39342.5 46593.4 moveto
39342.5 45333.5 lineto
stroke
0 0 0 setrgbcolor
newpath
38555.1 46593.4 moveto
39342.5 46593.4 lineto
stroke
0 0 0 setrgbcolor
newpath
38555.1 45333.5 moveto
39342.5 45333.5 lineto
stroke
0 0 0 setrgbcolor
newpath
39700.8 49046.1 moveto
39700.8 47786.3 lineto
stroke
0 0 0 setrgbcolor
newpath
40488.2 49046.1 moveto
40488.2 47786.3 lineto
stroke
0 0 0 setrgbcolor
newpath
39700.8 49046.1 moveto
40488.2 49046.1 lineto
stroke
0 0 0 setrgbcolor
newpath
39700.8 47786.3 moveto
40488.2 47786.3 lineto
stroke
0 0 0 setrgbcolor
newpath
35964.6 39274.5 moveto
36712.6 39274.5 lineto
stroke
0 0 0 setrgbcolor
newpath
35964.6 39786.3 moveto
36712.6 39786.3 lineto
stroke
0 0 0 setrgbcolor
newpath
35964.6 39274.5 moveto
35964.6 39786.3 lineto
stroke
0 0 0 setrgbcolor
newpath
36712.6 39274.5 moveto
36712.6 39786.3 lineto
stroke
0 0 0 setrgbcolor
newpath
42086.6 39447.7 moveto
42086.6 40195.7 lineto
stroke
0 0 0 setrgbcolor
newpath
41574.8 39447.7 moveto
41574.8 40195.7 lineto
stroke
0 0 0 setrgbcolor
newpath
42086.6 39447.7 moveto
41574.8 39447.7 lineto
stroke
0 0 0 setrgbcolor
newpath
42086.6 40195.7 moveto
41574.8 40195.7 lineto
stroke
0 0 0 setrgbcolor
newpath
44468.5 39058 moveto
43326.8 39058 lineto
stroke
0 0 0 setrgbcolor
newpath
44468.5 38467.4 moveto
43326.8 38467.4 lineto
stroke
0 0 0 setrgbcolor
newpath
44468.5 39058 moveto
44468.5 38467.4 lineto
stroke
0 0 0 setrgbcolor
newpath
43326.8 39058 moveto
43326.8 38467.4 lineto
stroke
0 0 0 setrgbcolor
newpath
44527.6 40809.9 moveto
43228.3 40809.9 lineto
stroke
0 0 0 setrgbcolor
newpath
43228.3 40809.9 moveto
43228.3 39550.1 lineto
stroke
0 0 0 setrgbcolor
newpath
43228.3 39550.1 moveto
44527.6 39550.1 lineto
stroke
0 0 0 setrgbcolor
newpath
44527.6 39550.1 moveto
44527.6 40809.9 lineto
stroke
0 0 0 setrgbcolor
newpath
31872.7 39032.8 moveto
32463.3 39032.8 lineto
stroke
0 0 0 setrgbcolor
newpath
32463.3 39032.8 moveto
32463.3 40135.2 lineto
stroke
0 0 0 setrgbcolor
newpath
32463.3 40135.2 moveto
31872.7 40135.2 lineto
stroke
0 0 0 setrgbcolor
newpath
31872.7 40135.2 moveto
31872.7 39032.8 lineto
stroke
0 0 0 setrgbcolor
newpath
32672.7 39040.8 moveto
33263.3 39040.8 lineto
stroke
0 0 0 setrgbcolor
newpath
33263.3 39040.8 moveto
33263.3 40143.2 lineto
stroke
0 0 0 setrgbcolor
newpath
33263.3 40143.2 moveto
32672.7 40143.2 lineto
stroke
0 0 0 setrgbcolor
newpath
32672.7 40143.2 moveto
32672.7 39040.8 lineto
stroke
0 0 0 setrgbcolor
newpath
35165.9 40849.7 moveto
33906.1 40849.7 lineto
stroke
0 0 0 setrgbcolor
newpath
35165.9 40062.3 moveto
33906.1 40062.3 lineto
stroke
0 0 0 setrgbcolor
newpath
35165.9 40849.7 moveto
35165.9 40062.3 lineto
stroke
0 0 0 setrgbcolor
newpath
33906.1 40849.7 moveto
33906.1 40062.3 lineto
stroke
0 0 0 setrgbcolor
newpath
35213.9 39537.7 moveto
33954.1 39537.7 lineto
stroke
0 0 0 setrgbcolor
newpath
35213.9 38750.3 moveto
33954.1 38750.3 lineto
stroke
0 0 0 setrgbcolor
newpath
35213.9 39537.7 moveto
35213.9 38750.3 lineto
stroke
0 0 0 setrgbcolor
newpath
33954.1 39537.7 moveto
33954.1 38750.3 lineto
stroke
0 0 0 setrgbcolor
newpath
35330.7 48058 moveto
35330.7 49199.7 lineto
stroke
0 0 0 setrgbcolor
newpath
34740.2 48058 moveto
34740.2 49199.7 lineto
stroke
0 0 0 setrgbcolor
newpath
35330.7 48058 moveto
34740.2 48058 lineto
stroke
0 0 0 setrgbcolor
newpath
35330.7 49199.7 moveto
34740.2 49199.7 lineto
stroke
0 0 0 setrgbcolor
newpath
42657.5 42030.4 moveto
40019.7 42030.4 lineto
stroke
0 0 0 setrgbcolor
newpath
40019.7 44117 moveto
42657.5 44117 lineto
stroke
0 0 0 setrgbcolor
newpath
42657.5 44117 moveto
42657.5 42030.4 lineto
stroke
0 0 0 setrgbcolor
newpath
40019.7 42030.4 moveto
40019.7 44117 lineto
stroke
0 0 0 setrgbcolor
newpath
42775.6 46774.5 moveto
39665.4 46774.5 lineto
stroke
0 0 0 setrgbcolor
newpath
39665.4 46774.5 moveto
39665.4 44412.3 lineto
stroke
0 0 0 setrgbcolor
newpath
39665.4 44412.3 moveto
42775.6 44412.3 lineto
stroke
0 0 0 setrgbcolor
newpath
42775.6 44412.3 moveto
42775.6 46774.5 lineto
stroke
0 0 0 setrgbcolor
newpath
43118.1 46239.1 moveto
43118.1 45097.3 lineto
stroke
0 0 0 setrgbcolor
newpath
43708.7 46239.1 moveto
43708.7 45097.3 lineto
stroke
0 0 0 setrgbcolor
newpath
43118.1 46239.1 moveto
43708.7 46239.1 lineto
stroke
0 0 0 setrgbcolor
newpath
43118.1 45097.3 moveto
43708.7 45097.3 lineto
stroke
showpage
grestore
%%EOF
