%!PS-Adobe-3.0
%%Creator: PCBNEW
%%CreationDate: Thu Feb 25 18:48:39 2016
%%Title: /home/ubuntu/HEXAGON-ROBOTICS/HEXAGON-ROBOTICS-GNSS-DR/GERBER/DR8-F.SilkS.ps
%%Pages: 1
%%PageOrder: Ascend
%%BoundingBox: 0 0 596 842
%%DocumentMedia: A4 595 842 0 () ()
%%Orientation: Landscape
%%EndComments
%%BeginProlog
/line { newpath moveto lineto stroke } bind def
/cir0 { newpath 0 360 arc stroke } bind def
/cir1 { newpath 0 360 arc gsave fill grestore stroke } bind def
/cir2 { newpath 0 360 arc gsave fill grestore stroke } bind def
/arc0 { newpath arc stroke } bind def
/arc1 { newpath 4 index 4 index moveto arc closepath gsave fill
    grestore stroke } bind def
/arc2 { newpath 4 index 4 index moveto arc closepath gsave fill
    grestore stroke } bind def
/poly0 { stroke } bind def
/poly1 { closepath gsave fill grestore stroke } bind def
/poly2 { closepath gsave fill grestore stroke } bind def
/rect0 { rectstroke } bind def
/rect1 { rectfill } bind def
/rect2 { rectfill } bind def
/linemode0 { 0 setlinecap 0 setlinejoin 0 setlinewidth } bind def
/linemode1 { 1 setlinecap 1 setlinejoin } bind def
/dashedline { [200] 100 setdash } bind def
/solidline { [] 0 setdash } bind def
/phantomshow { moveto
    /KicadFont findfont 0.000001 scalefont setfont
    show } bind def
/textshow { gsave
    findfont exch scalefont setfont concat 1 scale 0 0 moveto show
    } bind def
/reencodefont {
  findfont dup length dict begin
  { 1 index /FID ne
    { def }
    { pop pop } ifelse
  } forall
  /Encoding ISOLatin1Encoding def
  currentdict
  end } bind def
/KicadFont /Helvetica reencodefont definefont pop
/KicadFont-Bold /Helvetica-Bold reencodefont definefont pop
/KicadFont-Oblique /Helvetica-Oblique reencodefont definefont pop
/KicadFont-BoldOblique /Helvetica-BoldOblique reencodefont definefont pop
%%EndProlog
%%Page: 1 1
%%BeginPageSetup
gsave
0.0072 0.0072 scale
linemode1
82680 0 translate 90 rotate
39.3701 setlinewidth
%%EndPageSetup
0 0 0 setrgbcolor
0 0 0 setrgbcolor
49.2126 setlinewidth
newpath
39539.7 49598.8 moveto
39539.7 49795.7 lineto
39605.4 49655.1 lineto
39671 49795.7 lineto
39671 49598.8 lineto
stroke
newpath
39792.8 49598.8 moveto
39774.1 49608.2 lineto
39764.7 49617.6 lineto
39755.3 49636.3 lineto
39755.3 49692.6 lineto
39764.7 49711.3 lineto
39774.1 49720.7 lineto
39792.8 49730.1 lineto
39821 49730.1 lineto
39839.7 49720.7 lineto
39849.1 49711.3 lineto
39858.5 49692.6 lineto
39858.5 49636.3 lineto
39849.1 49617.6 lineto
39839.7 49608.2 lineto
39821 49598.8 lineto
39792.8 49598.8 lineto
stroke
newpath
40027.2 49598.8 moveto
40027.2 49795.7 lineto
stroke
newpath
40027.2 49608.2 moveto
40008.4 49598.8 lineto
39970.9 49598.8 lineto
39952.2 49608.2 lineto
39942.8 49617.6 lineto
39933.4 49636.3 lineto
39933.4 49692.6 lineto
39942.8 49711.3 lineto
39952.2 49720.7 lineto
39970.9 49730.1 lineto
40008.4 49730.1 lineto
40027.2 49720.7 lineto
stroke
newpath
40195.9 49608.2 moveto
40177.2 49598.8 lineto
40139.7 49598.8 lineto
40120.9 49608.2 lineto
40111.5 49626.9 lineto
40111.5 49701.9 lineto
40120.9 49720.7 lineto
40139.7 49730.1 lineto
40177.2 49730.1 lineto
40195.9 49720.7 lineto
40205.3 49701.9 lineto
40205.3 49683.2 lineto
40111.5 49664.4 lineto
stroke
newpath
40317.8 49598.8 moveto
40299 49608.2 lineto
40289.7 49626.9 lineto
40289.7 49795.7 lineto
stroke
newpath
40392.8 49617.6 moveto
40402.1 49608.2 lineto
40392.8 49598.8 lineto
40383.4 49608.2 lineto
40392.8 49617.6 lineto
40392.8 49598.8 lineto
stroke
newpath
40392.8 49720.7 moveto
40402.1 49711.3 lineto
40392.8 49701.9 lineto
40383.4 49711.3 lineto
40392.8 49720.7 lineto
40392.8 49701.9 lineto
stroke
newpath
40636.5 49598.8 moveto
40636.5 49795.7 lineto
40683.4 49795.7 lineto
40711.5 49786.3 lineto
40730.2 49767.6 lineto
40739.6 49748.8 lineto
40749 49711.3 lineto
40749 49683.2 lineto
40739.6 49645.7 lineto
40730.2 49626.9 lineto
40711.5 49608.2 lineto
40683.4 49598.8 lineto
40636.5 49598.8 lineto
stroke
newpath
40945.8 49598.8 moveto
40880.2 49692.6 lineto
stroke
newpath
40833.3 49598.8 moveto
40833.3 49795.7 lineto
40908.3 49795.7 lineto
40927.1 49786.3 lineto
40936.4 49776.9 lineto
40945.8 49758.2 lineto
40945.8 49730.1 lineto
40936.4 49711.3 lineto
40927.1 49701.9 lineto
40908.3 49692.6 lineto
40833.3 49692.6 lineto
stroke
newpath
41058.3 49711.3 moveto
41039.6 49720.7 lineto
41030.2 49730.1 lineto
41020.8 49748.8 lineto
41020.8 49758.2 lineto
41030.2 49776.9 lineto
41039.6 49786.3 lineto
41058.3 49795.7 lineto
41095.8 49795.7 lineto
41114.5 49786.3 lineto
41123.9 49776.9 lineto
41133.3 49758.2 lineto
41133.3 49748.8 lineto
41123.9 49730.1 lineto
41114.5 49720.7 lineto
41095.8 49711.3 lineto
41058.3 49711.3 lineto
41039.6 49701.9 lineto
41030.2 49692.6 lineto
41020.8 49673.8 lineto
41020.8 49636.3 lineto
41030.2 49617.6 lineto
41039.6 49608.2 lineto
41058.3 49598.8 lineto
41095.8 49598.8 lineto
41114.5 49608.2 lineto
41123.9 49617.6 lineto
41133.3 49636.3 lineto
41133.3 49673.8 lineto
41123.9 49692.6 lineto
41114.5 49701.9 lineto
41095.8 49711.3 lineto
stroke
newpath
41217.7 49673.8 moveto
41367.6 49673.8 lineto
stroke
newpath
41498.9 49795.7 moveto
41517.6 49795.7 lineto
41536.4 49786.3 lineto
41545.7 49776.9 lineto
41555.1 49758.2 lineto
41564.5 49720.7 lineto
41564.5 49673.8 lineto
41555.1 49636.3 lineto
41545.7 49617.6 lineto
41536.4 49608.2 lineto
41517.6 49598.8 lineto
41498.9 49598.8 lineto
41480.1 49608.2 lineto
41470.8 49617.6 lineto
41461.4 49636.3 lineto
41452 49673.8 lineto
41452 49720.7 lineto
41461.4 49758.2 lineto
41470.8 49776.9 lineto
41480.1 49786.3 lineto
41498.9 49795.7 lineto
stroke
newpath
41752 49598.8 moveto
41639.5 49598.8 lineto
stroke
newpath
41695.7 49598.8 moveto
41695.7 49795.7 lineto
41677 49767.6 lineto
41658.2 49748.8 lineto
41639.5 49739.4 lineto
stroke
newpath
41986.3 49617.6 moveto
41995.7 49608.2 lineto
41986.3 49598.8 lineto
41976.9 49608.2 lineto
41986.3 49617.6 lineto
41986.3 49598.8 lineto
stroke
newpath
41986.3 49720.7 moveto
41995.7 49711.3 lineto
41986.3 49701.9 lineto
41976.9 49711.3 lineto
41986.3 49720.7 lineto
41986.3 49701.9 lineto
stroke
newpath
42080.1 49617.6 moveto
42089.4 49608.2 lineto
42080.1 49598.8 lineto
42070.7 49608.2 lineto
42080.1 49617.6 lineto
42080.1 49598.8 lineto
stroke
newpath
42080.1 49720.7 moveto
42089.4 49711.3 lineto
42080.1 49701.9 lineto
42070.7 49711.3 lineto
42080.1 49720.7 lineto
42080.1 49701.9 lineto
stroke
newpath
42314.4 49776.9 moveto
42323.8 49786.3 lineto
42342.5 49795.7 lineto
42389.4 49795.7 lineto
42408.1 49786.3 lineto
42417.5 49776.9 lineto
42426.9 49758.2 lineto
42426.9 49739.4 lineto
42417.5 49711.3 lineto
42305 49598.8 lineto
42426.9 49598.8 lineto
stroke
newpath
42548.7 49795.7 moveto
42567.5 49795.7 lineto
42586.2 49786.3 lineto
42595.6 49776.9 lineto
42605 49758.2 lineto
42614.4 49720.7 lineto
42614.4 49673.8 lineto
42605 49636.3 lineto
42595.6 49617.6 lineto
42586.2 49608.2 lineto
42567.5 49598.8 lineto
42548.7 49598.8 lineto
42530 49608.2 lineto
42520.6 49617.6 lineto
42511.2 49636.3 lineto
42501.9 49673.8 lineto
42501.9 49720.7 lineto
42511.2 49758.2 lineto
42520.6 49776.9 lineto
42530 49786.3 lineto
42548.7 49795.7 lineto
stroke
newpath
42801.8 49598.8 moveto
42689.4 49598.8 lineto
stroke
newpath
42745.6 49598.8 moveto
42745.6 49795.7 lineto
42726.8 49767.6 lineto
42708.1 49748.8 lineto
42689.4 49739.4 lineto
stroke
newpath
42970.6 49795.7 moveto
42933.1 49795.7 lineto
42914.3 49786.3 lineto
42904.9 49776.9 lineto
42886.2 49748.8 lineto
42876.8 49711.3 lineto
42876.8 49636.3 lineto
42886.2 49617.6 lineto
42895.6 49608.2 lineto
42914.3 49598.8 lineto
42951.8 49598.8 lineto
42970.6 49608.2 lineto
42979.9 49617.6 lineto
42989.3 49636.3 lineto
42989.3 49683.2 lineto
42979.9 49701.9 lineto
42970.6 49711.3 lineto
42951.8 49720.7 lineto
42914.3 49720.7 lineto
42895.6 49711.3 lineto
42886.2 49701.9 lineto
42876.8 49683.2 lineto
stroke
0 0 0 setrgbcolor
98.4252 setlinewidth
newpath
36501.7 36273.9 moveto
36801.7 36273.9 lineto
stroke
newpath
36651.7 36123.9 moveto
36651.7 36423.9 lineto
stroke
newpath
37289.1 36123.9 moveto
37289.1 36517.6 lineto
37382.8 36517.6 lineto
37439.1 36498.9 lineto
37476.6 36461.4 lineto
37495.3 36423.9 lineto
37514.1 36348.9 lineto
37514.1 36292.7 lineto
37495.3 36217.7 lineto
37476.6 36180.2 lineto
37439.1 36142.7 lineto
37382.8 36123.9 lineto
37289.1 36123.9 lineto
stroke
newpath
37682.8 36330.2 moveto
37814 36330.2 lineto
stroke
newpath
37870.3 36123.9 moveto
37682.8 36123.9 lineto
37682.8 36517.6 lineto
37870.3 36517.6 lineto
stroke
newpath
38020.2 36236.4 moveto
38207.7 36236.4 lineto
stroke
newpath
37982.8 36123.9 moveto
38114 36517.6 lineto
38245.2 36123.9 lineto
stroke
newpath
38376.5 36123.9 moveto
38376.5 36517.6 lineto
38470.2 36517.6 lineto
38526.4 36498.9 lineto
38563.9 36461.4 lineto
38582.7 36423.9 lineto
38601.4 36348.9 lineto
38601.4 36292.7 lineto
38582.7 36217.7 lineto
38563.9 36180.2 lineto
38526.4 36142.7 lineto
38470.2 36123.9 lineto
38376.5 36123.9 lineto
stroke
newpath
39295.1 36123.9 moveto
39163.9 36311.4 lineto
stroke
newpath
39070.1 36123.9 moveto
39070.1 36517.6 lineto
39220.1 36517.6 lineto
39257.6 36498.9 lineto
39276.3 36480.2 lineto
39295.1 36442.7 lineto
39295.1 36386.4 lineto
39276.3 36348.9 lineto
39257.6 36330.2 lineto
39220.1 36311.4 lineto
39070.1 36311.4 lineto
stroke
newpath
39463.8 36330.2 moveto
39595.1 36330.2 lineto
stroke
newpath
39651.3 36123.9 moveto
39463.8 36123.9 lineto
39463.8 36517.6 lineto
39651.3 36517.6 lineto
stroke
newpath
40045 36161.4 moveto
40026.2 36142.7 lineto
39970 36123.9 lineto
39932.5 36123.9 lineto
39876.3 36142.7 lineto
39838.8 36180.2 lineto
39820 36217.7 lineto
39801.3 36292.7 lineto
39801.3 36348.9 lineto
39820 36423.9 lineto
39838.8 36461.4 lineto
39876.3 36498.9 lineto
39932.5 36517.6 lineto
39970 36517.6 lineto
40026.2 36498.9 lineto
40045 36480.2 lineto
stroke
newpath
40213.7 36123.9 moveto
40213.7 36517.6 lineto
stroke
newpath
40438.7 36123.9 moveto
40270 36348.9 lineto
stroke
newpath
40438.7 36517.6 moveto
40213.7 36292.7 lineto
stroke
newpath
40682.4 36517.6 moveto
40757.4 36517.6 lineto
40794.9 36498.9 lineto
40832.4 36461.4 lineto
40851.1 36386.4 lineto
40851.1 36255.2 lineto
40832.4 36180.2 lineto
40794.9 36142.7 lineto
40757.4 36123.9 lineto
40682.4 36123.9 lineto
40644.9 36142.7 lineto
40607.4 36180.2 lineto
40588.7 36255.2 lineto
40588.7 36386.4 lineto
40607.4 36461.4 lineto
40644.9 36498.9 lineto
40682.4 36517.6 lineto
stroke
newpath
41019.9 36123.9 moveto
41019.9 36517.6 lineto
41244.8 36123.9 lineto
41244.8 36517.6 lineto
stroke
newpath
41432.3 36123.9 moveto
41432.3 36517.6 lineto
stroke
newpath
41619.8 36123.9 moveto
41619.8 36517.6 lineto
41844.8 36123.9 lineto
41844.8 36517.6 lineto
stroke
newpath
42238.5 36498.9 moveto
42201 36517.6 lineto
42144.7 36517.6 lineto
42088.5 36498.9 lineto
42051 36461.4 lineto
42032.2 36423.9 lineto
42013.5 36348.9 lineto
42013.5 36292.7 lineto
42032.2 36217.7 lineto
42051 36180.2 lineto
42088.5 36142.7 lineto
42144.7 36123.9 lineto
42182.2 36123.9 lineto
42238.5 36142.7 lineto
42257.2 36161.4 lineto
42257.2 36292.7 lineto
42182.2 36292.7 lineto
stroke
0 0 0 setrgbcolor
49.2126 setlinewidth
newpath
33631.9 39633 moveto
33617.8 39604.9 lineto
33617.8 39562.7 lineto
33631.9 39520.6 lineto
33660 39492.4 lineto
33688.1 39478.4 lineto
33744.4 39464.3 lineto
33786.6 39464.3 lineto
33842.8 39478.4 lineto
33870.9 39492.4 lineto
33899 39520.6 lineto
33913.1 39562.7 lineto
33913.1 39590.9 lineto
33899 39633 lineto
33885 39647.1 lineto
33786.6 39647.1 lineto
33786.6 39590.9 lineto
stroke
newpath
33913.1 39815.8 moveto
33899 39787.7 lineto
33870.9 39773.6 lineto
33617.8 39773.6 lineto
stroke
newpath
33913.1 39970.5 moveto
33899 39942.4 lineto
33885 39928.3 lineto
33856.9 39914.3 lineto
33772.5 39914.3 lineto
33744.4 39928.3 lineto
33730.3 39942.4 lineto
33716.3 39970.5 lineto
33716.3 40012.7 lineto
33730.3 40040.8 lineto
33744.4 40054.9 lineto
33772.5 40068.9 lineto
33856.9 40068.9 lineto
33885 40054.9 lineto
33899 40040.8 lineto
33913.1 40012.7 lineto
33913.1 39970.5 lineto
stroke
newpath
33913.1 40195.5 moveto
33617.8 40195.5 lineto
stroke
newpath
33730.3 40195.5 moveto
33716.3 40223.6 lineto
33716.3 40279.8 lineto
33730.3 40308 lineto
33744.4 40322 lineto
33772.5 40336.1 lineto
33856.9 40336.1 lineto
33885 40322 lineto
33899 40308 lineto
33913.1 40279.8 lineto
33913.1 40223.6 lineto
33899 40195.5 lineto
stroke
newpath
33913.1 40589.2 moveto
33758.4 40589.2 lineto
33730.3 40575.1 lineto
33716.3 40547 lineto
33716.3 40490.7 lineto
33730.3 40462.6 lineto
stroke
newpath
33899 40589.2 moveto
33913.1 40561 lineto
33913.1 40490.7 lineto
33899 40462.6 lineto
33870.9 40448.6 lineto
33842.8 40448.6 lineto
33814.7 40462.6 lineto
33800.6 40490.7 lineto
33800.6 40561 lineto
33786.6 40589.2 lineto
stroke
newpath
33913.1 40772 moveto
33899 40743.8 lineto
33870.9 40729.8 lineto
33617.8 40729.8 lineto
stroke
newpath
33913.1 41109.4 moveto
33617.8 41109.4 lineto
33913.1 41278.1 lineto
33617.8 41278.1 lineto
stroke
newpath
33913.1 41545.3 moveto
33758.4 41545.3 lineto
33730.3 41531.2 lineto
33716.3 41503.1 lineto
33716.3 41446.9 lineto
33730.3 41418.8 lineto
stroke
newpath
33899 41545.3 moveto
33913.1 41517.2 lineto
33913.1 41446.9 lineto
33899 41418.8 lineto
33870.9 41404.7 lineto
33842.8 41404.7 lineto
33814.7 41418.8 lineto
33800.6 41446.9 lineto
33800.6 41517.2 lineto
33786.6 41545.3 lineto
stroke
newpath
33716.3 41657.8 moveto
33913.1 41728.1 lineto
33716.3 41798.4 lineto
stroke
newpath
33913.1 41910.9 moveto
33716.3 41910.9 lineto
stroke
newpath
33617.8 41910.9 moveto
33631.9 41896.8 lineto
33646 41910.9 lineto
33631.9 41924.9 lineto
33617.8 41910.9 lineto
33646 41910.9 lineto
stroke
newpath
33716.3 42178 moveto
33955.3 42178 lineto
33983.4 42164 lineto
33997.5 42149.9 lineto
34011.5 42121.8 lineto
34011.5 42079.6 lineto
33997.5 42051.5 lineto
stroke
newpath
33899 42178 moveto
33913.1 42149.9 lineto
33913.1 42093.7 lineto
33899 42065.5 lineto
33885 42051.5 lineto
33856.9 42037.4 lineto
33772.5 42037.4 lineto
33744.4 42051.5 lineto
33730.3 42065.5 lineto
33716.3 42093.7 lineto
33716.3 42149.9 lineto
33730.3 42178 lineto
stroke
newpath
33913.1 42445.2 moveto
33758.4 42445.2 lineto
33730.3 42431.1 lineto
33716.3 42403 lineto
33716.3 42346.8 lineto
33730.3 42318.6 lineto
stroke
newpath
33899 42445.2 moveto
33913.1 42417.1 lineto
33913.1 42346.8 lineto
33899 42318.6 lineto
33870.9 42304.6 lineto
33842.8 42304.6 lineto
33814.7 42318.6 lineto
33800.6 42346.8 lineto
33800.6 42417.1 lineto
33786.6 42445.2 lineto
stroke
newpath
33716.3 42543.6 moveto
33716.3 42656.1 lineto
stroke
newpath
33617.8 42585.8 moveto
33870.9 42585.8 lineto
33899 42599.9 lineto
33913.1 42628 lineto
33913.1 42656.1 lineto
stroke
newpath
33913.1 42754.5 moveto
33716.3 42754.5 lineto
stroke
newpath
33617.8 42754.5 moveto
33631.9 42740.5 lineto
33646 42754.5 lineto
33631.9 42768.6 lineto
33617.8 42754.5 lineto
33646 42754.5 lineto
stroke
newpath
33913.1 42937.3 moveto
33899 42909.2 lineto
33885 42895.1 lineto
33856.9 42881.1 lineto
33772.5 42881.1 lineto
33744.4 42895.1 lineto
33730.3 42909.2 lineto
33716.3 42937.3 lineto
33716.3 42979.5 lineto
33730.3 43007.6 lineto
33744.4 43021.7 lineto
33772.5 43035.7 lineto
33856.9 43035.7 lineto
33885 43021.7 lineto
33899 43007.6 lineto
33913.1 42979.5 lineto
33913.1 42937.3 lineto
stroke
newpath
33716.3 43162.3 moveto
33913.1 43162.3 lineto
stroke
newpath
33744.4 43162.3 moveto
33730.3 43176.3 lineto
33716.3 43204.5 lineto
33716.3 43246.6 lineto
33730.3 43274.8 lineto
33758.4 43288.8 lineto
33913.1 43288.8 lineto
stroke
newpath
33899 43640.3 moveto
33913.1 43682.5 lineto
33913.1 43752.8 lineto
33899 43781 lineto
33885 43795 lineto
33856.9 43809.1 lineto
33828.7 43809.1 lineto
33800.6 43795 lineto
33786.6 43781 lineto
33772.5 43752.8 lineto
33758.4 43696.6 lineto
33744.4 43668.5 lineto
33730.3 43654.4 lineto
33702.2 43640.3 lineto
33674.1 43640.3 lineto
33646 43654.4 lineto
33631.9 43668.5 lineto
33617.8 43696.6 lineto
33617.8 43766.9 lineto
33631.9 43809.1 lineto
stroke
newpath
33913.1 44062.2 moveto
33758.4 44062.2 lineto
33730.3 44048.1 lineto
33716.3 44020 lineto
33716.3 43963.7 lineto
33730.3 43935.6 lineto
stroke
newpath
33899 44062.2 moveto
33913.1 44034 lineto
33913.1 43963.7 lineto
33899 43935.6 lineto
33870.9 43921.6 lineto
33842.8 43921.6 lineto
33814.7 43935.6 lineto
33800.6 43963.7 lineto
33800.6 44034 lineto
33786.6 44062.2 lineto
stroke
newpath
33716.3 44160.6 moveto
33716.3 44273.1 lineto
stroke
newpath
33617.8 44202.8 moveto
33870.9 44202.8 lineto
33899 44216.8 lineto
33913.1 44245 lineto
33913.1 44273.1 lineto
stroke
newpath
33899 44484 moveto
33913.1 44455.9 lineto
33913.1 44399.6 lineto
33899 44371.5 lineto
33870.9 44357.4 lineto
33758.4 44357.4 lineto
33730.3 44371.5 lineto
33716.3 44399.6 lineto
33716.3 44455.9 lineto
33730.3 44484 lineto
33758.4 44498.1 lineto
33786.6 44498.1 lineto
33814.7 44357.4 lineto
stroke
newpath
33913.1 44666.8 moveto
33899 44638.7 lineto
33870.9 44624.6 lineto
33617.8 44624.6 lineto
stroke
newpath
33913.1 44821.5 moveto
33899 44793.3 lineto
33870.9 44779.3 lineto
33617.8 44779.3 lineto
stroke
newpath
33913.1 44933.9 moveto
33716.3 44933.9 lineto
stroke
newpath
33617.8 44933.9 moveto
33631.9 44919.9 lineto
33646 44933.9 lineto
33631.9 44948 lineto
33617.8 44933.9 lineto
33646 44933.9 lineto
stroke
newpath
33716.3 45032.4 moveto
33716.3 45144.8 lineto
stroke
newpath
33617.8 45074.5 moveto
33870.9 45074.5 lineto
33899 45088.6 lineto
33913.1 45116.7 lineto
33913.1 45144.8 lineto
stroke
newpath
33899 45355.8 moveto
33913.1 45327.6 lineto
33913.1 45271.4 lineto
33899 45243.3 lineto
33870.9 45229.2 lineto
33758.4 45229.2 lineto
33730.3 45243.3 lineto
33716.3 45271.4 lineto
33716.3 45327.6 lineto
33730.3 45355.8 lineto
33758.4 45369.8 lineto
33786.6 45369.8 lineto
33814.7 45229.2 lineto
stroke
newpath
33899 45707.3 moveto
33913.1 45749.5 lineto
33913.1 45819.8 lineto
33899 45847.9 lineto
33885 45861.9 lineto
33856.9 45876 lineto
33828.7 45876 lineto
33800.6 45861.9 lineto
33786.6 45847.9 lineto
33772.5 45819.8 lineto
33758.4 45763.5 lineto
33744.4 45735.4 lineto
33730.3 45721.3 lineto
33702.2 45707.3 lineto
33674.1 45707.3 lineto
33646 45721.3 lineto
33631.9 45735.4 lineto
33617.8 45763.5 lineto
33617.8 45833.8 lineto
33631.9 45876 lineto
stroke
newpath
33716.3 45974.4 moveto
33913.1 46044.7 lineto
stroke
newpath
33716.3 46115 moveto
33913.1 46044.7 lineto
33983.4 46016.6 lineto
33997.5 46002.6 lineto
34011.5 45974.4 lineto
stroke
newpath
33899 46213.5 moveto
33913.1 46241.6 lineto
33913.1 46297.8 lineto
33899 46325.9 lineto
33870.9 46340 lineto
33856.9 46340 lineto
33828.7 46325.9 lineto
33814.7 46297.8 lineto
33814.7 46255.6 lineto
33800.6 46227.5 lineto
33772.5 46213.5 lineto
33758.4 46213.5 lineto
33730.3 46227.5 lineto
33716.3 46255.6 lineto
33716.3 46297.8 lineto
33730.3 46325.9 lineto
stroke
newpath
33716.3 46424.4 moveto
33716.3 46536.9 lineto
stroke
newpath
33617.8 46466.6 moveto
33870.9 46466.6 lineto
33899 46480.6 lineto
33913.1 46508.7 lineto
33913.1 46536.9 lineto
stroke
newpath
33899 46747.8 moveto
33913.1 46719.7 lineto
33913.1 46663.4 lineto
33899 46635.3 lineto
33870.9 46621.2 lineto
33758.4 46621.2 lineto
33730.3 46635.3 lineto
33716.3 46663.4 lineto
33716.3 46719.7 lineto
33730.3 46747.8 lineto
33758.4 46761.8 lineto
33786.6 46761.8 lineto
33814.7 46621.2 lineto
stroke
newpath
33913.1 46888.4 moveto
33716.3 46888.4 lineto
stroke
newpath
33744.4 46888.4 moveto
33730.3 46902.4 lineto
33716.3 46930.6 lineto
33716.3 46972.7 lineto
33730.3 47000.9 lineto
33758.4 47014.9 lineto
33913.1 47014.9 lineto
stroke
newpath
33758.4 47014.9 moveto
33730.3 47029 lineto
33716.3 47057.1 lineto
33716.3 47099.3 lineto
33730.3 47127.4 lineto
33758.4 47141.5 lineto
33913.1 47141.5 lineto
stroke
0 0 0 setrgbcolor
newpath
39136.7 48867.7 moveto
39230.4 48867.7 lineto
stroke
newpath
39117.9 48811.4 moveto
39183.5 49008.3 lineto
39249.2 48811.4 lineto
stroke
newpath
39305.4 48820.8 moveto
39324.1 48811.4 lineto
39361.6 48811.4 lineto
39380.4 48820.8 lineto
39389.8 48839.5 lineto
39389.8 48848.9 lineto
39380.4 48867.7 lineto
39361.6 48877 lineto
39333.5 48877 lineto
39314.8 48886.4 lineto
39305.4 48905.2 lineto
39305.4 48914.5 lineto
39314.8 48933.3 lineto
39333.5 48942.7 lineto
39361.6 48942.7 lineto
39380.4 48933.3 lineto
stroke
newpath
39464.8 48820.8 moveto
39483.5 48811.4 lineto
39521 48811.4 lineto
39539.7 48820.8 lineto
39549.1 48839.5 lineto
39549.1 48848.9 lineto
39539.7 48867.7 lineto
39521 48877 lineto
39492.9 48877 lineto
39474.1 48886.4 lineto
39464.8 48905.2 lineto
39464.8 48914.5 lineto
39474.1 48933.3 lineto
39492.9 48942.7 lineto
39521 48942.7 lineto
39539.7 48933.3 lineto
stroke
newpath
39708.5 48820.8 moveto
39689.7 48811.4 lineto
39652.2 48811.4 lineto
39633.5 48820.8 lineto
39624.1 48839.5 lineto
39624.1 48914.5 lineto
39633.5 48933.3 lineto
39652.2 48942.7 lineto
39689.7 48942.7 lineto
39708.5 48933.3 lineto
39717.8 48914.5 lineto
39717.8 48895.8 lineto
39624.1 48877 lineto
stroke
newpath
39802.2 48811.4 moveto
39802.2 48942.7 lineto
stroke
newpath
39802.2 48923.9 moveto
39811.6 48933.3 lineto
39830.3 48942.7 lineto
39858.5 48942.7 lineto
39877.2 48933.3 lineto
39886.6 48914.5 lineto
39886.6 48811.4 lineto
stroke
newpath
39886.6 48914.5 moveto
39896 48933.3 lineto
39914.7 48942.7 lineto
39942.8 48942.7 lineto
39961.6 48933.3 lineto
39970.9 48914.5 lineto
39970.9 48811.4 lineto
stroke
newpath
40064.7 48811.4 moveto
40064.7 49008.3 lineto
stroke
newpath
40064.7 48933.3 moveto
40083.4 48942.7 lineto
40120.9 48942.7 lineto
40139.7 48933.3 lineto
40149 48923.9 lineto
40158.4 48905.2 lineto
40158.4 48848.9 lineto
40149 48830.2 lineto
40139.7 48820.8 lineto
40120.9 48811.4 lineto
40083.4 48811.4 lineto
40064.7 48820.8 lineto
stroke
newpath
40270.9 48811.4 moveto
40252.2 48820.8 lineto
40242.8 48839.5 lineto
40242.8 49008.3 lineto
stroke
newpath
40420.9 48820.8 moveto
40402.1 48811.4 lineto
40364.6 48811.4 lineto
40345.9 48820.8 lineto
40336.5 48839.5 lineto
40336.5 48914.5 lineto
40345.9 48933.3 lineto
40364.6 48942.7 lineto
40402.1 48942.7 lineto
40420.9 48933.3 lineto
40430.3 48914.5 lineto
40430.3 48895.8 lineto
40336.5 48877 lineto
stroke
newpath
40599 48811.4 moveto
40599 49008.3 lineto
stroke
newpath
40599 48820.8 moveto
40580.2 48811.4 lineto
40542.7 48811.4 lineto
40524 48820.8 lineto
40514.6 48830.2 lineto
40505.2 48848.9 lineto
40505.2 48905.2 lineto
40514.6 48923.9 lineto
40524 48933.3 lineto
40542.7 48942.7 lineto
40580.2 48942.7 lineto
40599 48933.3 lineto
stroke
newpath
40842.7 48811.4 moveto
40842.7 48942.7 lineto
stroke
newpath
40842.7 49008.3 moveto
40833.3 48998.9 lineto
40842.7 48989.5 lineto
40852.1 48998.9 lineto
40842.7 49008.3 lineto
40842.7 48989.5 lineto
stroke
newpath
40936.4 48942.7 moveto
40936.4 48811.4 lineto
stroke
newpath
40936.4 48923.9 moveto
40945.8 48933.3 lineto
40964.6 48942.7 lineto
40992.7 48942.7 lineto
41011.4 48933.3 lineto
41020.8 48914.5 lineto
41020.8 48811.4 lineto
stroke
newpath
41377 48830.2 moveto
41367.6 48820.8 lineto
41339.5 48811.4 lineto
41320.8 48811.4 lineto
41292.7 48820.8 lineto
41273.9 48839.5 lineto
41264.5 48858.3 lineto
41255.2 48895.8 lineto
41255.2 48923.9 lineto
41264.5 48961.4 lineto
41273.9 48980.2 lineto
41292.7 48998.9 lineto
41320.8 49008.3 lineto
41339.5 49008.3 lineto
41367.6 48998.9 lineto
41377 48989.5 lineto
stroke
newpath
41545.7 48811.4 moveto
41545.7 48914.5 lineto
41536.4 48933.3 lineto
41517.6 48942.7 lineto
41480.1 48942.7 lineto
41461.4 48933.3 lineto
stroke
newpath
41545.7 48820.8 moveto
41527 48811.4 lineto
41480.1 48811.4 lineto
41461.4 48820.8 lineto
41452 48839.5 lineto
41452 48858.3 lineto
41461.4 48877 lineto
41480.1 48886.4 lineto
41527 48886.4 lineto
41545.7 48895.8 lineto
stroke
newpath
41639.5 48942.7 moveto
41639.5 48811.4 lineto
stroke
newpath
41639.5 48923.9 moveto
41648.9 48933.3 lineto
41667.6 48942.7 lineto
41695.7 48942.7 lineto
41714.5 48933.3 lineto
41723.8 48914.5 lineto
41723.8 48811.4 lineto
stroke
newpath
41901.9 48811.4 moveto
41901.9 48914.5 lineto
41892.6 48933.3 lineto
41873.8 48942.7 lineto
41836.3 48942.7 lineto
41817.6 48933.3 lineto
stroke
newpath
41901.9 48820.8 moveto
41883.2 48811.4 lineto
41836.3 48811.4 lineto
41817.6 48820.8 lineto
41808.2 48839.5 lineto
41808.2 48858.3 lineto
41817.6 48877 lineto
41836.3 48886.4 lineto
41883.2 48886.4 lineto
41901.9 48895.8 lineto
stroke
newpath
41995.7 48811.4 moveto
41995.7 48942.7 lineto
stroke
newpath
41995.7 48905.2 moveto
42005.1 48923.9 lineto
42014.4 48933.3 lineto
42033.2 48942.7 lineto
42051.9 48942.7 lineto
stroke
newpath
42098.8 48942.7 moveto
42145.7 48811.4 lineto
stroke
newpath
42192.5 48942.7 moveto
42145.7 48811.4 lineto
42126.9 48764.6 lineto
42117.5 48755.2 lineto
42098.8 48745.8 lineto
stroke
newpath
42417.5 48811.4 moveto
42417.5 49008.3 lineto
stroke
newpath
42501.9 48820.8 moveto
42520.6 48811.4 lineto
42558.1 48811.4 lineto
42576.9 48820.8 lineto
42586.2 48839.5 lineto
42586.2 48848.9 lineto
42576.9 48867.7 lineto
42558.1 48877 lineto
42530 48877 lineto
42511.2 48886.4 lineto
42501.9 48905.2 lineto
42501.9 48914.5 lineto
42511.2 48933.3 lineto
42530 48942.7 lineto
42558.1 48942.7 lineto
42576.9 48933.3 lineto
stroke
newpath
42698.7 48811.4 moveto
42680 48820.8 lineto
42670.6 48839.5 lineto
42670.6 49008.3 lineto
stroke
newpath
42858.1 48811.4 moveto
42858.1 48914.5 lineto
42848.7 48933.3 lineto
42830 48942.7 lineto
42792.5 48942.7 lineto
42773.7 48933.3 lineto
stroke
newpath
42858.1 48820.8 moveto
42839.3 48811.4 lineto
42792.5 48811.4 lineto
42773.7 48820.8 lineto
42764.3 48839.5 lineto
42764.3 48858.3 lineto
42773.7 48877 lineto
42792.5 48886.4 lineto
42839.3 48886.4 lineto
42858.1 48895.8 lineto
stroke
newpath
42951.8 48942.7 moveto
42951.8 48811.4 lineto
stroke
newpath
42951.8 48923.9 moveto
42961.2 48933.3 lineto
42979.9 48942.7 lineto
43008.1 48942.7 lineto
43026.8 48933.3 lineto
43036.2 48914.5 lineto
43036.2 48811.4 lineto
stroke
newpath
43214.3 48811.4 moveto
43214.3 49008.3 lineto
stroke
newpath
43214.3 48820.8 moveto
43195.5 48811.4 lineto
43158 48811.4 lineto
43139.3 48820.8 lineto
43129.9 48830.2 lineto
43120.5 48848.9 lineto
43120.5 48905.2 lineto
43129.9 48923.9 lineto
43139.3 48933.3 lineto
43158 48942.7 lineto
43195.5 48942.7 lineto
43214.3 48933.3 lineto
stroke
newpath
43298.7 48820.8 moveto
43317.4 48811.4 lineto
43354.9 48811.4 lineto
43373.6 48820.8 lineto
43383 48839.5 lineto
43383 48848.9 lineto
43373.6 48867.7 lineto
43354.9 48877 lineto
43326.8 48877 lineto
43308 48886.4 lineto
43298.7 48905.2 lineto
43298.7 48914.5 lineto
43308 48933.3 lineto
43326.8 48942.7 lineto
43354.9 48942.7 lineto
43373.6 48933.3 lineto
stroke
0 0 0 setrgbcolor
newpath
39258.5 49205.1 moveto
39258.5 49402 lineto
39305.4 49402 lineto
39333.5 49392.6 lineto
39352.3 49373.9 lineto
39361.6 49355.1 lineto
39371 49317.6 lineto
39371 49289.5 lineto
39361.6 49252 lineto
39352.3 49233.2 lineto
39333.5 49214.5 lineto
39305.4 49205.1 lineto
39258.5 49205.1 lineto
stroke
newpath
39530.4 49214.5 moveto
39511.6 49205.1 lineto
39474.1 49205.1 lineto
39455.4 49214.5 lineto
39446 49233.2 lineto
39446 49308.2 lineto
39455.4 49327 lineto
39474.1 49336.4 lineto
39511.6 49336.4 lineto
39530.4 49327 lineto
39539.7 49308.2 lineto
39539.7 49289.5 lineto
39446 49270.7 lineto
stroke
newpath
39614.7 49214.5 moveto
39633.5 49205.1 lineto
39671 49205.1 lineto
39689.7 49214.5 lineto
39699.1 49233.2 lineto
39699.1 49242.6 lineto
39689.7 49261.4 lineto
39671 49270.7 lineto
39642.9 49270.7 lineto
39624.1 49280.1 lineto
39614.7 49298.9 lineto
39614.7 49308.2 lineto
39624.1 49327 lineto
39642.9 49336.4 lineto
39671 49336.4 lineto
39689.7 49327 lineto
stroke
newpath
39783.5 49205.1 moveto
39783.5 49336.4 lineto
stroke
newpath
39783.5 49402 moveto
39774.1 49392.6 lineto
39783.5 49383.2 lineto
39792.8 49392.6 lineto
39783.5 49402 lineto
39783.5 49383.2 lineto
stroke
newpath
39961.6 49336.4 moveto
39961.6 49177 lineto
39952.2 49158.3 lineto
39942.8 49148.9 lineto
39924.1 49139.5 lineto
39896 49139.5 lineto
39877.2 49148.9 lineto
stroke
newpath
39961.6 49214.5 moveto
39942.8 49205.1 lineto
39905.3 49205.1 lineto
39886.6 49214.5 lineto
39877.2 49223.9 lineto
39867.8 49242.6 lineto
39867.8 49298.9 lineto
39877.2 49317.6 lineto
39886.6 49327 lineto
39905.3 49336.4 lineto
39942.8 49336.4 lineto
39961.6 49327 lineto
stroke
newpath
40055.3 49336.4 moveto
40055.3 49205.1 lineto
stroke
newpath
40055.3 49317.6 moveto
40064.7 49327 lineto
40083.4 49336.4 lineto
40111.5 49336.4 lineto
40130.3 49327 lineto
40139.7 49308.2 lineto
40139.7 49205.1 lineto
stroke
newpath
40308.4 49214.5 moveto
40289.7 49205.1 lineto
40252.2 49205.1 lineto
40233.4 49214.5 lineto
40224 49233.2 lineto
40224 49308.2 lineto
40233.4 49327 lineto
40252.2 49336.4 lineto
40289.7 49336.4 lineto
40308.4 49327 lineto
40317.8 49308.2 lineto
40317.8 49289.5 lineto
40224 49270.7 lineto
stroke
newpath
40486.5 49205.1 moveto
40486.5 49402 lineto
stroke
newpath
40486.5 49214.5 moveto
40467.8 49205.1 lineto
40430.3 49205.1 lineto
40411.5 49214.5 lineto
40402.1 49223.9 lineto
40392.8 49242.6 lineto
40392.8 49298.9 lineto
40402.1 49317.6 lineto
40411.5 49327 lineto
40430.3 49336.4 lineto
40467.8 49336.4 lineto
40486.5 49327 lineto
stroke
newpath
40730.2 49205.1 moveto
40730.2 49336.4 lineto
stroke
newpath
40730.2 49402 moveto
40720.8 49392.6 lineto
40730.2 49383.2 lineto
40739.6 49392.6 lineto
40730.2 49402 lineto
40730.2 49383.2 lineto
stroke
newpath
40824 49336.4 moveto
40824 49205.1 lineto
stroke
newpath
40824 49317.6 moveto
40833.3 49327 lineto
40852.1 49336.4 lineto
40880.2 49336.4 lineto
40898.9 49327 lineto
40908.3 49308.2 lineto
40908.3 49205.1 lineto
stroke
newpath
41264.5 49223.9 moveto
41255.2 49214.5 lineto
41227 49205.1 lineto
41208.3 49205.1 lineto
41180.2 49214.5 lineto
41161.4 49233.2 lineto
41152 49252 lineto
41142.7 49289.5 lineto
41142.7 49317.6 lineto
41152 49355.1 lineto
41161.4 49373.9 lineto
41180.2 49392.6 lineto
41208.3 49402 lineto
41227 49402 lineto
41255.2 49392.6 lineto
41264.5 49383.2 lineto
stroke
newpath
41433.3 49205.1 moveto
41433.3 49308.2 lineto
41423.9 49327 lineto
41405.1 49336.4 lineto
41367.6 49336.4 lineto
41348.9 49327 lineto
stroke
newpath
41433.3 49214.5 moveto
41414.5 49205.1 lineto
41367.6 49205.1 lineto
41348.9 49214.5 lineto
41339.5 49233.2 lineto
41339.5 49252 lineto
41348.9 49270.7 lineto
41367.6 49280.1 lineto
41414.5 49280.1 lineto
41433.3 49289.5 lineto
stroke
newpath
41527 49336.4 moveto
41527 49205.1 lineto
stroke
newpath
41527 49317.6 moveto
41536.4 49327 lineto
41555.1 49336.4 lineto
41583.2 49336.4 lineto
41602 49327 lineto
41611.4 49308.2 lineto
41611.4 49205.1 lineto
stroke
newpath
41789.5 49205.1 moveto
41789.5 49308.2 lineto
41780.1 49327 lineto
41761.3 49336.4 lineto
41723.8 49336.4 lineto
41705.1 49327 lineto
stroke
newpath
41789.5 49214.5 moveto
41770.7 49205.1 lineto
41723.8 49205.1 lineto
41705.1 49214.5 lineto
41695.7 49233.2 lineto
41695.7 49252 lineto
41705.1 49270.7 lineto
41723.8 49280.1 lineto
41770.7 49280.1 lineto
41789.5 49289.5 lineto
stroke
newpath
41883.2 49205.1 moveto
41883.2 49336.4 lineto
stroke
newpath
41883.2 49298.9 moveto
41892.6 49317.6 lineto
41901.9 49327 lineto
41920.7 49336.4 lineto
41939.4 49336.4 lineto
stroke
newpath
41986.3 49336.4 moveto
42033.2 49205.1 lineto
stroke
newpath
42080.1 49336.4 moveto
42033.2 49205.1 lineto
42014.4 49158.3 lineto
42005.1 49148.9 lineto
41986.3 49139.5 lineto
stroke
newpath
42305 49205.1 moveto
42305 49402 lineto
stroke
newpath
42389.4 49214.5 moveto
42408.1 49205.1 lineto
42445.6 49205.1 lineto
42464.4 49214.5 lineto
42473.8 49233.2 lineto
42473.8 49242.6 lineto
42464.4 49261.4 lineto
42445.6 49270.7 lineto
42417.5 49270.7 lineto
42398.8 49280.1 lineto
42389.4 49298.9 lineto
42389.4 49308.2 lineto
42398.8 49327 lineto
42417.5 49336.4 lineto
42445.6 49336.4 lineto
42464.4 49327 lineto
stroke
newpath
42586.2 49205.1 moveto
42567.5 49214.5 lineto
42558.1 49233.2 lineto
42558.1 49402 lineto
stroke
newpath
42745.6 49205.1 moveto
42745.6 49308.2 lineto
42736.2 49327 lineto
42717.5 49336.4 lineto
42680 49336.4 lineto
42661.2 49327 lineto
stroke
newpath
42745.6 49214.5 moveto
42726.8 49205.1 lineto
42680 49205.1 lineto
42661.2 49214.5 lineto
42651.9 49233.2 lineto
42651.9 49252 lineto
42661.2 49270.7 lineto
42680 49280.1 lineto
42726.8 49280.1 lineto
42745.6 49289.5 lineto
stroke
newpath
42839.3 49336.4 moveto
42839.3 49205.1 lineto
stroke
newpath
42839.3 49317.6 moveto
42848.7 49327 lineto
42867.5 49336.4 lineto
42895.6 49336.4 lineto
42914.3 49327 lineto
42923.7 49308.2 lineto
42923.7 49205.1 lineto
stroke
newpath
43101.8 49205.1 moveto
43101.8 49402 lineto
stroke
newpath
43101.8 49214.5 moveto
43083.1 49205.1 lineto
43045.6 49205.1 lineto
43026.8 49214.5 lineto
43017.4 49223.9 lineto
43008.1 49242.6 lineto
43008.1 49298.9 lineto
43017.4 49317.6 lineto
43026.8 49327 lineto
43045.6 49336.4 lineto
43083.1 49336.4 lineto
43101.8 49327 lineto
stroke
newpath
43186.2 49214.5 moveto
43204.9 49205.1 lineto
43242.4 49205.1 lineto
43261.2 49214.5 lineto
43270.5 49233.2 lineto
43270.5 49242.6 lineto
43261.2 49261.4 lineto
43242.4 49270.7 lineto
43214.3 49270.7 lineto
43195.5 49280.1 lineto
43186.2 49298.9 lineto
43186.2 49308.2 lineto
43195.5 49327 lineto
43214.3 49336.4 lineto
43242.4 49336.4 lineto
43261.2 49327 lineto
stroke
0 0 0 setrgbcolor
295.276 setlinewidth
newpath
33290.2 39564.1 moveto
32109.1 39564.1 lineto
32109.1 39845.4 lineto
32165.4 40014.1 lineto
32277.8 40126.6 lineto
32390.3 40182.8 lineto
32615.3 40239.1 lineto
32784 40239.1 lineto
33009 40182.8 lineto
33121.5 40126.6 lineto
33234 40014.1 lineto
33290.2 39845.4 lineto
33290.2 39564.1 lineto
stroke
newpath
33290.2 41420.2 moveto
32727.8 41026.5 lineto
stroke
newpath
33290.2 40745.2 moveto
32109.1 40745.2 lineto
32109.1 41195.2 lineto
32165.4 41307.7 lineto
32221.6 41363.9 lineto
32334.1 41420.2 lineto
32502.8 41420.2 lineto
32615.3 41363.9 lineto
32671.5 41307.7 lineto
32727.8 41195.2 lineto
32727.8 40745.2 lineto
stroke
newpath
32615.3 42095.1 moveto
32559.1 41982.6 lineto
32502.8 41926.3 lineto
32390.3 41870.1 lineto
32334.1 41870.1 lineto
32221.6 41926.3 lineto
32165.4 41982.6 lineto
32109.1 42095.1 lineto
32109.1 42320 lineto
32165.4 42432.5 lineto
32221.6 42488.8 lineto
32334.1 42545 lineto
32390.3 42545 lineto
32502.8 42488.8 lineto
32559.1 42432.5 lineto
32615.3 42320 lineto
32615.3 42095.1 lineto
32671.5 41982.6 lineto
32727.8 41926.3 lineto
32840.3 41870.1 lineto
33065.2 41870.1 lineto
33177.7 41926.3 lineto
33234 41982.6 lineto
33290.2 42095.1 lineto
33290.2 42320 lineto
33234 42432.5 lineto
33177.7 42488.8 lineto
33065.2 42545 lineto
32840.3 42545 lineto
32727.8 42488.8 lineto
32671.5 42432.5 lineto
32615.3 42320 lineto
stroke
0 0 0 setrgbcolor
98.4252 setlinewidth
newpath
35639.3 37522.5 moveto
35601.8 37541.3 lineto
35545.6 37541.3 lineto
35489.3 37522.5 lineto
35451.8 37485 lineto
35433.1 37447.5 lineto
35414.3 37372.5 lineto
35414.3 37316.3 lineto
35433.1 37241.3 lineto
35451.8 37203.8 lineto
35489.3 37166.3 lineto
35545.6 37147.6 lineto
35583.1 37147.6 lineto
35639.3 37166.3 lineto
35658 37185.1 lineto
35658 37316.3 lineto
35583.1 37316.3 lineto
stroke
newpath
35826.8 37147.6 moveto
35826.8 37541.3 lineto
35976.8 37541.3 lineto
36014.2 37522.5 lineto
36033 37503.8 lineto
36051.7 37466.3 lineto
36051.7 37410 lineto
36033 37372.5 lineto
36014.2 37353.8 lineto
35976.8 37335 lineto
35826.8 37335 lineto
stroke
newpath
36201.7 37166.3 moveto
36258 37147.6 lineto
36351.7 37147.6 lineto
36389.2 37166.3 lineto
36407.9 37185.1 lineto
36426.7 37222.6 lineto
36426.7 37260.1 lineto
36407.9 37297.5 lineto
36389.2 37316.3 lineto
36351.7 37335 lineto
36276.7 37353.8 lineto
36239.2 37372.5 lineto
36220.5 37391.3 lineto
36201.7 37428.8 lineto
36201.7 37466.3 lineto
36220.5 37503.8 lineto
36239.2 37522.5 lineto
36276.7 37541.3 lineto
36370.5 37541.3 lineto
36426.7 37522.5 lineto
stroke
newpath
36895.4 37185.1 moveto
36914.1 37166.3 lineto
36895.4 37147.6 lineto
36876.6 37166.3 lineto
36895.4 37185.1 lineto
36895.4 37147.6 lineto
stroke
newpath
36895.4 37391.3 moveto
36914.1 37372.5 lineto
36895.4 37353.8 lineto
36876.6 37372.5 lineto
36895.4 37391.3 lineto
36895.4 37353.8 lineto
stroke
newpath
37082.9 37185.1 moveto
37101.6 37166.3 lineto
37082.9 37147.6 lineto
37064.1 37166.3 lineto
37082.9 37185.1 lineto
37082.9 37147.6 lineto
stroke
newpath
37082.9 37391.3 moveto
37101.6 37372.5 lineto
37082.9 37353.8 lineto
37064.1 37372.5 lineto
37082.9 37391.3 lineto
37082.9 37353.8 lineto
stroke
newpath
37776.5 37522.5 moveto
37739 37541.3 lineto
37682.8 37541.3 lineto
37626.5 37522.5 lineto
37589.1 37485 lineto
37570.3 37447.5 lineto
37551.6 37372.5 lineto
37551.6 37316.3 lineto
37570.3 37241.3 lineto
37589.1 37203.8 lineto
37626.5 37166.3 lineto
37682.8 37147.6 lineto
37720.3 37147.6 lineto
37776.5 37166.3 lineto
37795.3 37185.1 lineto
37795.3 37316.3 lineto
37720.3 37316.3 lineto
stroke
newpath
38151.5 37147.6 moveto
37964 37147.6 lineto
37964 37541.3 lineto
stroke
newpath
38357.7 37541.3 moveto
38432.7 37541.3 lineto
38470.2 37522.5 lineto
38507.7 37485 lineto
38526.4 37410 lineto
38526.4 37278.8 lineto
38507.7 37203.8 lineto
38470.2 37166.3 lineto
38432.7 37147.6 lineto
38357.7 37147.6 lineto
38320.2 37166.3 lineto
38282.7 37203.8 lineto
38264 37278.8 lineto
38264 37410 lineto
38282.7 37485 lineto
38320.2 37522.5 lineto
38357.7 37541.3 lineto
stroke
newpath
38695.2 37147.6 moveto
38695.2 37541.3 lineto
38920.1 37147.6 lineto
38920.1 37541.3 lineto
stroke
newpath
39088.9 37260.1 moveto
39276.3 37260.1 lineto
stroke
newpath
39051.4 37147.6 moveto
39182.6 37541.3 lineto
39313.8 37147.6 lineto
stroke
newpath
39426.3 37166.3 moveto
39482.6 37147.6 lineto
39576.3 37147.6 lineto
39613.8 37166.3 lineto
39632.5 37185.1 lineto
39651.3 37222.6 lineto
39651.3 37260.1 lineto
39632.5 37297.5 lineto
39613.8 37316.3 lineto
39576.3 37335 lineto
39501.3 37353.8 lineto
39463.8 37372.5 lineto
39445.1 37391.3 lineto
39426.3 37428.8 lineto
39426.3 37466.3 lineto
39445.1 37503.8 lineto
39463.8 37522.5 lineto
39501.3 37541.3 lineto
39595.1 37541.3 lineto
39651.3 37522.5 lineto
stroke
newpath
39801.3 37166.3 moveto
39857.5 37147.6 lineto
39951.3 37147.6 lineto
39988.8 37166.3 lineto
40007.5 37185.1 lineto
40026.2 37222.6 lineto
40026.2 37260.1 lineto
40007.5 37297.5 lineto
39988.8 37316.3 lineto
39951.3 37335 lineto
39876.3 37353.8 lineto
39838.8 37372.5 lineto
39820 37391.3 lineto
39801.3 37428.8 lineto
39801.3 37466.3 lineto
39820 37503.8 lineto
39838.8 37522.5 lineto
39876.3 37541.3 lineto
39970 37541.3 lineto
40026.2 37522.5 lineto
stroke
newpath
40494.9 37185.1 moveto
40513.7 37166.3 lineto
40494.9 37147.6 lineto
40476.2 37166.3 lineto
40494.9 37185.1 lineto
40494.9 37147.6 lineto
stroke
newpath
40494.9 37391.3 moveto
40513.7 37372.5 lineto
40494.9 37353.8 lineto
40476.2 37372.5 lineto
40494.9 37391.3 lineto
40494.9 37353.8 lineto
stroke
newpath
40682.4 37185.1 moveto
40701.2 37166.3 lineto
40682.4 37147.6 lineto
40663.7 37166.3 lineto
40682.4 37185.1 lineto
40682.4 37147.6 lineto
stroke
newpath
40682.4 37391.3 moveto
40701.2 37372.5 lineto
40682.4 37353.8 lineto
40663.7 37372.5 lineto
40682.4 37391.3 lineto
40682.4 37353.8 lineto
stroke
newpath
41376.1 37522.5 moveto
41338.6 37541.3 lineto
41282.3 37541.3 lineto
41226.1 37522.5 lineto
41188.6 37485 lineto
41169.9 37447.5 lineto
41151.1 37372.5 lineto
41151.1 37316.3 lineto
41169.9 37241.3 lineto
41188.6 37203.8 lineto
41226.1 37166.3 lineto
41282.3 37147.6 lineto
41319.8 37147.6 lineto
41376.1 37166.3 lineto
41394.8 37185.1 lineto
41394.8 37316.3 lineto
41319.8 37316.3 lineto
stroke
newpath
41544.8 37260.1 moveto
41732.3 37260.1 lineto
stroke
newpath
41507.3 37147.6 moveto
41638.5 37541.3 lineto
41769.8 37147.6 lineto
stroke
newpath
42088.5 37147.6 moveto
41901 37147.6 lineto
41901 37541.3 lineto
stroke
newpath
42219.7 37147.6 moveto
42219.7 37541.3 lineto
stroke
newpath
42594.7 37147.6 moveto
42407.2 37147.6 lineto
42407.2 37541.3 lineto
stroke
newpath
42725.9 37353.8 moveto
42857.1 37353.8 lineto
stroke
newpath
42913.4 37147.6 moveto
42725.9 37147.6 lineto
42725.9 37541.3 lineto
42913.4 37541.3 lineto
stroke
newpath
43157.1 37541.3 moveto
43232.1 37541.3 lineto
43269.6 37522.5 lineto
43307.1 37485 lineto
43325.8 37410 lineto
43325.8 37278.8 lineto
43307.1 37203.8 lineto
43269.6 37166.3 lineto
43232.1 37147.6 lineto
43157.1 37147.6 lineto
43119.6 37166.3 lineto
43082.1 37203.8 lineto
43063.4 37278.8 lineto
43063.4 37410 lineto
43082.1 37485 lineto
43119.6 37522.5 lineto
43157.1 37541.3 lineto
stroke
0 0 0 setrgbcolor
68.8976 setlinewidth
newpath
38419.6 50139.7 moveto
38419.6 50533.4 lineto
stroke
newpath
38419.6 50345.9 moveto
38644.5 50345.9 lineto
stroke
newpath
38644.5 50139.7 moveto
38644.5 50533.4 lineto
stroke
newpath
38832 50345.9 moveto
38963.3 50345.9 lineto
stroke
newpath
39019.5 50139.7 moveto
38832 50139.7 lineto
38832 50533.4 lineto
39019.5 50533.4 lineto
stroke
newpath
39150.7 50533.4 moveto
39413.2 50139.7 lineto
stroke
newpath
39413.2 50533.4 moveto
39150.7 50139.7 lineto
stroke
newpath
39544.4 50252.2 moveto
39731.9 50252.2 lineto
stroke
newpath
39506.9 50139.7 moveto
39638.2 50533.4 lineto
39769.4 50139.7 lineto
stroke
newpath
40106.9 50514.6 moveto
40069.4 50533.4 lineto
40013.1 50533.4 lineto
39956.9 50514.6 lineto
39919.4 50477.2 lineto
39900.6 50439.7 lineto
39881.9 50364.7 lineto
39881.9 50308.4 lineto
39900.6 50233.4 lineto
39919.4 50195.9 lineto
39956.9 50158.4 lineto
40013.1 50139.7 lineto
40050.6 50139.7 lineto
40106.9 50158.4 lineto
40125.6 50177.2 lineto
40125.6 50308.4 lineto
40050.6 50308.4 lineto
stroke
newpath
40369.3 50533.4 moveto
40444.3 50533.4 lineto
40481.8 50514.6 lineto
40519.3 50477.2 lineto
40538.1 50402.2 lineto
40538.1 50270.9 lineto
40519.3 50195.9 lineto
40481.8 50158.4 lineto
40444.3 50139.7 lineto
40369.3 50139.7 lineto
40331.8 50158.4 lineto
40294.3 50195.9 lineto
40275.6 50270.9 lineto
40275.6 50402.2 lineto
40294.3 50477.2 lineto
40331.8 50514.6 lineto
40369.3 50533.4 lineto
stroke
newpath
40706.8 50139.7 moveto
40706.8 50533.4 lineto
40931.8 50139.7 lineto
40931.8 50533.4 lineto
stroke
newpath
41644.2 50139.7 moveto
41512.9 50327.2 lineto
stroke
newpath
41419.2 50139.7 moveto
41419.2 50533.4 lineto
41569.2 50533.4 lineto
41606.7 50514.6 lineto
41625.4 50495.9 lineto
41644.2 50458.4 lineto
41644.2 50402.2 lineto
41625.4 50364.7 lineto
41606.7 50345.9 lineto
41569.2 50327.2 lineto
41419.2 50327.2 lineto
stroke
newpath
41887.9 50533.4 moveto
41962.9 50533.4 lineto
42000.4 50514.6 lineto
42037.9 50477.2 lineto
42056.6 50402.2 lineto
42056.6 50270.9 lineto
42037.9 50195.9 lineto
42000.4 50158.4 lineto
41962.9 50139.7 lineto
41887.9 50139.7 lineto
41850.4 50158.4 lineto
41812.9 50195.9 lineto
41794.2 50270.9 lineto
41794.2 50402.2 lineto
41812.9 50477.2 lineto
41850.4 50514.6 lineto
41887.9 50533.4 lineto
stroke
newpath
42356.6 50345.9 moveto
42412.8 50327.2 lineto
42431.6 50308.4 lineto
42450.3 50270.9 lineto
42450.3 50214.7 lineto
42431.6 50177.2 lineto
42412.8 50158.4 lineto
42375.3 50139.7 lineto
42225.3 50139.7 lineto
42225.3 50533.4 lineto
42356.6 50533.4 lineto
42394.1 50514.6 lineto
42412.8 50495.9 lineto
42431.6 50458.4 lineto
42431.6 50420.9 lineto
42412.8 50383.4 lineto
42394.1 50364.7 lineto
42356.6 50345.9 lineto
42225.3 50345.9 lineto
stroke
newpath
42694 50533.4 moveto
42769 50533.4 lineto
42806.5 50514.6 lineto
42844 50477.2 lineto
42862.8 50402.2 lineto
42862.8 50270.9 lineto
42844 50195.9 lineto
42806.5 50158.4 lineto
42769 50139.7 lineto
42694 50139.7 lineto
42656.5 50158.4 lineto
42619 50195.9 lineto
42600.3 50270.9 lineto
42600.3 50402.2 lineto
42619 50477.2 lineto
42656.5 50514.6 lineto
42694 50533.4 lineto
stroke
newpath
42975.3 50533.4 moveto
43200.2 50533.4 lineto
stroke
newpath
43087.7 50139.7 moveto
43087.7 50533.4 lineto
stroke
newpath
43331.5 50139.7 moveto
43331.5 50533.4 lineto
stroke
newpath
43743.9 50177.2 moveto
43725.2 50158.4 lineto
43668.9 50139.7 lineto
43631.4 50139.7 lineto
43575.2 50158.4 lineto
43537.7 50195.9 lineto
43518.9 50233.4 lineto
43500.2 50308.4 lineto
43500.2 50364.7 lineto
43518.9 50439.7 lineto
43537.7 50477.2 lineto
43575.2 50514.6 lineto
43631.4 50533.4 lineto
43668.9 50533.4 lineto
43725.2 50514.6 lineto
43743.9 50495.9 lineto
stroke
newpath
43893.9 50158.4 moveto
43950.1 50139.7 lineto
44043.9 50139.7 lineto
44081.4 50158.4 lineto
44100.1 50177.2 lineto
44118.9 50214.7 lineto
44118.9 50252.2 lineto
44100.1 50289.7 lineto
44081.4 50308.4 lineto
44043.9 50327.2 lineto
43968.9 50345.9 lineto
43931.4 50364.7 lineto
43912.6 50383.4 lineto
43893.9 50420.9 lineto
43893.9 50458.4 lineto
43912.6 50495.9 lineto
43931.4 50514.6 lineto
43968.9 50533.4 lineto
44062.6 50533.4 lineto
44118.9 50514.6 lineto
stroke
0 0 0 setrgbcolor
19.685 setlinewidth
newpath
43902.6 38777.4 moveto
34847.4 38777.4 lineto
stroke
0 0 0 setrgbcolor
newpath
34847.4 47832.6 moveto
43902.6 47832.6 lineto
stroke
0 0 0 setrgbcolor
newpath
43902.6 38777.4 moveto
43902.6 47832.6 lineto
stroke
0 0 0 setrgbcolor
newpath
34847.4 38777.4 moveto
34847.4 47832.6 lineto
stroke
0 0 0 setrgbcolor
59.0551 setlinewidth
newpath
45394 40357.4 moveto
45394 41380.5 lineto
stroke
0 0 0 setrgbcolor
newpath
45394 41380.5 moveto
46417.1 41380.5 lineto
stroke
0 0 0 setrgbcolor
newpath
46417.1 41380.5 moveto
46417.1 40357.4 lineto
stroke
0 0 0 setrgbcolor
newpath
46417.1 40357.4 moveto
45394 40357.4 lineto
stroke
0 0 0 setrgbcolor
newpath
46396.6 46231.6 moveto
46396.6 45208.4 lineto
stroke
0 0 0 setrgbcolor
newpath
46396.6 45208.4 moveto
45373.4 45208.4 lineto
stroke
0 0 0 setrgbcolor
newpath
45373.4 45208.4 moveto
45373.4 46231.6 lineto
stroke
0 0 0 setrgbcolor
newpath
45373.4 46231.6 moveto
46396.6 46231.6 lineto
stroke
0 0 0 setrgbcolor
newpath
45394 41932.2 moveto
45394 42955.3 lineto
stroke
0 0 0 setrgbcolor
newpath
45394 42955.3 moveto
46417.1 42955.3 lineto
stroke
0 0 0 setrgbcolor
newpath
46417.1 42955.3 moveto
46417.1 41932.2 lineto
stroke
0 0 0 setrgbcolor
newpath
46417.1 41932.2 moveto
45394 41932.2 lineto
stroke
0 0 0 setrgbcolor
newpath
45363.3 46788.4 moveto
45363.3 47811.6 lineto
stroke
0 0 0 setrgbcolor
newpath
45363.3 47811.6 moveto
46386.4 47811.6 lineto
stroke
0 0 0 setrgbcolor
newpath
46386.4 47811.6 moveto
46386.4 46788.4 lineto
stroke
0 0 0 setrgbcolor
newpath
46386.4 46788.4 moveto
45363.3 46788.4 lineto
stroke
0 0 0 setrgbcolor
newpath
45373.4 43563.4 moveto
45373.4 44586.6 lineto
stroke
0 0 0 setrgbcolor
newpath
45373.4 44586.6 moveto
46396.6 44586.6 lineto
stroke
0 0 0 setrgbcolor
newpath
46396.6 44586.6 moveto
46396.6 43563.4 lineto
stroke
0 0 0 setrgbcolor
newpath
46396.6 43563.4 moveto
45373.4 43563.4 lineto
stroke
0 0 0 setrgbcolor
newpath
45394 38782.6 moveto
45394 39805.7 lineto
stroke
0 0 0 setrgbcolor
newpath
45394 39805.7 moveto
46417.1 39805.7 lineto
stroke
0 0 0 setrgbcolor
newpath
46417.1 39805.7 moveto
46417.1 38782.6 lineto
stroke
0 0 0 setrgbcolor
newpath
46417.1 38782.6 moveto
45394 38782.6 lineto
stroke
0 0 0 setrgbcolor
98.4252 setlinewidth
newpath
37632.9 48949.7 moveto
37682.1 48949.7 lineto
stroke
0 0 0 setrgbcolor
newpath
37682.1 48949.7 moveto
37682.1 48752.8 lineto
stroke
0 0 0 setrgbcolor
newpath
37682.1 48752.8 moveto
37632.9 48752.8 lineto
stroke
0 0 0 setrgbcolor
newpath
37632.9 50622.9 moveto
37682.1 50622.9 lineto
stroke
0 0 0 setrgbcolor
newpath
37682.1 50622.9 moveto
37682.1 50426.1 lineto
stroke
0 0 0 setrgbcolor
newpath
37682.1 50426.1 moveto
37632.9 50426.1 lineto
stroke
0 0 0 setrgbcolor
newpath
37386.8 49589.4 moveto
37436 49589.4 lineto
stroke
0 0 0 setrgbcolor
newpath
37436 49786.3 moveto
37386.8 49786.3 lineto
stroke
0 0 0 setrgbcolor
newpath
37436 49786.3 moveto
37485.2 49786.3 lineto
stroke
0 0 0 setrgbcolor
newpath
37485.2 49786.3 moveto
37485.2 49589.4 lineto
stroke
0 0 0 setrgbcolor
newpath
37485.2 49589.4 moveto
37436 49589.4 lineto
stroke
0 0 0 setrgbcolor
newpath
35959.6 48949.7 moveto
36008.9 48949.7 lineto
stroke
0 0 0 setrgbcolor
newpath
36008.9 48949.7 moveto
36008.9 48752.8 lineto
stroke
0 0 0 setrgbcolor
newpath
36008.9 48752.8 moveto
35959.6 48752.8 lineto
stroke
0 0 0 setrgbcolor
newpath
36008.9 50622.9 moveto
35959.6 50622.9 lineto
stroke
0 0 0 setrgbcolor
newpath
36008.9 50622.9 moveto
36008.9 50426.1 lineto
stroke
0 0 0 setrgbcolor
newpath
36008.9 50426.1 moveto
35959.6 50426.1 lineto
stroke
0 0 0 setrgbcolor
295.276 setlinewidth
35959.6 49687.9 836.614 -260 -100 arc0
0 0 0 setrgbcolor
98.4252 setlinewidth
35959.6 49687.9 935.039 -270 -90 arc0
0 0 0 setrgbcolor
35959.6 49687.9 738.189 -270 -90 arc0
0 0 0 setrgbcolor
newpath
35959.6 50622.9 moveto
35959.6 50426.1 lineto
stroke
0 0 0 setrgbcolor
newpath
35959.6 48949.7 moveto
35959.6 48752.8 lineto
stroke
0 0 0 setrgbcolor
newpath
37632.9 48949.7 moveto
37632.9 48752.8 lineto
stroke
0 0 0 setrgbcolor
newpath
37632.9 50622.9 moveto
37632.9 50426.1 lineto
stroke
0 0 0 setrgbcolor
37632.9 49687.9 738.189 -270 -90 arc0
0 0 0 setrgbcolor
37632.9 49687.9 935.039 -270 -90 arc0
0 0 0 setrgbcolor
295.276 setlinewidth
newpath
37386.8 49687.9 moveto
36796.3 49687.9 lineto
stroke
0 0 0 setrgbcolor
37632.9 49687.9 836.614 -260 -100 arc0
0 0 0 setrgbcolor
59.0551 setlinewidth
0 0 0 setrgbcolor
0 0 0 setrgbcolor
newpath
38407.4 43918.5 moveto
38407.4 44031 lineto
stroke
newpath
38474.9 43896.1 moveto
38238.6 43974.8 lineto
38474.9 44053.5 lineto
stroke
newpath
38474.9 44132.3 moveto
38238.6 44132.3 lineto
38474.9 44267.3 lineto
38238.6 44267.3 lineto
stroke
newpath
38238.6 44346 moveto
38238.6 44481 lineto
stroke
newpath
38474.9 44413.5 moveto
38238.6 44413.5 lineto
stroke
newpath
38474.9 44683.5 moveto
38474.9 44548.5 lineto
stroke
newpath
38474.9 44616 moveto
38238.6 44616 lineto
38272.4 44593.5 lineto
38294.9 44571 lineto
38306.1 44548.5 lineto
stroke
0 0 0 setrgbcolor
0 0 0 setrgbcolor
0 0 0 setrgbcolor
newpath
46804.5 40534.3 moveto
46817.6 40573.7 lineto
46817.6 40639.3 lineto
46804.5 40665.6 lineto
46791.3 40678.7 lineto
46765.1 40691.8 lineto
46738.8 40691.8 lineto
46712.6 40678.7 lineto
46699.5 40665.6 lineto
46686.4 40639.3 lineto
46673.2 40586.8 lineto
46660.1 40560.6 lineto
46647 40547.5 lineto
46620.7 40534.3 lineto
46594.5 40534.3 lineto
46568.2 40547.5 lineto
46555.1 40560.6 lineto
46542 40586.8 lineto
46542 40652.4 lineto
46555.1 40691.8 lineto
stroke
newpath
46817.6 40809.9 moveto
46542 40809.9 lineto
46542 40875.5 lineto
46555.1 40914.9 lineto
46581.4 40941.2 lineto
46607.6 40954.3 lineto
46660.1 40967.4 lineto
46699.5 40967.4 lineto
46752 40954.3 lineto
46778.2 40941.2 lineto
46804.5 40914.9 lineto
46817.6 40875.5 lineto
46817.6 40809.9 lineto
stroke
newpath
46738.8 41072.4 moveto
46738.8 41203.6 lineto
stroke
newpath
46817.6 41046.1 moveto
46542 41138 lineto
46817.6 41229.9 lineto
stroke
0 0 0 setrgbcolor
0 0 0 setrgbcolor
0 0 0 setrgbcolor
newpath
46555.1 45462.2 moveto
46542 45435.9 lineto
46542 45396.5 lineto
46555.1 45357.2 lineto
46581.4 45330.9 lineto
46607.6 45317.8 lineto
46660.1 45304.7 lineto
46699.5 45304.7 lineto
46752 45317.8 lineto
46778.2 45330.9 lineto
46804.5 45357.2 lineto
46817.6 45396.5 lineto
46817.6 45422.8 lineto
46804.5 45462.2 lineto
46791.3 45475.3 lineto
46699.5 45475.3 lineto
46699.5 45422.8 lineto
stroke
newpath
46817.6 45593.4 moveto
46542 45593.4 lineto
46817.6 45750.9 lineto
46542 45750.9 lineto
stroke
newpath
46817.6 45882.1 moveto
46542 45882.1 lineto
46542 45947.7 lineto
46555.1 45987.1 lineto
46581.4 46013.3 lineto
46607.6 46026.5 lineto
46660.1 46039.6 lineto
46699.5 46039.6 lineto
46752 46026.5 lineto
46778.2 46013.3 lineto
46804.5 45987.1 lineto
46817.6 45947.7 lineto
46817.6 45882.1 lineto
stroke
0 0 0 setrgbcolor
0 0 0 setrgbcolor
0 0 0 setrgbcolor
newpath
46542 42233.8 moveto
46542 42391.3 lineto
stroke
newpath
46817.6 42312.5 moveto
46542 42312.5 lineto
stroke
newpath
46542 42456.9 moveto
46817.6 42640.6 lineto
stroke
newpath
46542 42640.6 moveto
46817.6 42456.9 lineto
stroke
0 0 0 setrgbcolor
0 0 0 setrgbcolor
0 0 0 setrgbcolor
newpath
46542 47194.4 moveto
46542 47063.2 lineto
46673.2 47050.1 lineto
46660.1 47063.2 lineto
46647 47089.4 lineto
46647 47155.1 lineto
46660.1 47181.3 lineto
46673.2 47194.4 lineto
46699.5 47207.6 lineto
46765.1 47207.6 lineto
46791.3 47194.4 lineto
46804.5 47181.3 lineto
46817.6 47155.1 lineto
46817.6 47089.4 lineto
46804.5 47063.2 lineto
46791.3 47050.1 lineto
stroke
newpath
46542 47286.3 moveto
46817.6 47378.2 lineto
46542 47470 lineto
stroke
0 0 0 setrgbcolor
0 0 0 setrgbcolor
0 0 0 setrgbcolor
newpath
46817.6 44051.4 moveto
46686.4 43959.5 lineto
stroke
newpath
46817.6 43893.9 moveto
46542 43893.9 lineto
46542 43998.9 lineto
46555.1 44025.1 lineto
46568.2 44038.3 lineto
46594.5 44051.4 lineto
46633.9 44051.4 lineto
46660.1 44038.3 lineto
46673.2 44025.1 lineto
46686.4 43998.9 lineto
46686.4 43893.9 lineto
stroke
newpath
46542 44143.3 moveto
46817.6 44327 lineto
stroke
newpath
46542 44327 moveto
46817.6 44143.3 lineto
stroke
0 0 0 setrgbcolor
0 0 0 setrgbcolor
0 0 0 setrgbcolor
newpath
46804.5 38966.1 moveto
46817.6 39005.5 lineto
46817.6 39071.1 lineto
46804.5 39097.3 lineto
46791.3 39110.4 lineto
46765.1 39123.6 lineto
46738.8 39123.6 lineto
46712.6 39110.4 lineto
46699.5 39097.3 lineto
46686.4 39071.1 lineto
46673.2 39018.6 lineto
46660.1 38992.3 lineto
46647 38979.2 lineto
46620.7 38966.1 lineto
46594.5 38966.1 lineto
46568.2 38979.2 lineto
46555.1 38992.3 lineto
46542 39018.6 lineto
46542 39084.2 lineto
46555.1 39123.6 lineto
stroke
newpath
46791.3 39399.2 moveto
46804.5 39386 lineto
46817.6 39346.7 lineto
46817.6 39320.4 lineto
46804.5 39281.1 lineto
46778.2 39254.8 lineto
46752 39241.7 lineto
46699.5 39228.6 lineto
46660.1 39228.6 lineto
46607.6 39241.7 lineto
46581.4 39254.8 lineto
46555.1 39281.1 lineto
46542 39320.4 lineto
46542 39346.7 lineto
46555.1 39386 lineto
46568.2 39399.2 lineto
stroke
newpath
46817.6 39648.5 moveto
46817.6 39517.3 lineto
46542 39517.3 lineto
stroke
showpage
grestore
%%EOF
