%!PS-Adobe-3.0
%%Creator: PCBNEW
%%CreationDate: Thu Feb 25 18:48:39 2016
%%Title: /home/ubuntu/HEXAGON-ROBOTICS/HEXAGON-ROBOTICS-GNSS-DR/GERBER/DR8-B.Fab.ps
%%Pages: 1
%%PageOrder: Ascend
%%BoundingBox: 0 0 596 842
%%DocumentMedia: A4 595 842 0 () ()
%%Orientation: Landscape
%%EndComments
%%BeginProlog
/line { newpath moveto lineto stroke } bind def
/cir0 { newpath 0 360 arc stroke } bind def
/cir1 { newpath 0 360 arc gsave fill grestore stroke } bind def
/cir2 { newpath 0 360 arc gsave fill grestore stroke } bind def
/arc0 { newpath arc stroke } bind def
/arc1 { newpath 4 index 4 index moveto arc closepath gsave fill
    grestore stroke } bind def
/arc2 { newpath 4 index 4 index moveto arc closepath gsave fill
    grestore stroke } bind def
/poly0 { stroke } bind def
/poly1 { closepath gsave fill grestore stroke } bind def
/poly2 { closepath gsave fill grestore stroke } bind def
/rect0 { rectstroke } bind def
/rect1 { rectfill } bind def
/rect2 { rectfill } bind def
/linemode0 { 0 setlinecap 0 setlinejoin 0 setlinewidth } bind def
/linemode1 { 1 setlinecap 1 setlinejoin } bind def
/dashedline { [200] 100 setdash } bind def
/solidline { [] 0 setdash } bind def
/phantomshow { moveto
    /KicadFont findfont 0.000001 scalefont setfont
    show } bind def
/textshow { gsave
    findfont exch scalefont setfont concat 1 scale 0 0 moveto show
    } bind def
/reencodefont {
  findfont dup length dict begin
  { 1 index /FID ne
    { def }
    { pop pop } ifelse
  } forall
  /Encoding ISOLatin1Encoding def
  currentdict
  end } bind def
/KicadFont /Helvetica reencodefont definefont pop
/KicadFont-Bold /Helvetica-Bold reencodefont definefont pop
/KicadFont-Oblique /Helvetica-Oblique reencodefont definefont pop
/KicadFont-BoldOblique /Helvetica-BoldOblique reencodefont definefont pop
%%EndProlog
%%Page: 1 1
%%BeginPageSetup
gsave
0.0072 0.0072 scale
linemode1
82680 0 translate 90 rotate
39.3701 setlinewidth
%%EndPageSetup
0 0 0 setrgbcolor
0 0 0 setrgbcolor
59.0551 setlinewidth
0 0 0 setrgbcolor
0 0 0 setrgbcolor
newpath
40568 37856.3 moveto
40568 38092.5 lineto
40489.2 37923.8 lineto
40410.5 38092.5 lineto
40410.5 37856.3 lineto
stroke
newpath
40185.5 37856.3 moveto
40298 37856.3 lineto
40298 38092.5 lineto
stroke
newpath
40106.8 37946.3 moveto
39926.8 37946.3 lineto
stroke
newpath
39690.6 37856.3 moveto
39825.6 37856.3 lineto
stroke
newpath
39758.1 37856.3 moveto
39758.1 38092.5 lineto
39780.6 38058.8 lineto
39803.1 38036.3 lineto
39825.6 38025 lineto
stroke
newpath
39600.6 38070 moveto
39589.3 38081.3 lineto
39566.8 38092.5 lineto
39510.6 38092.5 lineto
39488.1 38081.3 lineto
39476.8 38070 lineto
39465.6 38047.5 lineto
39465.6 38025 lineto
39476.8 37991.3 lineto
39611.8 37856.3 lineto
39465.6 37856.3 lineto
stroke
newpath
39375.6 38070 moveto
39364.4 38081.3 lineto
39341.9 38092.5 lineto
39285.6 38092.5 lineto
39263.1 38081.3 lineto
39251.9 38070 lineto
39240.6 38047.5 lineto
39240.6 38025 lineto
39251.9 37991.3 lineto
39386.9 37856.3 lineto
39240.6 37856.3 lineto
stroke
newpath
39094.4 38092.5 moveto
39071.9 38092.5 lineto
39049.4 38081.3 lineto
39038.1 38070 lineto
39026.9 38047.5 lineto
39015.7 38002.5 lineto
39015.7 37946.3 lineto
39026.9 37901.3 lineto
39038.1 37878.8 lineto
39049.4 37867.5 lineto
39071.9 37856.3 lineto
39094.4 37856.3 lineto
39116.9 37867.5 lineto
39128.1 37878.8 lineto
39139.4 37901.3 lineto
39150.6 37946.3 lineto
39150.6 38002.5 lineto
39139.4 38047.5 lineto
39128.1 38070 lineto
39116.9 38081.3 lineto
39094.4 38092.5 lineto
stroke
newpath
38745.7 38103.8 moveto
38948.2 37800 lineto
stroke
newpath
38588.2 37980 moveto
38666.9 37980 lineto
stroke
newpath
38666.9 37856.3 moveto
38666.9 38092.5 lineto
38554.5 38092.5 lineto
stroke
newpath
38340.7 37856.3 moveto
38475.7 37856.3 lineto
stroke
newpath
38408.2 37856.3 moveto
38408.2 38092.5 lineto
38430.7 38058.8 lineto
38453.2 38036.3 lineto
38475.7 38025 lineto
stroke
newpath
38250.7 37923.8 moveto
38138.3 37923.8 lineto
stroke
newpath
38273.2 37856.3 moveto
38194.5 38092.5 lineto
38115.8 37856.3 lineto
stroke
newpath
38037 37856.3 moveto
38037 38092.5 lineto
37902 37856.3 lineto
37902 38092.5 lineto
stroke
0 0 0 setrgbcolor
0 0 0 setrgbcolor
0 0 0 setrgbcolor
newpath
35784.9 43334.2 moveto
35751.2 43322.9 lineto
35694.9 43322.9 lineto
35672.4 43334.2 lineto
35661.2 43345.4 lineto
35649.9 43367.9 lineto
35649.9 43390.4 lineto
35661.2 43412.9 lineto
35672.4 43424.1 lineto
35694.9 43435.4 lineto
35739.9 43446.6 lineto
35762.4 43457.9 lineto
35773.7 43469.1 lineto
35784.9 43491.6 lineto
35784.9 43514.1 lineto
35773.7 43536.6 lineto
35762.4 43547.9 lineto
35739.9 43559.1 lineto
35683.7 43559.1 lineto
35649.9 43547.9 lineto
stroke
newpath
35436.2 43322.9 moveto
35548.7 43322.9 lineto
35548.7 43559.1 lineto
stroke
newpath
35323.7 43457.9 moveto
35346.2 43469.1 lineto
35357.5 43480.4 lineto
35368.7 43502.9 lineto
35368.7 43514.1 lineto
35357.5 43536.6 lineto
35346.2 43547.9 lineto
35323.7 43559.1 lineto
35278.7 43559.1 lineto
35256.2 43547.9 lineto
35245 43536.6 lineto
35233.7 43514.1 lineto
35233.7 43502.9 lineto
35245 43480.4 lineto
35256.2 43469.1 lineto
35278.7 43457.9 lineto
35323.7 43457.9 lineto
35346.2 43446.6 lineto
35357.5 43435.4 lineto
35368.7 43412.9 lineto
35368.7 43367.9 lineto
35357.5 43345.4 lineto
35346.2 43334.2 lineto
35323.7 43322.9 lineto
35278.7 43322.9 lineto
35256.2 43334.2 lineto
35245 43345.4 lineto
35233.7 43367.9 lineto
35233.7 43412.9 lineto
35245 43435.4 lineto
35256.2 43446.6 lineto
35278.7 43457.9 lineto
stroke
newpath
35031.2 43559.1 moveto
35076.2 43559.1 lineto
35098.7 43547.9 lineto
35110 43536.6 lineto
35132.5 43502.9 lineto
35143.7 43457.9 lineto
35143.7 43367.9 lineto
35132.5 43345.4 lineto
35121.2 43334.2 lineto
35098.7 43322.9 lineto
35053.7 43322.9 lineto
35031.2 43334.2 lineto
35020 43345.4 lineto
35008.8 43367.9 lineto
35008.8 43424.1 lineto
35020 43446.6 lineto
35031.2 43457.9 lineto
35053.7 43469.1 lineto
35098.7 43469.1 lineto
35121.2 43457.9 lineto
35132.5 43446.6 lineto
35143.7 43424.1 lineto
stroke
newpath
34896.3 43322.9 moveto
34851.3 43322.9 lineto
34828.8 43334.2 lineto
34817.5 43345.4 lineto
34795 43379.1 lineto
34783.8 43424.1 lineto
34783.8 43514.1 lineto
34795 43536.6 lineto
34806.3 43547.9 lineto
34828.8 43559.1 lineto
34873.8 43559.1 lineto
34896.3 43547.9 lineto
34907.5 43536.6 lineto
34918.8 43514.1 lineto
34918.8 43457.9 lineto
34907.5 43435.4 lineto
34896.3 43424.1 lineto
34873.8 43412.9 lineto
34828.8 43412.9 lineto
34806.3 43424.1 lineto
34795 43435.4 lineto
34783.8 43457.9 lineto
stroke
newpath
34682.5 43412.9 moveto
34502.6 43412.9 lineto
stroke
newpath
34390.1 43322.9 moveto
34390.1 43559.1 lineto
34333.8 43559.1 lineto
34300.1 43547.9 lineto
34277.6 43525.4 lineto
34266.3 43502.9 lineto
34255.1 43457.9 lineto
34255.1 43424.1 lineto
34266.3 43379.1 lineto
34277.6 43356.6 lineto
34300.1 43334.2 lineto
34333.8 43322.9 lineto
34390.1 43322.9 lineto
stroke
newpath
34018.9 43322.9 moveto
34097.6 43435.4 lineto
stroke
newpath
34153.9 43322.9 moveto
34153.9 43559.1 lineto
34063.9 43559.1 lineto
34041.4 43547.9 lineto
34030.1 43536.6 lineto
34018.9 43514.1 lineto
34018.9 43480.4 lineto
34030.1 43457.9 lineto
34041.4 43446.6 lineto
34063.9 43435.4 lineto
34153.9 43435.4 lineto
stroke
0 0 0 setrgbcolor
0 0 0 setrgbcolor
0 0 0 setrgbcolor
newpath
46971.9 43719.4 moveto
46994.4 43730.6 lineto
47028.1 43730.6 lineto
47061.9 43719.4 lineto
47084.4 43696.9 lineto
47095.6 43674.4 lineto
47106.9 43629.4 lineto
47106.9 43595.6 lineto
47095.6 43550.6 lineto
47084.4 43528.1 lineto
47061.9 43505.6 lineto
47028.1 43494.4 lineto
47005.6 43494.4 lineto
46971.9 43505.6 lineto
46960.6 43516.9 lineto
46960.6 43595.6 lineto
47005.6 43595.6 lineto
stroke
newpath
46859.4 43494.4 moveto
46859.4 43730.6 lineto
46769.4 43730.6 lineto
46746.9 43719.4 lineto
46735.7 43708.1 lineto
46724.4 43685.6 lineto
46724.4 43651.9 lineto
46735.7 43629.4 lineto
46746.9 43618.1 lineto
46769.4 43606.9 lineto
46859.4 43606.9 lineto
stroke
newpath
46634.4 43505.6 moveto
46600.7 43494.4 lineto
46544.4 43494.4 lineto
46521.9 43505.6 lineto
46510.7 43516.9 lineto
46499.4 43539.4 lineto
46499.4 43561.9 lineto
46510.7 43584.4 lineto
46521.9 43595.6 lineto
46544.4 43606.9 lineto
46589.4 43618.1 lineto
46611.9 43629.4 lineto
46623.2 43640.6 lineto
46634.4 43663.1 lineto
46634.4 43685.6 lineto
46623.2 43708.1 lineto
46611.9 43719.4 lineto
46589.4 43730.6 lineto
46533.2 43730.6 lineto
46499.4 43719.4 lineto
stroke
showpage
grestore
%%EOF
