%!PS-Adobe-3.0
%%Creator: PCBNEW
%%CreationDate: Thu Feb 25 18:48:39 2016
%%Title: /home/ubuntu/HEXAGON-ROBOTICS/HEXAGON-ROBOTICS-GNSS-DR/GERBER/DR8-B.SilkS.ps
%%Pages: 1
%%PageOrder: Ascend
%%BoundingBox: 0 0 596 842
%%DocumentMedia: A4 595 842 0 () ()
%%Orientation: Landscape
%%EndComments
%%BeginProlog
/line { newpath moveto lineto stroke } bind def
/cir0 { newpath 0 360 arc stroke } bind def
/cir1 { newpath 0 360 arc gsave fill grestore stroke } bind def
/cir2 { newpath 0 360 arc gsave fill grestore stroke } bind def
/arc0 { newpath arc stroke } bind def
/arc1 { newpath 4 index 4 index moveto arc closepath gsave fill
    grestore stroke } bind def
/arc2 { newpath 4 index 4 index moveto arc closepath gsave fill
    grestore stroke } bind def
/poly0 { stroke } bind def
/poly1 { closepath gsave fill grestore stroke } bind def
/poly2 { closepath gsave fill grestore stroke } bind def
/rect0 { rectstroke } bind def
/rect1 { rectfill } bind def
/rect2 { rectfill } bind def
/linemode0 { 0 setlinecap 0 setlinejoin 0 setlinewidth } bind def
/linemode1 { 1 setlinecap 1 setlinejoin } bind def
/dashedline { [200] 100 setdash } bind def
/solidline { [] 0 setdash } bind def
/phantomshow { moveto
    /KicadFont findfont 0.000001 scalefont setfont
    show } bind def
/textshow { gsave
    findfont exch scalefont setfont concat 1 scale 0 0 moveto show
    } bind def
/reencodefont {
  findfont dup length dict begin
  { 1 index /FID ne
    { def }
    { pop pop } ifelse
  } forall
  /Encoding ISOLatin1Encoding def
  currentdict
  end } bind def
/KicadFont /Helvetica reencodefont definefont pop
/KicadFont-Bold /Helvetica-Bold reencodefont definefont pop
/KicadFont-Oblique /Helvetica-Oblique reencodefont definefont pop
/KicadFont-BoldOblique /Helvetica-BoldOblique reencodefont definefont pop
%%EndProlog
%%Page: 1 1
%%BeginPageSetup
gsave
0.0072 0.0072 scale
linemode1
82680 0 translate 90 rotate
39.3701 setlinewidth
%%EndPageSetup
0 0 0 setrgbcolor
0 0 0 setrgbcolor
19.685 setlinewidth
39231 38167 2484.29 cir0
0 0 0 setrgbcolor
36251.9 46939.8 171.026 cir0
0 0 0 setrgbcolor
newpath
37283.5 47719.4 moveto
32480.3 47719.4 lineto
stroke
0 0 0 setrgbcolor
newpath
37283.5 41420.2 moveto
32480.3 41420.2 lineto
stroke
0 0 0 setrgbcolor
newpath
32480.3 41420.2 moveto
32480.3 47719.4 lineto
stroke
0 0 0 setrgbcolor
newpath
37283.5 41420.2 moveto
37283.5 47719.4 lineto
stroke
0 0 0 setrgbcolor
59.0551 setlinewidth
newpath
43807.1 46559.9 moveto
43610.2 46559.9 lineto
stroke
0 0 0 setrgbcolor
newpath
43610.2 46933.9 moveto
43807.1 46933.9 lineto
stroke
0 0 0 setrgbcolor
newpath
43842.5 43607.2 moveto
43645.7 43607.2 lineto
stroke
0 0 0 setrgbcolor
newpath
43645.7 43981.2 moveto
43842.5 43981.2 lineto
stroke
0 0 0 setrgbcolor
newpath
43704.7 44376.9 moveto
43980.3 44376.9 lineto
stroke
0 0 0 setrgbcolor
newpath
43980.3 44849.3 moveto
43704.7 44849.3 lineto
stroke
0 0 0 setrgbcolor
newpath
42208.7 41869 moveto
41933.1 41869 lineto
stroke
0 0 0 setrgbcolor
newpath
41933.1 41396.5 moveto
42208.7 41396.5 lineto
stroke
0 0 0 setrgbcolor
newpath
40763.8 48495 moveto
40763.8 48219.4 lineto
stroke
0 0 0 setrgbcolor
newpath
41236.2 48219.4 moveto
41236.2 48495 lineto
stroke
0 0 0 setrgbcolor
newpath
41578.7 48487.1 moveto
41578.7 48211.5 lineto
stroke
0 0 0 setrgbcolor
newpath
42051.2 48211.5 moveto
42051.2 48487.1 lineto
stroke
0 0 0 setrgbcolor
newpath
39293.3 45727.2 moveto
39293.3 46199.7 lineto
stroke
0 0 0 setrgbcolor
newpath
38604.3 46199.7 moveto
38604.3 45727.2 lineto
stroke
0 0 0 setrgbcolor
newpath
40439 48180 moveto
40439 48652.4 lineto
stroke
0 0 0 setrgbcolor
newpath
39750 48652.4 moveto
39750 48180 lineto
stroke
0 0 0 setrgbcolor
newpath
43326.8 42491 moveto
43444.9 42491 lineto
stroke
0 0 0 setrgbcolor
newpath
43444.9 42491 moveto
43444.9 42609.1 lineto
stroke
0 0 0 setrgbcolor
newpath
44192.9 42136.7 moveto
43326.8 42136.7 lineto
stroke
0 0 0 setrgbcolor
newpath
43326.8 42136.7 moveto
43326.8 42609.1 lineto
stroke
0 0 0 setrgbcolor
newpath
43326.8 42609.1 moveto
44192.9 42609.1 lineto
stroke
0 0 0 setrgbcolor
newpath
44192.9 42609.1 moveto
44192.9 42136.7 lineto
stroke
0 0 0 setrgbcolor
19.685 setlinewidth
newpath
36689.9 40010.7 moveto
36689.9 40502.9 lineto
stroke
0 0 0 setrgbcolor
newpath
37153.5 40008.7 moveto
37153.5 40500.9 lineto
stroke
0 0 0 setrgbcolor
newpath
37153.5 40500.9 moveto
36484.3 40500.9 lineto
stroke
0 0 0 setrgbcolor
newpath
36484.3 40500.9 moveto
36484.3 40008.7 lineto
stroke
0 0 0 setrgbcolor
newpath
36484.3 40008.7 moveto
37153.5 40008.7 lineto
stroke
0 0 0 setrgbcolor
newpath
42980.3 39617.9 moveto
42488.2 39617.9 lineto
stroke
0 0 0 setrgbcolor
newpath
42982.3 40081.6 moveto
42490.2 40081.6 lineto
stroke
0 0 0 setrgbcolor
newpath
42490.2 40081.6 moveto
42490.2 39412.3 lineto
stroke
0 0 0 setrgbcolor
newpath
42490.2 39412.3 moveto
42982.3 39412.3 lineto
stroke
0 0 0 setrgbcolor
newpath
42982.3 39412.3 moveto
42982.3 40081.6 lineto
stroke
0 0 0 setrgbcolor
59.0551 setlinewidth
newpath
36437 39323.7 moveto
36240.2 39323.7 lineto
stroke
0 0 0 setrgbcolor
newpath
36240.2 39737.1 moveto
36437 39737.1 lineto
stroke
0 0 0 setrgbcolor
newpath
42037.4 39920.2 moveto
42037.4 39723.3 lineto
stroke
0 0 0 setrgbcolor
newpath
41624 39723.3 moveto
41624 39920.2 lineto
stroke
0 0 0 setrgbcolor
newpath
44035.4 38998.9 moveto
43759.8 38998.9 lineto
stroke
0 0 0 setrgbcolor
newpath
43759.8 38526.5 moveto
44035.4 38526.5 lineto
stroke
0 0 0 setrgbcolor
newpath
43366.5 40436 moveto
43385.5 40436 lineto
stroke
0 0 0 setrgbcolor
newpath
44468.4 40160 moveto
44468.4 40436 lineto
stroke
0 0 0 setrgbcolor
newpath
44468.4 40436 moveto
44370.4 40436 lineto
stroke
0 0 0 setrgbcolor
newpath
43366.5 40436 moveto
43287.5 40436 lineto
stroke
0 0 0 setrgbcolor
newpath
43287.5 40436 moveto
43287.5 40160 lineto
stroke
0 0 0 setrgbcolor
newpath
45394 45475 moveto
45394 44451.9 lineto
stroke
0 0 0 setrgbcolor
newpath
45394 44451.9 moveto
46417.1 44451.9 lineto
stroke
0 0 0 setrgbcolor
newpath
46417.1 44451.9 moveto
46417.1 45475 lineto
stroke
0 0 0 setrgbcolor
newpath
46417.1 45475 moveto
45394 45475 lineto
stroke
0 0 0 setrgbcolor
newpath
45394 47049.8 moveto
45394 46026.7 lineto
stroke
0 0 0 setrgbcolor
newpath
45394 46026.7 moveto
46417.1 46026.7 lineto
stroke
0 0 0 setrgbcolor
newpath
46417.1 46026.7 moveto
46417.1 47049.8 lineto
stroke
0 0 0 setrgbcolor
newpath
46417.1 47049.8 moveto
45394 47049.8 lineto
stroke
0 0 0 setrgbcolor
newpath
42559.3 49412.5 moveto
43582.4 49412.5 lineto
stroke
0 0 0 setrgbcolor
newpath
43582.4 49412.5 moveto
43582.4 50435.7 lineto
stroke
0 0 0 setrgbcolor
newpath
43582.4 50435.7 moveto
42559.3 50435.7 lineto
stroke
0 0 0 setrgbcolor
newpath
42559.3 50435.7 moveto
42559.3 49412.5 lineto
stroke
0 0 0 setrgbcolor
newpath
39488.4 49412.5 moveto
40511.6 49412.5 lineto
stroke
0 0 0 setrgbcolor
newpath
40511.6 49412.5 moveto
40511.6 50435.7 lineto
stroke
0 0 0 setrgbcolor
newpath
40511.6 50435.7 moveto
39488.4 50435.7 lineto
stroke
0 0 0 setrgbcolor
newpath
39488.4 50435.7 moveto
39488.4 49412.5 lineto
stroke
0 0 0 setrgbcolor
newpath
40984.5 49412.5 moveto
42007.6 49412.5 lineto
stroke
0 0 0 setrgbcolor
newpath
42007.6 49412.5 moveto
42007.6 50435.7 lineto
stroke
0 0 0 setrgbcolor
newpath
42007.6 50435.7 moveto
40984.5 50435.7 lineto
stroke
0 0 0 setrgbcolor
newpath
40984.5 50435.7 moveto
40984.5 49412.5 lineto
stroke
0 0 0 setrgbcolor
newpath
32384.5 40017.1 moveto
32384.5 39269 lineto
stroke
0 0 0 setrgbcolor
newpath
31951.5 40017.1 moveto
31951.5 39269 lineto
stroke
0 0 0 setrgbcolor
newpath
32168 39662.7 moveto
32168 39485.6 lineto
stroke
0 0 0 setrgbcolor
newpath
32069.6 39682.4 moveto
32266.4 39682.4 lineto
stroke
0 0 0 setrgbcolor
newpath
32168 39682.4 moveto
32069.6 39584 lineto
stroke
0 0 0 setrgbcolor
newpath
32069.6 39584 moveto
32266.4 39584 lineto
stroke
0 0 0 setrgbcolor
newpath
32266.4 39584 moveto
32168 39682.4 lineto
stroke
0 0 0 setrgbcolor
newpath
33184.5 40025.1 moveto
33184.5 39277 lineto
stroke
0 0 0 setrgbcolor
newpath
32751.5 40025.1 moveto
32751.5 39277 lineto
stroke
0 0 0 setrgbcolor
newpath
32968 39670.7 moveto
32968 39493.6 lineto
stroke
0 0 0 setrgbcolor
newpath
32869.6 39690.4 moveto
33066.4 39690.4 lineto
stroke
0 0 0 setrgbcolor
newpath
32968 39690.4 moveto
32869.6 39592 lineto
stroke
0 0 0 setrgbcolor
newpath
32869.6 39592 moveto
33066.4 39592 lineto
stroke
0 0 0 setrgbcolor
newpath
33066.4 39592 moveto
32968 39690.4 lineto
stroke
0 0 0 setrgbcolor
newpath
34299.8 40111.5 moveto
34772.2 40111.5 lineto
stroke
0 0 0 setrgbcolor
newpath
34772.2 40800.5 moveto
34299.8 40800.5 lineto
stroke
0 0 0 setrgbcolor
newpath
34347.8 38799.5 moveto
34820.2 38799.5 lineto
stroke
0 0 0 setrgbcolor
newpath
34820.2 39488.5 moveto
34347.8 39488.5 lineto
stroke
0 0 0 setrgbcolor
newpath
35271.7 48491 moveto
35271.7 48766.6 lineto
stroke
0 0 0 setrgbcolor
newpath
34799.2 48766.6 moveto
34799.2 48491 lineto
stroke
0 0 0 setrgbcolor
newpath
40688.6 43073.7 moveto
40988.6 43073.7 lineto
stroke
0 0 0 setrgbcolor
newpath
40838.6 43223.7 moveto
40838.6 42923.7 lineto
stroke
0 0 0 setrgbcolor
newpath
40738.6 42173.7 moveto
42238.6 42173.7 lineto
stroke
0 0 0 setrgbcolor
newpath
40438.6 43673.7 moveto
40438.6 42473.7 lineto
stroke
0 0 0 setrgbcolor
newpath
40738.6 42173.7 moveto
40438.6 42473.7 lineto
stroke
0 0 0 setrgbcolor
newpath
40738.6 43973.7 moveto
42238.6 43973.7 lineto
stroke
0 0 0 setrgbcolor
newpath
40738.6 43973.7 moveto
40438.6 43673.7 lineto
stroke
0 0 0 setrgbcolor
newpath
42138.6 43023.7 moveto
42138.6 43123.7 lineto
stroke
0 0 0 setrgbcolor
newpath
42088.6 43323.7 moveto
42088.6 42823.7 lineto
stroke
0 0 0 setrgbcolor
newpath
42038.6 42723.7 moveto
42038.6 43423.7 lineto
stroke
0 0 0 setrgbcolor
newpath
41988.6 42623.7 moveto
41988.6 43523.7 lineto
stroke
0 0 0 setrgbcolor
newpath
41938.6 43573.7 moveto
41938.6 42573.7 lineto
stroke
0 0 0 setrgbcolor
newpath
41888.6 42523.7 moveto
41888.6 43623.7 lineto
stroke
0 0 0 setrgbcolor
newpath
41838.6 43673.7 moveto
41838.6 42473.7 lineto
stroke
0 0 0 setrgbcolor
newpath
41788.6 43723.7 moveto
41788.6 42423.7 lineto
stroke
0 0 0 setrgbcolor
newpath
42238.6 43973.7 moveto
42238.6 42173.7 lineto
stroke
0 0 0 setrgbcolor
41338.6 43073.7 800 cir0
0 0 0 setrgbcolor
newpath
42120.5 45843.4 moveto
42120.5 45293.4 lineto
stroke
0 0 0 setrgbcolor
newpath
42070.5 45943.4 moveto
42070.5 45243.4 lineto
stroke
0 0 0 setrgbcolor
newpath
42020.5 46093.4 moveto
42020.5 45093.4 lineto
stroke
0 0 0 setrgbcolor
newpath
41970.5 45043.4 moveto
41970.5 46143.4 lineto
stroke
0 0 0 setrgbcolor
newpath
41920.5 46193.4 moveto
41920.5 44993.4 lineto
stroke
0 0 0 setrgbcolor
newpath
41870.5 44943.4 moveto
41870.5 46243.4 lineto
stroke
0 0 0 setrgbcolor
newpath
41820.5 46293.4 moveto
41820.5 44893.4 lineto
stroke
0 0 0 setrgbcolor
newpath
42270.5 46643.4 moveto
40470.5 46643.4 lineto
stroke
0 0 0 setrgbcolor
newpath
40470.5 46643.4 moveto
40170.5 46343.4 lineto
stroke
0 0 0 setrgbcolor
newpath
40170.5 46343.4 moveto
40170.5 44843.4 lineto
stroke
0 0 0 setrgbcolor
newpath
40170.5 44843.4 moveto
40470.5 44543.4 lineto
stroke
0 0 0 setrgbcolor
newpath
40470.5 44543.4 moveto
42270.5 44543.4 lineto
stroke
0 0 0 setrgbcolor
newpath
42270.5 44543.4 moveto
42270.5 46643.4 lineto
stroke
0 0 0 setrgbcolor
newpath
40370.5 45593.4 moveto
40670.5 45593.4 lineto
stroke
0 0 0 setrgbcolor
newpath
40520.5 45743.4 moveto
40520.5 45443.4 lineto
stroke
0 0 0 setrgbcolor
41220.5 45593.4 950 cir0
0 0 0 setrgbcolor
79 setlinewidth
newpath
35590.1 50907.9 moveto
38898.1 50907.9 lineto
stroke
0 0 0 setrgbcolor
newpath
35590.1 50947.9 moveto
38898.1 50947.9 lineto
stroke
0 0 0 setrgbcolor
newpath
38898.1 50947.9 moveto
38898.1 50868.9 lineto
stroke
0 0 0 setrgbcolor
newpath
38898.1 50868.9 moveto
35590.1 50868.9 lineto
stroke
0 0 0 setrgbcolor
newpath
35590.1 50868.9 moveto
35590.1 50947.9 lineto
stroke
0 0 0 setrgbcolor
newpath
35709.1 50947.9 moveto
35709.1 48978.9 lineto
stroke
0 0 0 setrgbcolor
newpath
35709.1 48978.9 moveto
38779.1 48978.9 lineto
stroke
0 0 0 setrgbcolor
newpath
38779.1 48978.9 moveto
38779.1 50947.9 lineto
stroke
0 0 0 setrgbcolor
19.685 setlinewidth
newpath
47007.9 38989.1 moveto
45413.4 38989.1 lineto
stroke
0 0 0 setrgbcolor
newpath
47007.9 38989.1 moveto
47007.9 43221.3 lineto
stroke
0 0 0 setrgbcolor
newpath
47007.9 43221.3 moveto
45413.4 43221.3 lineto
stroke
0 0 0 setrgbcolor
newpath
45413.4 43221.3 moveto
45413.4 38989.1 lineto
stroke
0 0 0 setrgbcolor
59.0551 setlinewidth
newpath
43177.2 45806 moveto
43177.2 45530.4 lineto
stroke
0 0 0 setrgbcolor
newpath
43649.6 45530.4 moveto
43649.6 45806 lineto
stroke
0 0 0 setrgbcolor
0 0 0 setrgbcolor
0 0 0 setrgbcolor
newpath
39420.6 38373.7 moveto
39386.9 38362.5 lineto
39375.6 38351.2 lineto
39364.4 38328.7 lineto
39364.4 38295 lineto
39375.6 38272.5 lineto
39386.9 38261.2 lineto
39409.4 38250 lineto
39499.3 38250 lineto
39499.3 38486.2 lineto
39420.6 38486.2 lineto
39398.1 38475 lineto
39386.9 38463.7 lineto
39375.6 38441.2 lineto
39375.6 38418.7 lineto
39386.9 38396.2 lineto
39398.1 38385 lineto
39420.6 38373.7 lineto
39499.3 38373.7 lineto
stroke
newpath
39296.9 38486.2 moveto
39161.9 38486.2 lineto
stroke
newpath
39229.4 38250 moveto
39229.4 38486.2 lineto
stroke
newpath
38959.4 38250 moveto
39094.4 38250 lineto
stroke
newpath
39026.9 38250 moveto
39026.9 38486.2 lineto
39049.4 38452.5 lineto
39071.9 38430 lineto
39094.4 38418.7 lineto
stroke
0 0 0 setrgbcolor
0 0 0 setrgbcolor
0 0 0 setrgbcolor
newpath
35081.9 45734.1 moveto
35081.9 45542.9 lineto
35070.6 45520.4 lineto
35059.4 45509.2 lineto
35036.9 45497.9 lineto
34991.9 45497.9 lineto
34969.4 45509.2 lineto
34958.1 45520.4 lineto
34946.9 45542.9 lineto
34946.9 45734.1 lineto
stroke
newpath
34845.6 45711.6 moveto
34834.4 45722.9 lineto
34811.9 45734.1 lineto
34755.7 45734.1 lineto
34733.2 45722.9 lineto
34721.9 45711.6 lineto
34710.7 45689.1 lineto
34710.7 45666.6 lineto
34721.9 45632.9 lineto
34856.9 45497.9 lineto
34710.7 45497.9 lineto
stroke
0 0 0 setrgbcolor
39.3701 setlinewidth
0 0 0 setrgbcolor
0 0 0 setrgbcolor
newpath
44387.1 46586.1 moveto
44396.5 46576.7 lineto
44424.6 46567.3 lineto
44443.4 46567.3 lineto
44471.5 46576.7 lineto
44490.3 46595.4 lineto
44499.6 46614.2 lineto
44509 46651.7 lineto
44509 46679.8 lineto
44499.6 46717.3 lineto
44490.3 46736.1 lineto
44471.5 46754.8 lineto
44443.4 46764.2 lineto
44424.6 46764.2 lineto
44396.5 46754.8 lineto
44387.1 46745.4 lineto
stroke
newpath
44199.7 46567.3 moveto
44312.1 46567.3 lineto
stroke
newpath
44255.9 46567.3 moveto
44255.9 46764.2 lineto
44274.7 46736.1 lineto
44293.4 46717.3 lineto
44312.1 46707.9 lineto
stroke
0 0 0 setrgbcolor
0 0 0 setrgbcolor
0 0 0 setrgbcolor
newpath
43154.4 43887 moveto
43163.8 43896.4 lineto
43173.1 43924.5 lineto
43173.1 43943.2 lineto
43163.8 43971.3 lineto
43145 43990.1 lineto
43126.3 43999.5 lineto
43088.8 44008.8 lineto
43060.7 44008.8 lineto
43023.2 43999.5 lineto
43004.4 43990.1 lineto
42985.7 43971.3 lineto
42976.3 43943.2 lineto
42976.3 43924.5 lineto
42985.7 43896.4 lineto
42995 43887 lineto
stroke
newpath
43041.9 43718.3 moveto
43173.1 43718.3 lineto
stroke
newpath
42966.9 43765.1 moveto
43107.5 43812 lineto
43107.5 43690.1 lineto
stroke
0 0 0 setrgbcolor
0 0 0 setrgbcolor
0 0 0 setrgbcolor
newpath
43101.8 44634.1 moveto
43111.2 44643.4 lineto
43120.5 44671.6 lineto
43120.5 44690.3 lineto
43111.2 44718.4 lineto
43092.4 44737.2 lineto
43073.7 44746.6 lineto
43036.2 44755.9 lineto
43008.1 44755.9 lineto
42970.6 44746.6 lineto
42951.8 44737.2 lineto
42933.1 44718.4 lineto
42923.7 44690.3 lineto
42923.7 44671.6 lineto
42933.1 44643.4 lineto
42942.4 44634.1 lineto
stroke
newpath
42923.7 44456 moveto
42923.7 44549.7 lineto
43017.4 44559.1 lineto
43008.1 44549.7 lineto
42998.7 44531 lineto
42998.7 44484.1 lineto
43008.1 44465.3 lineto
43017.4 44456 lineto
43036.2 44446.6 lineto
43083.1 44446.6 lineto
43101.8 44456 lineto
43111.2 44465.3 lineto
43120.5 44484.1 lineto
43120.5 44531 lineto
43111.2 44549.7 lineto
43101.8 44559.1 lineto
stroke
0 0 0 setrgbcolor
59.0551 setlinewidth
0 0 0 setrgbcolor
0 0 0 setrgbcolor
newpath
41190.7 41648.5 moveto
41201.9 41659.8 lineto
41213.2 41693.5 lineto
41213.2 41716 lineto
41201.9 41749.7 lineto
41179.4 41772.2 lineto
41156.9 41783.5 lineto
41111.9 41794.7 lineto
41078.2 41794.7 lineto
41033.2 41783.5 lineto
41010.7 41772.2 lineto
40988.2 41749.7 lineto
40976.9 41716 lineto
40976.9 41693.5 lineto
40988.2 41659.8 lineto
40999.4 41648.5 lineto
stroke
newpath
40976.9 41569.8 moveto
40976.9 41412.3 lineto
41213.2 41513.5 lineto
stroke
0 0 0 setrgbcolor
39.3701 setlinewidth
0 0 0 setrgbcolor
0 0 0 setrgbcolor
newpath
41040.7 49007.3 moveto
41050.1 48998 lineto
41078.2 48988.6 lineto
41096.9 48988.6 lineto
41125 48998 lineto
41143.8 49016.7 lineto
41153.2 49035.5 lineto
41162.5 49073 lineto
41162.5 49101.1 lineto
41153.2 49138.6 lineto
41143.8 49157.3 lineto
41125 49176.1 lineto
41096.9 49185.4 lineto
41078.2 49185.4 lineto
41050.1 49176.1 lineto
41040.7 49166.7 lineto
stroke
newpath
40928.2 49101.1 moveto
40946.9 49110.4 lineto
40956.3 49119.8 lineto
40965.7 49138.6 lineto
40965.7 49147.9 lineto
40956.3 49166.7 lineto
40946.9 49176.1 lineto
40928.2 49185.4 lineto
40890.7 49185.4 lineto
40872 49176.1 lineto
40862.6 49166.7 lineto
40853.2 49147.9 lineto
40853.2 49138.6 lineto
40862.6 49119.8 lineto
40872 49110.4 lineto
40890.7 49101.1 lineto
40928.2 49101.1 lineto
40946.9 49091.7 lineto
40956.3 49082.3 lineto
40965.7 49063.6 lineto
40965.7 49026.1 lineto
40956.3 49007.3 lineto
40946.9 48998 lineto
40928.2 48988.6 lineto
40890.7 48988.6 lineto
40872 48998 lineto
40862.6 49007.3 lineto
40853.2 49026.1 lineto
40853.2 49063.6 lineto
40862.6 49082.3 lineto
40872 49091.7 lineto
40890.7 49101.1 lineto
stroke
0 0 0 setrgbcolor
0 0 0 setrgbcolor
0 0 0 setrgbcolor
newpath
41839.9 48999.5 moveto
41849.3 48990.1 lineto
41877.4 48980.7 lineto
41896.1 48980.7 lineto
41924.3 48990.1 lineto
41943 49008.8 lineto
41952.4 49027.6 lineto
41961.8 49065.1 lineto
41961.8 49093.2 lineto
41952.4 49130.7 lineto
41943 49149.4 lineto
41924.3 49168.2 lineto
41896.1 49177.6 lineto
41877.4 49177.6 lineto
41849.3 49168.2 lineto
41839.9 49158.8 lineto
stroke
newpath
41746.2 48980.7 moveto
41708.7 48980.7 lineto
41689.9 48990.1 lineto
41680.5 48999.5 lineto
41661.8 49027.6 lineto
41652.4 49065.1 lineto
41652.4 49140.1 lineto
41661.8 49158.8 lineto
41671.2 49168.2 lineto
41689.9 49177.6 lineto
41727.4 49177.6 lineto
41746.2 49168.2 lineto
41755.5 49158.8 lineto
41764.9 49140.1 lineto
41764.9 49093.2 lineto
41755.5 49074.5 lineto
41746.2 49065.1 lineto
41727.4 49055.7 lineto
41689.9 49055.7 lineto
41671.2 49065.1 lineto
41661.8 49074.5 lineto
41652.4 49093.2 lineto
stroke
0 0 0 setrgbcolor
0 0 0 setrgbcolor
0 0 0 setrgbcolor
newpath
38988.2 46644 moveto
39066.9 46756.5 lineto
stroke
newpath
39123.2 46644 moveto
39123.2 46880.2 lineto
39033.2 46880.2 lineto
39010.7 46869 lineto
38999.4 46857.7 lineto
38988.2 46835.2 lineto
38988.2 46801.5 lineto
38999.4 46779 lineto
39010.7 46767.7 lineto
39033.2 46756.5 lineto
39123.2 46756.5 lineto
stroke
newpath
38763.2 46644 moveto
38898.2 46644 lineto
stroke
newpath
38830.7 46644 moveto
38830.7 46880.2 lineto
38853.2 46846.5 lineto
38875.7 46824 lineto
38898.2 46812.7 lineto
stroke
0 0 0 setrgbcolor
0 0 0 setrgbcolor
0 0 0 setrgbcolor
newpath
39517.1 48913.8 moveto
39582.7 49007.5 lineto
stroke
newpath
39629.5 48913.8 moveto
39629.5 49110.6 lineto
39554.6 49110.6 lineto
39535.8 49101.3 lineto
39526.4 49091.9 lineto
39517.1 49073.1 lineto
39517.1 49045 lineto
39526.4 49026.3 lineto
39535.8 49016.9 lineto
39554.6 49007.5 lineto
39629.5 49007.5 lineto
stroke
newpath
39442.1 49091.9 moveto
39432.7 49101.3 lineto
39413.9 49110.6 lineto
39367.1 49110.6 lineto
39348.3 49101.3 lineto
39339 49091.9 lineto
39329.6 49073.1 lineto
39329.6 49054.4 lineto
39339 49026.3 lineto
39451.4 48913.8 lineto
39329.6 48913.8 lineto
stroke
0 0 0 setrgbcolor
59.0551 setlinewidth
0 0 0 setrgbcolor
0 0 0 setrgbcolor
newpath
43972.8 43327.3 moveto
43972.8 43136 lineto
43961.6 43113.5 lineto
43950.3 43102.3 lineto
43927.8 43091.1 lineto
43882.8 43091.1 lineto
43860.3 43102.3 lineto
43849.1 43113.5 lineto
43837.8 43136 lineto
43837.8 43327.3 lineto
stroke
newpath
43601.6 43091.1 moveto
43736.6 43091.1 lineto
stroke
newpath
43669.1 43091.1 moveto
43669.1 43327.3 lineto
43691.6 43293.5 lineto
43714.1 43271 lineto
43736.6 43259.8 lineto
stroke
0 0 0 setrgbcolor
39.3701 setlinewidth
0 0 0 setrgbcolor
0 0 0 setrgbcolor
newpath
36146 40355.3 moveto
35988.6 40355.3 lineto
35988.6 40317.8 lineto
35996.1 40295.3 lineto
36011.1 40280.3 lineto
36026.1 40272.8 lineto
36056.1 40265.3 lineto
36078.6 40265.3 lineto
36108.5 40272.8 lineto
36123.5 40280.3 lineto
36138.5 40295.3 lineto
36146 40317.8 lineto
36146 40355.3 lineto
stroke
newpath
36146 40115.3 moveto
36146 40205.3 lineto
stroke
newpath
36146 40160.3 moveto
35988.6 40160.3 lineto
36011.1 40175.3 lineto
36026.1 40190.3 lineto
36033.6 40205.3 lineto
stroke
0 0 0 setrgbcolor
49.2126 setlinewidth
0 0 0 setrgbcolor
0 0 0 setrgbcolor
newpath
36532.9 40701.4 moveto
36336.1 40701.4 lineto
stroke
newpath
36532.9 40588.9 moveto
36420.5 40673.2 lineto
stroke
newpath
36336.1 40588.9 moveto
36448.6 40701.4 lineto
stroke
0 0 0 setrgbcolor
39.3701 setlinewidth
0 0 0 setrgbcolor
0 0 0 setrgbcolor
newpath
37213.1 40678.3 moveto
37213.1 40603.3 lineto
stroke
newpath
37258.1 40693.3 moveto
37100.7 40640.8 lineto
37258.1 40588.3 lineto
stroke
0 0 0 setrgbcolor
0 0 0 setrgbcolor
0 0 0 setrgbcolor
newpath
42450.9 39699.3 moveto
42450.9 39856.8 lineto
42413.4 39856.8 lineto
42390.9 39849.3 lineto
42375.9 39834.3 lineto
42368.4 39819.3 lineto
42360.9 39789.3 lineto
42360.9 39766.8 lineto
42368.4 39736.8 lineto
42375.9 39721.8 lineto
42390.9 39706.8 lineto
42413.4 39699.3 lineto
42450.9 39699.3 lineto
stroke
newpath
42300.9 39841.8 moveto
42293.4 39849.3 lineto
42278.4 39856.8 lineto
42240.9 39856.8 lineto
42225.9 39849.3 lineto
42218.4 39841.8 lineto
42210.9 39826.8 lineto
42210.9 39811.8 lineto
42218.4 39789.3 lineto
42308.4 39699.3 lineto
42210.9 39699.3 lineto
stroke
0 0 0 setrgbcolor
49.2126 setlinewidth
0 0 0 setrgbcolor
0 0 0 setrgbcolor
newpath
42392.8 39282.9 moveto
42392.8 39479.7 lineto
stroke
newpath
42280.3 39282.9 moveto
42364.7 39395.4 lineto
stroke
newpath
42280.3 39479.7 moveto
42392.8 39367.2 lineto
stroke
0 0 0 setrgbcolor
39.3701 setlinewidth
0 0 0 setrgbcolor
0 0 0 setrgbcolor
newpath
42387.7 40088.7 moveto
42312.7 40088.7 lineto
stroke
newpath
42402.7 40043.7 moveto
42350.2 40201.2 lineto
42297.7 40043.7 lineto
stroke
0 0 0 setrgbcolor
0 0 0 setrgbcolor
0 0 0 setrgbcolor
newpath
35888.3 39594.7 moveto
35794.5 39660.3 lineto
stroke
newpath
35888.3 39707.2 moveto
35691.4 39707.2 lineto
35691.4 39632.2 lineto
35700.8 39613.4 lineto
35710.2 39604.1 lineto
35728.9 39594.7 lineto
35757 39594.7 lineto
35775.8 39604.1 lineto
35785.2 39613.4 lineto
35794.5 39632.2 lineto
35794.5 39707.2 lineto
stroke
newpath
35691.4 39529.1 moveto
35691.4 39407.2 lineto
35766.4 39472.8 lineto
35766.4 39444.7 lineto
35775.8 39426 lineto
35785.2 39416.6 lineto
35803.9 39407.2 lineto
35850.8 39407.2 lineto
35869.5 39416.6 lineto
35878.9 39426 lineto
35888.3 39444.7 lineto
35888.3 39501 lineto
35878.9 39519.7 lineto
35869.5 39529.1 lineto
stroke
0 0 0 setrgbcolor
0 0 0 setrgbcolor
0 0 0 setrgbcolor
newpath
41879.3 39185.4 moveto
41944.9 39279.2 lineto
stroke
newpath
41991.8 39185.4 moveto
41991.8 39382.3 lineto
41916.8 39382.3 lineto
41898 39372.9 lineto
41888.6 39363.5 lineto
41879.3 39344.8 lineto
41879.3 39316.7 lineto
41888.6 39297.9 lineto
41898 39288.5 lineto
41916.8 39279.2 lineto
41991.8 39279.2 lineto
stroke
newpath
41710.5 39316.7 moveto
41710.5 39185.4 lineto
stroke
newpath
41757.4 39391.7 moveto
41804.3 39251.1 lineto
41682.4 39251.1 lineto
stroke
0 0 0 setrgbcolor
0 0 0 setrgbcolor
0 0 0 setrgbcolor
newpath
44057.9 38196.5 moveto
44069.2 38185.3 lineto
44102.9 38174.1 lineto
44125.4 38174.1 lineto
44159.2 38185.3 lineto
44181.7 38207.8 lineto
44192.9 38230.3 lineto
44204.2 38275.3 lineto
44204.2 38309 lineto
44192.9 38354 lineto
44181.7 38376.5 lineto
44159.2 38399 lineto
44125.4 38410.3 lineto
44102.9 38410.3 lineto
44069.2 38399 lineto
44057.9 38387.8 lineto
stroke
newpath
43833 38174.1 moveto
43967.9 38174.1 lineto
stroke
newpath
43900.5 38174.1 moveto
43900.5 38410.3 lineto
43923 38376.5 lineto
43945.4 38354 lineto
43967.9 38342.8 lineto
stroke
newpath
43686.7 38410.3 moveto
43664.2 38410.3 lineto
43641.7 38399 lineto
43630.5 38387.8 lineto
43619.2 38365.3 lineto
43608 38320.3 lineto
43608 38264 lineto
43619.2 38219 lineto
43630.5 38196.5 lineto
43641.7 38185.3 lineto
43664.2 38174.1 lineto
43686.7 38174.1 lineto
43709.2 38185.3 lineto
43720.5 38196.5 lineto
43731.7 38219 lineto
43743 38264 lineto
43743 38320.3 lineto
43731.7 38365.3 lineto
43720.5 38387.8 lineto
43709.2 38399 lineto
43686.7 38410.3 lineto
stroke
0 0 0 setrgbcolor
0 0 0 setrgbcolor
0 0 0 setrgbcolor
newpath
43555.5 41134.3 moveto
43555.5 40974.9 lineto
43546.1 40956.2 lineto
43536.7 40946.8 lineto
43518 40937.4 lineto
43480.5 40937.4 lineto
43461.8 40946.8 lineto
43452.4 40956.2 lineto
43443 40974.9 lineto
43443 41134.3 lineto
stroke
newpath
43368 41134.3 moveto
43246.2 41134.3 lineto
43311.8 41059.3 lineto
43283.7 41059.3 lineto
43264.9 41049.9 lineto
43255.5 41040.5 lineto
43246.2 41021.8 lineto
43246.2 40974.9 lineto
43255.5 40956.2 lineto
43264.9 40946.8 lineto
43283.7 40937.4 lineto
43339.9 40937.4 lineto
43358.6 40946.8 lineto
43368 40956.2 lineto
stroke
0 0 0 setrgbcolor
49.2126 setlinewidth
0 0 0 setrgbcolor
0 0 0 setrgbcolor
newpath
46811.8 45330.5 moveto
46821.2 45339.9 lineto
46830.6 45368 lineto
46830.6 45386.7 lineto
46821.2 45414.8 lineto
46802.4 45433.6 lineto
46783.7 45443 lineto
46746.2 45452.3 lineto
46718.1 45452.3 lineto
46680.6 45443 lineto
46661.8 45433.6 lineto
46643.1 45414.8 lineto
46633.7 45386.7 lineto
46633.7 45368 lineto
46643.1 45339.9 lineto
46652.5 45330.5 lineto
stroke
newpath
46774.3 45255.5 moveto
46774.3 45161.7 lineto
stroke
newpath
46830.6 45274.2 moveto
46633.7 45208.6 lineto
46830.6 45143 lineto
stroke
newpath
46830.6 45077.4 moveto
46633.7 45077.4 lineto
46830.6 44964.9 lineto
46633.7 44964.9 lineto
stroke
newpath
46633.7 44833.7 moveto
46633.7 44814.9 lineto
46643.1 44796.2 lineto
46652.5 44786.8 lineto
46671.2 44777.4 lineto
46708.7 44768 lineto
46755.6 44768 lineto
46793.1 44777.4 lineto
46811.8 44786.8 lineto
46821.2 44796.2 lineto
46830.6 44814.9 lineto
46830.6 44833.7 lineto
46821.2 44852.4 lineto
46811.8 44861.8 lineto
46793.1 44871.2 lineto
46755.6 44880.5 lineto
46708.7 44880.5 lineto
46671.2 44871.2 lineto
46652.5 44861.8 lineto
46643.1 44852.4 lineto
46633.7 44833.7 lineto
stroke
newpath
46633.7 44711.8 moveto
46633.7 44599.3 lineto
stroke
newpath
46830.6 44655.6 moveto
46633.7 44655.6 lineto
stroke
newpath
46633.7 44552.5 moveto
46830.6 44421.2 lineto
stroke
newpath
46633.7 44421.2 moveto
46830.6 44552.5 lineto
stroke
0 0 0 setrgbcolor
0 0 0 setrgbcolor
0 0 0 setrgbcolor
newpath
46767.8 46950.7 moveto
46777.2 46960.1 lineto
46786.6 46988.2 lineto
46786.6 47007 lineto
46777.2 47035.1 lineto
46758.4 47053.8 lineto
46739.7 47063.2 lineto
46702.2 47072.6 lineto
46674.1 47072.6 lineto
46636.6 47063.2 lineto
46617.8 47053.8 lineto
46599.1 47035.1 lineto
46589.7 47007 lineto
46589.7 46988.2 lineto
46599.1 46960.1 lineto
46608.5 46950.7 lineto
stroke
newpath
46730.3 46875.7 moveto
46730.3 46782 lineto
stroke
newpath
46786.6 46894.5 moveto
46589.7 46828.9 lineto
46786.6 46763.2 lineto
stroke
newpath
46786.6 46697.6 moveto
46589.7 46697.6 lineto
46786.6 46585.1 lineto
46589.7 46585.1 lineto
stroke
newpath
46589.7 46453.9 moveto
46589.7 46435.2 lineto
46599.1 46416.4 lineto
46608.5 46407 lineto
46627.2 46397.7 lineto
46664.7 46388.3 lineto
46711.6 46388.3 lineto
46749.1 46397.7 lineto
46767.8 46407 lineto
46777.2 46416.4 lineto
46786.6 46435.2 lineto
46786.6 46453.9 lineto
46777.2 46472.7 lineto
46767.8 46482 lineto
46749.1 46491.4 lineto
46711.6 46500.8 lineto
46664.7 46500.8 lineto
46627.2 46491.4 lineto
46608.5 46482 lineto
46599.1 46472.7 lineto
46589.7 46453.9 lineto
stroke
newpath
46786.6 46191.4 moveto
46692.8 46257.1 lineto
stroke
newpath
46786.6 46303.9 moveto
46589.7 46303.9 lineto
46589.7 46228.9 lineto
46599.1 46210.2 lineto
46608.5 46200.8 lineto
46627.2 46191.4 lineto
46655.3 46191.4 lineto
46674.1 46200.8 lineto
46683.5 46210.2 lineto
46692.8 46228.9 lineto
46692.8 46303.9 lineto
stroke
newpath
46589.7 46125.8 moveto
46786.6 45994.6 lineto
stroke
newpath
46589.7 45994.6 moveto
46786.6 46125.8 lineto
stroke
0 0 0 setrgbcolor
0 0 0 setrgbcolor
0 0 0 setrgbcolor
newpath
43332.1 50597.4 moveto
43467.1 50597.4 lineto
stroke
newpath
43399.6 50597.4 moveto
43399.6 50833.6 lineto
43422.1 50799.9 lineto
43444.6 50777.4 lineto
43467.1 50766.1 lineto
stroke
newpath
43230.8 50597.4 moveto
43230.8 50833.6 lineto
43140.9 50833.6 lineto
43118.4 50822.4 lineto
43107.1 50811.1 lineto
43095.9 50788.6 lineto
43095.9 50754.9 lineto
43107.1 50732.4 lineto
43118.4 50721.1 lineto
43140.9 50709.9 lineto
43230.8 50709.9 lineto
stroke
newpath
42994.6 50597.4 moveto
42994.6 50833.6 lineto
42904.6 50833.6 lineto
42882.1 50822.4 lineto
42870.9 50811.1 lineto
42859.6 50788.6 lineto
42859.6 50754.9 lineto
42870.9 50732.4 lineto
42882.1 50721.1 lineto
42904.6 50709.9 lineto
42994.6 50709.9 lineto
stroke
newpath
42769.7 50608.6 moveto
42735.9 50597.4 lineto
42679.7 50597.4 lineto
42657.2 50608.6 lineto
42645.9 50619.9 lineto
42634.7 50642.4 lineto
42634.7 50664.9 lineto
42645.9 50687.4 lineto
42657.2 50698.6 lineto
42679.7 50709.9 lineto
42724.7 50721.1 lineto
42747.2 50732.4 lineto
42758.4 50743.6 lineto
42769.7 50766.1 lineto
42769.7 50788.6 lineto
42758.4 50811.1 lineto
42747.2 50822.4 lineto
42724.7 50833.6 lineto
42668.4 50833.6 lineto
42634.7 50822.4 lineto
stroke
0 0 0 setrgbcolor
0 0 0 setrgbcolor
0 0 0 setrgbcolor
newpath
40292.5 50840.9 moveto
40157.5 50840.9 lineto
stroke
newpath
40225 50604.6 moveto
40225 50840.9 lineto
stroke
newpath
40101.2 50840.9 moveto
39943.8 50604.6 lineto
stroke
newpath
39943.8 50840.9 moveto
40101.2 50604.6 lineto
stroke
newpath
39865 50818.4 moveto
39853.8 50829.6 lineto
39831.3 50840.9 lineto
39775 50840.9 lineto
39752.5 50829.6 lineto
39741.3 50818.4 lineto
39730 50795.9 lineto
39730 50773.4 lineto
39741.3 50739.6 lineto
39876.3 50604.6 lineto
39730 50604.6 lineto
stroke
0 0 0 setrgbcolor
0 0 0 setrgbcolor
0 0 0 setrgbcolor
newpath
41647.9 50604.6 moveto
41726.7 50717.1 lineto
stroke
newpath
41782.9 50604.6 moveto
41782.9 50840.9 lineto
41692.9 50840.9 lineto
41670.4 50829.6 lineto
41659.2 50818.4 lineto
41647.9 50795.9 lineto
41647.9 50762.1 lineto
41659.2 50739.6 lineto
41670.4 50728.4 lineto
41692.9 50717.1 lineto
41782.9 50717.1 lineto
stroke
newpath
41569.2 50840.9 moveto
41411.7 50604.6 lineto
stroke
newpath
41411.7 50840.9 moveto
41569.2 50604.6 lineto
stroke
newpath
41333 50818.4 moveto
41321.7 50829.6 lineto
41299.2 50840.9 lineto
41243 50840.9 lineto
41220.5 50829.6 lineto
41209.2 50818.4 lineto
41198 50795.9 lineto
41198 50773.4 lineto
41209.2 50739.6 lineto
41344.2 50604.6 lineto
41198 50604.6 lineto
stroke
0 0 0 setrgbcolor
39.3701 setlinewidth
0 0 0 setrgbcolor
0 0 0 setrgbcolor
newpath
32249.1 38937.3 moveto
32052.2 38937.3 lineto
32052.2 38890.4 lineto
32061.6 38862.3 lineto
32080.3 38843.6 lineto
32099.1 38834.2 lineto
32136.6 38824.8 lineto
32164.7 38824.8 lineto
32202.2 38834.2 lineto
32220.9 38843.6 lineto
32239.7 38862.3 lineto
32249.1 38890.4 lineto
32249.1 38937.3 lineto
stroke
newpath
32052.2 38759.2 moveto
32052.2 38637.3 lineto
32127.2 38702.9 lineto
32127.2 38674.8 lineto
32136.6 38656.1 lineto
32145.9 38646.7 lineto
32164.7 38637.3 lineto
32211.6 38637.3 lineto
32230.3 38646.7 lineto
32239.7 38656.1 lineto
32249.1 38674.8 lineto
32249.1 38731.1 lineto
32239.7 38749.8 lineto
32230.3 38759.2 lineto
stroke
0 0 0 setrgbcolor
0 0 0 setrgbcolor
0 0 0 setrgbcolor
newpath
32265.1 41142.6 moveto
32068.2 41142.6 lineto
32068.2 41067.6 lineto
32077.6 41048.9 lineto
32086.9 41039.5 lineto
32105.7 41030.1 lineto
32133.8 41030.1 lineto
32152.6 41039.5 lineto
32161.9 41048.9 lineto
32171.3 41067.6 lineto
32171.3 41142.6 lineto
stroke
newpath
32068.2 40908.3 moveto
32068.2 40870.8 lineto
32077.6 40852 lineto
32096.3 40833.3 lineto
32133.8 40823.9 lineto
32199.4 40823.9 lineto
32236.9 40833.3 lineto
32255.7 40852 lineto
32265.1 40870.8 lineto
32265.1 40908.3 lineto
32255.7 40927 lineto
32236.9 40945.8 lineto
32199.4 40955.2 lineto
32133.8 40955.2 lineto
32096.3 40945.8 lineto
32077.6 40927 lineto
32068.2 40908.3 lineto
stroke
newpath
32068.2 40758.3 moveto
32265.1 40711.4 lineto
32124.4 40673.9 lineto
32265.1 40636.4 lineto
32068.2 40589.6 lineto
stroke
newpath
32161.9 40514.6 moveto
32161.9 40449 lineto
stroke
newpath
32265.1 40420.8 moveto
32265.1 40514.6 lineto
32068.2 40514.6 lineto
32068.2 40420.8 lineto
stroke
newpath
32265.1 40224 moveto
32171.3 40289.6 lineto
stroke
newpath
32265.1 40336.5 moveto
32068.2 40336.5 lineto
32068.2 40261.5 lineto
32077.6 40242.7 lineto
32086.9 40233.4 lineto
32105.7 40224 lineto
32133.8 40224 lineto
32152.6 40233.4 lineto
32161.9 40242.7 lineto
32171.3 40261.5 lineto
32171.3 40336.5 lineto
stroke
0 0 0 setrgbcolor
0 0 0 setrgbcolor
0 0 0 setrgbcolor
newpath
33049.1 38945.3 moveto
32852.2 38945.3 lineto
32852.2 38898.4 lineto
32861.6 38870.3 lineto
32880.3 38851.6 lineto
32899.1 38842.2 lineto
32936.6 38832.8 lineto
32964.7 38832.8 lineto
33002.2 38842.2 lineto
33020.9 38851.6 lineto
33039.7 38870.3 lineto
33049.1 38898.4 lineto
33049.1 38945.3 lineto
stroke
newpath
32917.8 38664.1 moveto
33049.1 38664.1 lineto
stroke
newpath
32842.8 38710.9 moveto
32983.4 38757.8 lineto
32983.4 38636 lineto
stroke
0 0 0 setrgbcolor
0 0 0 setrgbcolor
0 0 0 setrgbcolor
newpath
32885.6 40628.6 moveto
32876.2 40647.4 lineto
32876.2 40675.5 lineto
32885.6 40703.6 lineto
32904.3 40722.3 lineto
32923.1 40731.7 lineto
32960.6 40741.1 lineto
32988.7 40741.1 lineto
33026.2 40731.7 lineto
33044.9 40722.3 lineto
33063.7 40703.6 lineto
33073.1 40675.5 lineto
33073.1 40656.7 lineto
33063.7 40628.6 lineto
33054.3 40619.2 lineto
32988.7 40619.2 lineto
32988.7 40656.7 lineto
stroke
newpath
33073.1 40534.9 moveto
32876.2 40534.9 lineto
32876.2 40459.9 lineto
32885.6 40441.1 lineto
32894.9 40431.8 lineto
32913.7 40422.4 lineto
32941.8 40422.4 lineto
32960.6 40431.8 lineto
32969.9 40441.1 lineto
32979.3 40459.9 lineto
32979.3 40534.9 lineto
stroke
newpath
33063.7 40347.4 moveto
33073.1 40319.3 lineto
33073.1 40272.4 lineto
33063.7 40253.7 lineto
33054.3 40244.3 lineto
33035.6 40234.9 lineto
33016.8 40234.9 lineto
32998.1 40244.3 lineto
32988.7 40253.7 lineto
32979.3 40272.4 lineto
32969.9 40309.9 lineto
32960.6 40328.6 lineto
32951.2 40338 lineto
32932.4 40347.4 lineto
32913.7 40347.4 lineto
32894.9 40338 lineto
32885.6 40328.6 lineto
32876.2 40309.9 lineto
32876.2 40263 lineto
32885.6 40234.9 lineto
stroke
0 0 0 setrgbcolor
0 0 0 setrgbcolor
0 0 0 setrgbcolor
newpath
34579.8 40953.9 moveto
34645.4 41047.7 lineto
stroke
newpath
34692.3 40953.9 moveto
34692.3 41150.8 lineto
34617.3 41150.8 lineto
34598.6 41141.4 lineto
34589.2 41132.1 lineto
34579.8 41113.3 lineto
34579.8 41085.2 lineto
34589.2 41066.4 lineto
34598.6 41057.1 lineto
34617.3 41047.7 lineto
34692.3 41047.7 lineto
stroke
newpath
34401.7 41150.8 moveto
34495.4 41150.8 lineto
34504.8 41057.1 lineto
34495.4 41066.4 lineto
34476.7 41075.8 lineto
34429.8 41075.8 lineto
34411.1 41066.4 lineto
34401.7 41057.1 lineto
34392.3 41038.3 lineto
34392.3 40991.4 lineto
34401.7 40972.7 lineto
34411.1 40963.3 lineto
34429.8 40953.9 lineto
34476.7 40953.9 lineto
34495.4 40963.3 lineto
34504.8 40972.7 lineto
stroke
0 0 0 setrgbcolor
0 0 0 setrgbcolor
0 0 0 setrgbcolor
newpath
34624.8 39643.9 moveto
34690.4 39737.7 lineto
stroke
newpath
34737.3 39643.9 moveto
34737.3 39840.8 lineto
34662.3 39840.8 lineto
34643.6 39831.4 lineto
34634.2 39822.1 lineto
34624.8 39803.3 lineto
34624.8 39775.2 lineto
34634.2 39756.4 lineto
34643.6 39747.1 lineto
34662.3 39737.7 lineto
34737.3 39737.7 lineto
stroke
newpath
34456.1 39840.8 moveto
34493.6 39840.8 lineto
34512.3 39831.4 lineto
34521.7 39822.1 lineto
34540.4 39793.9 lineto
34549.8 39756.4 lineto
34549.8 39681.4 lineto
34540.4 39662.7 lineto
34531.1 39653.3 lineto
34512.3 39643.9 lineto
34474.8 39643.9 lineto
34456.1 39653.3 lineto
34446.7 39662.7 lineto
34437.3 39681.4 lineto
34437.3 39728.3 lineto
34446.7 39747.1 lineto
34456.1 39756.4 lineto
34474.8 39765.8 lineto
34512.3 39765.8 lineto
34531.1 39756.4 lineto
34540.4 39747.1 lineto
34549.8 39728.3 lineto
stroke
0 0 0 setrgbcolor
0 0 0 setrgbcolor
0 0 0 setrgbcolor
newpath
34682.8 48628.8 moveto
34694 48640.1 lineto
34705.3 48673.8 lineto
34705.3 48696.3 lineto
34694 48730.1 lineto
34671.5 48752.6 lineto
34649 48763.8 lineto
34604 48775.1 lineto
34570.3 48775.1 lineto
34525.3 48763.8 lineto
34502.8 48752.6 lineto
34480.3 48730.1 lineto
34469.1 48696.3 lineto
34469.1 48673.8 lineto
34480.3 48640.1 lineto
34491.6 48628.8 lineto
stroke
newpath
34469.1 48426.3 moveto
34469.1 48471.3 lineto
34480.3 48493.8 lineto
34491.6 48505.1 lineto
34525.3 48527.6 lineto
34570.3 48538.8 lineto
34660.3 48538.8 lineto
34682.8 48527.6 lineto
34694 48516.3 lineto
34705.3 48493.8 lineto
34705.3 48448.8 lineto
34694 48426.3 lineto
34682.8 48415.1 lineto
34660.3 48403.8 lineto
34604 48403.8 lineto
34581.6 48415.1 lineto
34570.3 48426.3 lineto
34559.1 48448.8 lineto
34559.1 48493.8 lineto
34570.3 48516.3 lineto
34581.6 48527.6 lineto
34604 48538.8 lineto
stroke
0 0 0 setrgbcolor
0 0 0 setrgbcolor
0 0 0 setrgbcolor
newpath
40304.5 43818.4 moveto
40313.8 43809 lineto
40342 43799.6 lineto
40360.7 43799.6 lineto
40388.8 43809 lineto
40407.6 43827.7 lineto
40416.9 43846.5 lineto
40426.3 43884 lineto
40426.3 43912.1 lineto
40416.9 43949.6 lineto
40407.6 43968.3 lineto
40388.8 43987.1 lineto
40360.7 43996.5 lineto
40342 43996.5 lineto
40313.8 43987.1 lineto
40304.5 43977.7 lineto
stroke
newpath
40229.5 43977.7 moveto
40220.1 43987.1 lineto
40201.3 43996.5 lineto
40154.5 43996.5 lineto
40135.7 43987.1 lineto
40126.4 43977.7 lineto
40117 43959 lineto
40117 43940.2 lineto
40126.4 43912.1 lineto
40238.8 43799.6 lineto
40117 43799.6 lineto
stroke
0 0 0 setrgbcolor
0 0 0 setrgbcolor
0 0 0 setrgbcolor
newpath
42629.4 46444.3 moveto
42638.7 46453.7 lineto
42648.1 46481.8 lineto
42648.1 46500.6 lineto
42638.7 46528.7 lineto
42620 46547.5 lineto
42601.2 46556.8 lineto
42563.7 46566.2 lineto
42535.6 46566.2 lineto
42498.1 46556.8 lineto
42479.4 46547.5 lineto
42460.6 46528.7 lineto
42451.3 46500.6 lineto
42451.3 46481.8 lineto
42460.6 46453.7 lineto
42470 46444.3 lineto
stroke
newpath
42648.1 46256.9 moveto
42648.1 46369.4 lineto
stroke
newpath
42648.1 46313.1 moveto
42451.3 46313.1 lineto
42479.4 46331.9 lineto
42498.1 46350.6 lineto
42507.5 46369.4 lineto
stroke
newpath
42648.1 46069.4 moveto
42648.1 46181.9 lineto
stroke
newpath
42648.1 46125.6 moveto
42451.3 46125.6 lineto
42479.4 46144.4 lineto
42498.1 46163.1 lineto
42507.5 46181.9 lineto
stroke
0 0 0 setrgbcolor
39 setlinewidth
0 0 0 setrgbcolor
0 0 0 setrgbcolor
newpath
36278.3 48480.8 moveto
36278.3 48677.8 lineto
36203.3 48677.8 lineto
36184.5 48668.4 lineto
36175.1 48659.1 lineto
36165.7 48640.3 lineto
36165.7 48612.2 lineto
36175.1 48593.4 lineto
36184.5 48584 lineto
36203.3 48574.6 lineto
36278.3 48574.6 lineto
stroke
newpath
35978.1 48480.8 moveto
36090.7 48480.8 lineto
stroke
newpath
36034.4 48480.8 moveto
36034.4 48677.8 lineto
36053.2 48649.7 lineto
36071.9 48630.9 lineto
36090.7 48621.5 lineto
stroke
newpath
35903.1 48659.1 moveto
35893.7 48668.4 lineto
35874.9 48677.8 lineto
35828 48677.8 lineto
35809.3 48668.4 lineto
35799.9 48659.1 lineto
35790.5 48640.3 lineto
35790.5 48621.5 lineto
35799.9 48593.4 lineto
35912.5 48480.8 lineto
35790.5 48480.8 lineto
stroke
0 0 0 setrgbcolor
49.2126 setlinewidth
0 0 0 setrgbcolor
0 0 0 setrgbcolor
newpath
45226.8 43178.9 moveto
45030 43178.9 lineto
45030 43103.9 lineto
45039.4 43085.1 lineto
45048.7 43075.8 lineto
45067.5 43066.4 lineto
45095.6 43066.4 lineto
45114.4 43075.8 lineto
45123.7 43085.1 lineto
45133.1 43103.9 lineto
45133.1 43178.9 lineto
stroke
newpath
45226.8 42878.9 moveto
45226.8 42991.4 lineto
stroke
newpath
45226.8 42935.2 moveto
45030 42935.2 lineto
45058.1 42953.9 lineto
45076.9 42972.7 lineto
45086.2 42991.4 lineto
stroke
newpath
45030 42813.3 moveto
45030 42691.4 lineto
45105 42757.1 lineto
45105 42728.9 lineto
45114.4 42710.2 lineto
45123.7 42700.8 lineto
45142.5 42691.4 lineto
45189.4 42691.4 lineto
45208.1 42700.8 lineto
45217.5 42710.2 lineto
45226.8 42728.9 lineto
45226.8 42785.2 lineto
45217.5 42803.9 lineto
45208.1 42813.3 lineto
stroke
0 0 0 setrgbcolor
39.3701 setlinewidth
0 0 0 setrgbcolor
0 0 0 setrgbcolor
newpath
42970.2 45820.4 moveto
42970.2 45886 lineto
stroke
newpath
43073.3 45886 moveto
42876.5 45886 lineto
42876.5 45792.3 lineto
stroke
newpath
42970.2 45651.7 moveto
42979.6 45623.6 lineto
42988.9 45614.2 lineto
43007.7 45604.8 lineto
43035.8 45604.8 lineto
43054.6 45614.2 lineto
43063.9 45623.6 lineto
43073.3 45642.3 lineto
43073.3 45717.3 lineto
42876.5 45717.3 lineto
42876.5 45651.7 lineto
42885.8 45632.9 lineto
42895.2 45623.6 lineto
42913.9 45614.2 lineto
42932.7 45614.2 lineto
42951.4 45623.6 lineto
42960.8 45632.9 lineto
42970.2 45651.7 lineto
42970.2 45717.3 lineto
stroke
newpath
43073.3 45417.3 moveto
43073.3 45529.8 lineto
stroke
newpath
43073.3 45473.6 moveto
42876.5 45473.6 lineto
42904.6 45492.3 lineto
42923.3 45511.1 lineto
42932.7 45529.8 lineto
stroke
showpage
grestore
%%EOF
