%!PS-Adobe-3.0
%%Creator: PCBNEW
%%CreationDate: Thu Feb 25 18:48:39 2016
%%Title: /home/ubuntu/HEXAGON-ROBOTICS/HEXAGON-ROBOTICS-GNSS-DR/GERBER/DR8-F.Cu.ps
%%Pages: 1
%%PageOrder: Ascend
%%BoundingBox: 0 0 596 842
%%DocumentMedia: A4 595 842 0 () ()
%%Orientation: Landscape
%%EndComments
%%BeginProlog
/line { newpath moveto lineto stroke } bind def
/cir0 { newpath 0 360 arc stroke } bind def
/cir1 { newpath 0 360 arc gsave fill grestore stroke } bind def
/cir2 { newpath 0 360 arc gsave fill grestore stroke } bind def
/arc0 { newpath arc stroke } bind def
/arc1 { newpath 4 index 4 index moveto arc closepath gsave fill
    grestore stroke } bind def
/arc2 { newpath 4 index 4 index moveto arc closepath gsave fill
    grestore stroke } bind def
/poly0 { stroke } bind def
/poly1 { closepath gsave fill grestore stroke } bind def
/poly2 { closepath gsave fill grestore stroke } bind def
/rect0 { rectstroke } bind def
/rect1 { rectfill } bind def
/rect2 { rectfill } bind def
/linemode0 { 0 setlinecap 0 setlinejoin 0 setlinewidth } bind def
/linemode1 { 1 setlinecap 1 setlinejoin } bind def
/dashedline { [200] 100 setdash } bind def
/solidline { [] 0 setdash } bind def
/phantomshow { moveto
    /KicadFont findfont 0.000001 scalefont setfont
    show } bind def
/textshow { gsave
    findfont exch scalefont setfont concat 1 scale 0 0 moveto show
    } bind def
/reencodefont {
  findfont dup length dict begin
  { 1 index /FID ne
    { def }
    { pop pop } ifelse
  } forall
  /Encoding ISOLatin1Encoding def
  currentdict
  end } bind def
/KicadFont /Helvetica reencodefont definefont pop
/KicadFont-Bold /Helvetica-Bold reencodefont definefont pop
/KicadFont-Oblique /Helvetica-Oblique reencodefont definefont pop
/KicadFont-BoldOblique /Helvetica-BoldOblique reencodefont definefont pop
%%EndProlog
%%Page: 1 1
%%BeginPageSetup
gsave
0.0072 0.0072 scale
linemode1
82680 0 translate 90 rotate
39.3701 setlinewidth
%%EndPageSetup
0 0 0 setrgbcolor
0 0 0 setrgbcolor
0 setlinewidth
38390.7 43305 236.22 cir1
39.3701 setlinewidth
0 0 0 setrgbcolor
0 setlinewidth
newpath
46305.5 40469 moveto
45505.5 40469 lineto
45505.5 41269 lineto
46305.5 41269 lineto
46305.5 40469 lineto
poly1
0 0 0 setrgbcolor
newpath
45485 46120 moveto
46285 46120 lineto
46285 45320 lineto
45485 45320 lineto
45485 46120 lineto
poly1
0 0 0 setrgbcolor
newpath
46305.5 42043.8 moveto
45505.5 42043.8 lineto
45505.5 42843.8 lineto
46305.5 42843.8 lineto
46305.5 42043.8 lineto
poly1
0 0 0 setrgbcolor
newpath
46274.8 46900 moveto
45474.8 46900 lineto
45474.8 47700 lineto
46274.8 47700 lineto
46274.8 46900 lineto
poly1
0 0 0 setrgbcolor
newpath
46285 43675 moveto
45485 43675 lineto
45485 44475 lineto
46285 44475 lineto
46285 43675 lineto
poly1
0 0 0 setrgbcolor
newpath
46305.5 38894.2 moveto
45505.5 38894.2 lineto
45505.5 39694.2 lineto
46305.5 39694.2 lineto
46305.5 38894.2 lineto
poly1
0 0 0 setrgbcolor
42165.4 37541.8 177.165 cir1
39.3701 setlinewidth
0 0 0 setrgbcolor
0 setlinewidth
39641.7 48345.7 177.165 cir1
39.3701 setlinewidth
0 0 0 setrgbcolor
0 setlinewidth
38086.6 48443.8 177.165 cir1
39.3701 setlinewidth
0 0 0 setrgbcolor
0 setlinewidth
37905.5 42676.1 177.165 cir1
39.3701 setlinewidth
0 0 0 setrgbcolor
0 setlinewidth
32334.6 41148.5 177.165 cir1
39.3701 setlinewidth
0 0 0 setrgbcolor
0 setlinewidth
37937 41833.5 177.165 cir1
39.3701 setlinewidth
0 0 0 setrgbcolor
0 setlinewidth
42063 44262.7 177.165 cir1
39.3701 setlinewidth
0 0 0 setrgbcolor
0 setlinewidth
35039.4 49534.3 177.165 cir1
39.3701 setlinewidth
0 0 0 setrgbcolor
0 setlinewidth
32515.7 47829.6 177.165 cir1
39.3701 setlinewidth
0 0 0 setrgbcolor
0 setlinewidth
40259.8 44286.3 177.165 cir1
39.3701 setlinewidth
0 0 0 setrgbcolor
0 setlinewidth
39633.9 44699.7 177.165 cir1
39.3701 setlinewidth
0 0 0 setrgbcolor
0 setlinewidth
42322.8 40231.2 177.165 cir1
39.3701 setlinewidth
0 0 0 setrgbcolor
0 setlinewidth
42295.3 40907.6 177.165 cir1
39.3701 setlinewidth
0 0 0 setrgbcolor
0 setlinewidth
41244.1 47755.8 118.11 cir1
39.3701 setlinewidth
0 0 0 setrgbcolor
0 setlinewidth
39531 46491 118.11 cir1
39.3701 setlinewidth
0 0 0 setrgbcolor
0 setlinewidth
44785.2 38521.5 118.11 cir1
39.3701 setlinewidth
0 0 0 setrgbcolor
0 setlinewidth
33437 41128.8 118.11 cir1
39.3701 setlinewidth
0 0 0 setrgbcolor
0 setlinewidth
33433.1 43113.1 118.11 cir1
39.3701 setlinewidth
0 0 0 setrgbcolor
0 setlinewidth
44697 38820.9 118.11 cir1
39.3701 setlinewidth
0 0 0 setrgbcolor
0 setlinewidth
33770.7 41227.3 118.11 cir1
39.3701 setlinewidth
0 0 0 setrgbcolor
0 setlinewidth
33728.3 43109.1 118.11 cir1
39.3701 setlinewidth
0 0 0 setrgbcolor
0 setlinewidth
46740.2 42479.2 118.11 cir1
39.3701 setlinewidth
0 0 0 setrgbcolor
0 setlinewidth
46815 43723.3 118.11 cir1
39.3701 setlinewidth
0 0 0 setrgbcolor
0 setlinewidth
38730.3 46676.1 118.11 cir1
39.3701 setlinewidth
0 0 0 setrgbcolor
0 setlinewidth
42023.6 47380.8 118.11 cir1
39.3701 setlinewidth
0 0 0 setrgbcolor
0 setlinewidth
44720.3 40858.4 118.11 cir1
39.3701 setlinewidth
0 0 0 setrgbcolor
0 setlinewidth
44711.2 40386.9 118.11 cir1
39.3701 setlinewidth
0 0 0 setrgbcolor
0 setlinewidth
39326.8 49798.1 118.11 cir1
39.3701 setlinewidth
0 0 0 setrgbcolor
0 setlinewidth
35291.3 43695.7 118.11 cir1
39.3701 setlinewidth
0 0 0 setrgbcolor
0 setlinewidth
42358.3 48022.5 118.11 cir1
39.3701 setlinewidth
0 0 0 setrgbcolor
0 setlinewidth
42433.1 47250.9 118.11 cir1
39.3701 setlinewidth
0 0 0 setrgbcolor
0 setlinewidth
40767.7 50046.1 118.11 cir1
39.3701 setlinewidth
0 0 0 setrgbcolor
0 setlinewidth
35063 43904.4 118.11 cir1
39.3701 setlinewidth
0 0 0 setrgbcolor
0 setlinewidth
42232.3 46746.9 118.11 cir1
39.3701 setlinewidth
0 0 0 setrgbcolor
0 setlinewidth
40968.5 46715.4 118.11 cir1
39.3701 setlinewidth
0 0 0 setrgbcolor
0 setlinewidth
41929.1 46932 118.11 cir1
39.3701 setlinewidth
0 0 0 setrgbcolor
0 setlinewidth
40817 46991.4 118.11 cir1
39.3701 setlinewidth
0 0 0 setrgbcolor
0 setlinewidth
41315 39613.1 177.165 cir1
39.3701 setlinewidth
0 0 0 setrgbcolor
0 setlinewidth
39480.3 42243 177.165 cir1
39.3701 setlinewidth
0 0 0 setrgbcolor
0 setlinewidth
40228.3 42246.9 177.165 cir1
39.3701 setlinewidth
0 0 0 setrgbcolor
0 setlinewidth
44192.9 39278.4 177.165 cir1
39.3701 setlinewidth
0 0 0 setrgbcolor
0 setlinewidth
35212.6 39876.9 177.165 cir1
39.3701 setlinewidth
0 0 0 setrgbcolor
0 setlinewidth
44357.6 40287.1 177.165 cir1
39.3701 setlinewidth
0 0 0 setrgbcolor
0 setlinewidth
33488.2 38888.7 177.165 cir1
39.3701 setlinewidth
0 0 0 setrgbcolor
0 setlinewidth
33507.9 39841.4 177.165 cir1
39.3701 setlinewidth
0 0 0 setrgbcolor
0 setlinewidth
39103.6 46676.1 118.11 cir1
39.3701 setlinewidth
0 0 0 setrgbcolor
0 setlinewidth
37098.4 48211.5 118.11 cir1
39.3701 setlinewidth
0 0 0 setrgbcolor
196.85 setlinewidth
newpath
38086.6 48443.8 moveto
38487.8 48042.6 lineto
stroke
0 0 0 setrgbcolor
newpath
39589.9 48042.6 moveto
39589.9 48293.9 lineto
stroke
0 0 0 setrgbcolor
newpath
39589.9 48293.9 moveto
39641.7 48345.7 lineto
stroke
0 0 0 setrgbcolor
newpath
38487.8 48042.6 moveto
39589.9 48042.6 lineto
stroke
0 0 0 setrgbcolor
newpath
39633.9 44699.7 moveto
39846.5 44699.7 lineto
stroke
0 0 0 setrgbcolor
newpath
39846.5 44699.7 moveto
40259.8 44286.3 lineto
stroke
0 0 0 setrgbcolor
newpath
42295.3 40907.6 moveto
42295.3 40258.7 lineto
stroke
0 0 0 setrgbcolor
newpath
42295.3 40258.7 moveto
42322.8 40231.2 lineto
stroke
0 0 0 setrgbcolor
78.7402 setlinewidth
newpath
39531 46491 moveto
40795.8 47755.8 lineto
stroke
0 0 0 setrgbcolor
newpath
41077.1 47755.8 moveto
41244.1 47755.8 lineto
stroke
0 0 0 setrgbcolor
newpath
40795.8 47755.8 moveto
41077.1 47755.8 lineto
stroke
0 0 0 setrgbcolor
newpath
45905.5 40869 moveto
45905.5 40390.2 lineto
stroke
0 0 0 setrgbcolor
newpath
45905.5 40390.2 moveto
46550.8 39745 lineto
stroke
0 0 0 setrgbcolor
newpath
46550.8 39745 moveto
46550.8 38868.8 lineto
stroke
0 0 0 setrgbcolor
newpath
46550.8 38868.8 moveto
46203.4 38521.5 lineto
stroke
0 0 0 setrgbcolor
newpath
46203.4 38521.5 moveto
44952.2 38521.5 lineto
stroke
0 0 0 setrgbcolor
newpath
44952.2 38521.5 moveto
44785.2 38521.5 lineto
stroke
0 0 0 setrgbcolor
newpath
33433.1 41132.8 moveto
33437 41128.8 lineto
stroke
0 0 0 setrgbcolor
newpath
33433.1 43113.1 moveto
33433.1 41132.8 lineto
stroke
0 0 0 setrgbcolor
newpath
44815.1 38939 moveto
44697 38820.9 lineto
stroke
0 0 0 setrgbcolor
newpath
45170.2 39294.2 moveto
44815.1 38939 lineto
stroke
0 0 0 setrgbcolor
newpath
45905.5 39294.2 moveto
45170.2 39294.2 lineto
stroke
0 0 0 setrgbcolor
newpath
33728.3 43109.1 moveto
33728.3 41269.6 lineto
stroke
0 0 0 setrgbcolor
newpath
33728.3 41269.6 moveto
33770.7 41227.3 lineto
stroke
0 0 0 setrgbcolor
newpath
46815 43723.3 moveto
46815 42554 lineto
stroke
0 0 0 setrgbcolor
newpath
46815 42554 moveto
46740.2 42479.2 lineto
stroke
0 0 0 setrgbcolor
newpath
38848.4 46557.9 moveto
38730.3 46676.1 lineto
stroke
0 0 0 setrgbcolor
newpath
41432.1 47972.3 moveto
40631.9 47972.3 lineto
stroke
0 0 0 setrgbcolor
newpath
42023.6 47380.8 moveto
41432.1 47972.3 lineto
stroke
0 0 0 setrgbcolor
newpath
39207.5 46459.5 moveto
38946.8 46459.5 lineto
stroke
0 0 0 setrgbcolor
newpath
40631.9 47972.3 moveto
39320.1 46660.6 lineto
stroke
0 0 0 setrgbcolor
newpath
39320.1 46572.1 moveto
39207.5 46459.5 lineto
stroke
0 0 0 setrgbcolor
newpath
39320.1 46660.6 moveto
39320.1 46572.1 lineto
stroke
0 0 0 setrgbcolor
newpath
38946.8 46459.5 moveto
38848.4 46557.9 lineto
stroke
0 0 0 setrgbcolor
newpath
44720.3 41025.5 moveto
44720.3 40858.4 lineto
stroke
0 0 0 setrgbcolor
newpath
44720.3 42431.6 moveto
44720.3 41025.5 lineto
stroke
0 0 0 setrgbcolor
newpath
45885 44075 moveto
45885 43596.3 lineto
stroke
0 0 0 setrgbcolor
newpath
45885 43596.3 moveto
44720.3 42431.6 lineto
stroke
0 0 0 setrgbcolor
newpath
44923.6 40386.9 moveto
44878.3 40386.9 lineto
stroke
0 0 0 setrgbcolor
newpath
44878.3 40386.9 moveto
44711.2 40386.9 lineto
stroke
0 0 0 setrgbcolor
newpath
45905.5 42443.8 moveto
45905.5 41965 lineto
stroke
0 0 0 setrgbcolor
newpath
45403.5 41463 moveto
45403.5 40866.7 lineto
stroke
0 0 0 setrgbcolor
newpath
45403.5 40866.7 moveto
44923.6 40386.9 lineto
stroke
0 0 0 setrgbcolor
newpath
45905.5 41965 moveto
45403.5 41463 lineto
stroke
0 0 0 setrgbcolor
newpath
36429.1 49502.8 moveto
36724.4 49798.1 lineto
stroke
0 0 0 setrgbcolor
newpath
36724.4 49798.1 moveto
39326.8 49798.1 lineto
stroke
0 0 0 setrgbcolor
newpath
36429.1 44833.5 moveto
36429.1 49502.8 lineto
stroke
0 0 0 setrgbcolor
newpath
35291.3 43695.7 moveto
36429.1 44833.5 lineto
stroke
0 0 0 setrgbcolor
newpath
42433.1 47250.9 moveto
42433.1 47947.7 lineto
stroke
0 0 0 setrgbcolor
newpath
42433.1 47947.7 moveto
42358.3 48022.5 lineto
stroke
0 0 0 setrgbcolor
newpath
36165.4 49715.4 moveto
36496.1 50046.1 lineto
stroke
0 0 0 setrgbcolor
newpath
36496.1 50046.1 moveto
40767.7 50046.1 lineto
stroke
0 0 0 setrgbcolor
newpath
36165.4 45006.8 moveto
36165.4 49715.4 lineto
stroke
0 0 0 setrgbcolor
newpath
35063 43904.4 moveto
36165.4 45006.8 lineto
stroke
0 0 0 setrgbcolor
newpath
42200.8 46715.4 moveto
42232.3 46746.9 lineto
stroke
0 0 0 setrgbcolor
newpath
40968.5 46715.4 moveto
42200.8 46715.4 lineto
stroke
0 0 0 setrgbcolor
newpath
41869.8 46991.4 moveto
41929.1 46932 lineto
stroke
0 0 0 setrgbcolor
newpath
40817 46991.4 moveto
41869.8 46991.4 lineto
stroke
0 0 0 setrgbcolor
196.85 setlinewidth
newpath
41315 39863.6 moveto
41315 39613.1 lineto
stroke
0 0 0 setrgbcolor
newpath
41315 41160.3 moveto
41315 39863.6 lineto
stroke
0 0 0 setrgbcolor
newpath
40228.3 42246.9 moveto
41315 41160.3 lineto
stroke
0 0 0 setrgbcolor
newpath
40228.3 42246.9 moveto
39484.3 42246.9 lineto
stroke
0 0 0 setrgbcolor
newpath
39484.3 42246.9 moveto
39480.3 42243 lineto
stroke
0 0 0 setrgbcolor
newpath
36061.6 39278.4 moveto
44192.9 39278.4 lineto
stroke
0 0 0 setrgbcolor
newpath
35212.6 39876.9 moveto
35463.1 39876.9 lineto
stroke
0 0 0 setrgbcolor
newpath
35463.1 39876.9 moveto
36061.6 39278.4 lineto
stroke
0 0 0 setrgbcolor
newpath
44357.6 40537.7 moveto
44357.6 40287.1 lineto
stroke
0 0 0 setrgbcolor
newpath
44357.6 46379.6 moveto
44357.6 40537.7 lineto
stroke
0 0 0 setrgbcolor
newpath
45278 47300 moveto
44357.6 46379.6 lineto
stroke
0 0 0 setrgbcolor
newpath
45874.8 47300 moveto
45278 47300 lineto
stroke
0 0 0 setrgbcolor
newpath
33507.9 39841.4 moveto
33507.9 38908.3 lineto
stroke
0 0 0 setrgbcolor
newpath
33507.9 38908.3 moveto
33488.2 38888.7 lineto
stroke
0 0 0 setrgbcolor
78.7402 setlinewidth
newpath
37568.1 48211.5 moveto
38985.4 46794.2 lineto
stroke
0 0 0 setrgbcolor
newpath
37098.4 48211.5 moveto
37568.1 48211.5 lineto
stroke
0 0 0 setrgbcolor
newpath
38985.4 46794.2 moveto
39103.6 46676.1 lineto
stroke
0 0 0 setrgbcolor
100 setlinewidth
newpath
46964.6 44059.8 moveto
46888.5 44091.4 lineto
46742.1 44091.5 lineto
46606.7 44035.6 lineto
46539.9 43968.9 lineto
46539.9 44475 lineto
46522.5 44567.6 lineto
46467.7 44652.7 lineto
46384.2 44709.8 lineto
46285 44729.9 lineto
45485 44729.9 lineto
45392.4 44712.5 lineto
45307.3 44657.7 lineto
45250.2 44574.2 lineto
45230.1 44475 lineto
45230.1 43675 lineto
45247.5 43582.4 lineto
45302.3 43497.3 lineto
45346.5 43467 lineto
44706 42826.5 lineto
44706 45607.5 lineto
45235 45607.5 lineto
45235 45270.3 lineto
45273.1 45178.4 lineto
45343.4 45108.1 lineto
45435.3 45070 lineto
45772.5 45070 lineto
45835 45132.5 lineto
45835 45670 lineto
45935 45670 lineto
45935 45132.5 lineto
45997.5 45070 lineto
46334.7 45070 lineto
46426.6 45108.1 lineto
46496.9 45178.4 lineto
46535 45270.3 lineto
46535 45607.5 lineto
46472.5 45670 lineto
45935 45670 lineto
45835 45670 lineto
45297.5 45670 lineto
45235 45607.5 lineto
44706 45607.5 lineto
44706 46169.7 lineto
45235 46169.7 lineto
45235 45832.5 lineto
45297.5 45770 lineto
45835 45770 lineto
45835 46307.5 lineto
45935 46307.5 lineto
45935 45770 lineto
46472.5 45770 lineto
46535 45832.5 lineto
46535 46169.7 lineto
46496.9 46261.6 lineto
46426.6 46331.9 lineto
46334.7 46370 lineto
45997.5 46370 lineto
45935 46307.5 lineto
45835 46307.5 lineto
45772.5 46370 lineto
45435.3 46370 lineto
45343.4 46331.9 lineto
45273.1 46261.6 lineto
45235 46169.7 lineto
44706 46169.7 lineto
44706 46235.3 lineto
45253.3 46782.6 lineto
45292.1 46722.3 lineto
45375.7 46665.2 lineto
45474.8 46645.1 lineto
46274.8 46645.1 lineto
46367.5 46662.5 lineto
46452.6 46717.3 lineto
46509.7 46800.8 lineto
46529.7 46900 lineto
46529.7 47700 lineto
46512.3 47792.6 lineto
46457.6 47877.7 lineto
46374 47934.8 lineto
46274.8 47954.9 lineto
45474.8 47954.9 lineto
45382.2 47937.5 lineto
45297.1 47882.7 lineto
45240 47799.2 lineto
45219.9 47700 lineto
45219.9 47636.9 lineto
45166.8 47626.3 lineto
45144.7 47621.9 lineto
45031.6 47546.4 lineto
45031.6 47546.4 lineto
44111.2 46626 lineto
44035.7 46512.9 lineto
44034.4 46506.6 lineto
44009.2 46379.6 lineto
44009.2 46379.6 lineto
44009.2 40542.9 lineto
43995.7 40529.4 lineto
43930.5 40372.5 lineto
43930.3 40202.5 lineto
43995.2 40045.5 lineto
44115.3 39925.2 lineto
44272.2 39860 lineto
44442.2 39859.9 lineto
44599.2 39924.8 lineto
44693.4 40018.8 lineto
44784.1 40018.7 lineto
44919.5 40074.6 lineto
44947.1 40102.2 lineto
45034.4 40119.5 lineto
45128.2 40182.3 lineto
45289.3 40343.3 lineto
45322.8 40291.2 lineto
45406.3 40234.2 lineto
45505.5 40214.1 lineto
45681.9 40214.1 lineto
45700.9 40185.6 lineto
45937.4 39949.1 lineto
45505.5 39949.1 lineto
45412.9 39931.6 lineto
45327.8 39876.9 lineto
45270.7 39793.3 lineto
45250.6 39694.2 lineto
45250.6 39583.5 lineto
45170.2 39583.5 lineto
45059.5 39561.5 lineto
44965.6 39498.8 lineto
44655.9 39189 lineto
44624.1 39189.1 lineto
44617.1 39186.2 lineto
44620 39193.1 lineto
44620.2 39363 lineto
44555.3 39520.1 lineto
44435.2 39640.3 lineto
44278.3 39705.5 lineto
44108.3 39705.7 lineto
43951.3 39640.8 lineto
43937.3 39626.9 lineto
41742.1 39626.9 lineto
41742.2 39697.7 lineto
41677.3 39854.7 lineto
41663.4 39868.7 lineto
41663.4 40823.1 lineto
41868 40823.1 lineto
41932.9 40666 lineto
41946.9 40652.1 lineto
41946.9 40439.6 lineto
41895.7 40316.5 lineto
41895.6 40146.6 lineto
41960.5 39989.5 lineto
42080.5 39869.3 lineto
42237.5 39804.1 lineto
42407.4 39803.9 lineto
42564.5 39868.8 lineto
42684.8 39988.9 lineto
42749.9 40145.8 lineto
42750.1 40315.8 lineto
42685.2 40472.8 lineto
42643.7 40514.4 lineto
42643.7 40651.9 lineto
42657.2 40665.4 lineto
42722.4 40822.3 lineto
42722.5 40992.2 lineto
42657.6 41149.3 lineto
42537.6 41269.6 lineto
42380.6 41334.7 lineto
42210.7 41334.9 lineto
42053.6 41270 lineto
41933.4 41149.9 lineto
41868.2 40993 lineto
41868 40823.1 lineto
41663.4 40823.1 lineto
41663.4 41160.3 lineto
41636.9 41293.7 lineto
41561.3 41406.7 lineto
41561.3 41406.7 lineto
40655.6 42312.5 lineto
40655.6 42331.5 lineto
40590.7 42488.6 lineto
40470.6 42608.9 lineto
40313.7 42674 lineto
40143.8 42674.2 lineto
39986.7 42609.3 lineto
39972.7 42595.4 lineto
39732.1 42595.4 lineto
39722.6 42604.9 lineto
39565.7 42670.1 lineto
39395.7 42670.2 lineto
39238.7 42605.3 lineto
39118.4 42485.3 lineto
39053.2 42328.3 lineto
39053.1 42158.4 lineto
39118 42001.3 lineto
39238 41881.1 lineto
39395 41815.9 lineto
39564.9 41815.8 lineto
39722 41880.6 lineto
39739.9 41898.5 lineto
39972.6 41898.5 lineto
39986.1 41885 lineto
40143 41819.8 lineto
40162.7 41819.8 lineto
40966.5 41016 lineto
40966.5 39868.8 lineto
40953 39855.4 lineto
40887.9 39698.4 lineto
40887.8 39626.9 lineto
36205.9 39626.9 lineto
35709.5 40123.2 lineto
35674.6 40146.6 lineto
35596.5 40198.8 lineto
35571.3 40203.8 lineto
35469.6 40224 lineto
35454.9 40238.8 lineto
35297.9 40303.9 lineto
35128 40304.1 lineto
34970.9 40239.2 lineto
34850.7 40119.1 lineto
34785.5 39962.2 lineto
34785.4 39792.3 lineto
34850.3 39635.2 lineto
34970.3 39514.9 lineto
35127.3 39449.8 lineto
35297.2 39449.6 lineto
35368.3 39479 lineto
35815.2 39032.1 lineto
35815.2 39032.1 lineto
35830.2 39022 lineto
35928.2 38956.5 lineto
36061.6 38930 lineto
36061.6 38930 lineto
43937.2 38930 lineto
43950.6 38916.5 lineto
44107.6 38851.3 lineto
44277.5 38851.2 lineto
44328.9 38872.4 lineto
44328.8 38748 lineto
44384.7 38612.6 lineto
44417.1 38580.2 lineto
44417 38448.6 lineto
44472.9 38313.3 lineto
44576.4 38209.6 lineto
44711.6 38153.5 lineto
44858.1 38153.3 lineto
44993.4 38209.2 lineto
45016.4 38232.1 lineto
46203.4 38232.1 lineto
46314.2 38254.2 lineto
46408 38316.9 lineto
46755.4 38664.2 lineto
46818.1 38758.1 lineto
46840.1 38868.8 lineto
46840.1 39745 lineto
46818.3 39854.7 lineto
46818.1 39855.7 lineto
46755.4 39949.6 lineto
46444 40261 lineto
46483.2 40286.3 lineto
46540.3 40369.8 lineto
46560.4 40469 lineto
46560.4 41269 lineto
46543 41361.6 lineto
46488.2 41446.7 lineto
46404.7 41503.8 lineto
46305.5 41523.9 lineto
45873.6 41523.9 lineto
46110.1 41760.4 lineto
46129.1 41788.9 lineto
46305.5 41788.9 lineto
46398.2 41806.3 lineto
46483.2 41861.1 lineto
46540.3 41944.6 lineto
46560.4 42043.8 lineto
46560.4 42155.3 lineto
46666.6 42111.2 lineto
46813.1 42111 lineto
46948.4 42167 lineto
46964.6 42183.1 lineto
46964.6 35715.4 lineto
31775.6 35715.4 lineto
31775.6 36844.2 lineto
32230.2 36844.2 lineto
32357.9 36535.2 lineto
32594.1 36298.5 lineto
32902.9 36170.3 lineto
33237.3 36170 lineto
33546.4 36297.7 lineto
33783 36534 lineto
33911.3 36842.8 lineto
33911.3 36844.2 lineto
44828.6 36844.2 lineto
44956.3 36535.2 lineto
45192.5 36298.5 lineto
45501.4 36170.3 lineto
45835.8 36170 lineto
46144.8 36297.7 lineto
46381.5 36534 lineto
46509.7 36842.8 lineto
46510 37177.2 lineto
46382.3 37486.2 lineto
46146 37722.9 lineto
45837.2 37851.1 lineto
45502.8 37851.4 lineto
45193.8 37723.7 lineto
44957.1 37487.5 lineto
44828.9 37178.6 lineto
44828.6 36844.2 lineto
33911.3 36844.2 lineto
33911.6 37177.2 lineto
33783.9 37486.2 lineto
33547.6 37722.9 lineto
33238.8 37851.1 lineto
32904.4 37851.4 lineto
32595.4 37723.7 lineto
32358.7 37487.5 lineto
32230.5 37178.6 lineto
32230.2 36844.2 lineto
31775.6 36844.2 lineto
31775.6 38804.1 lineto
33060.9 38804.1 lineto
33125.8 38647 lineto
33245.9 38526.7 lineto
33402.8 38461.6 lineto
33572.8 38461.4 lineto
33729.8 38526.3 lineto
33850.1 38646.4 lineto
33915.3 38803.3 lineto
33915.4 38973.3 lineto
33856.3 39116.4 lineto
33856.3 39585.7 lineto
33869.8 39599.1 lineto
33935 39756.1 lineto
33935.1 39926 lineto
33870.2 40083.1 lineto
33750.2 40203.3 lineto
33593.2 40268.5 lineto
33423.3 40268.7 lineto
33266.2 40203.8 lineto
33146 40083.7 lineto
33080.8 39926.8 lineto
33080.6 39756.8 lineto
33145.5 39599.8 lineto
33159.4 39585.8 lineto
33159.4 39164.1 lineto
33126.3 39130.9 lineto
33061.1 38974 lineto
33060.9 38804.1 lineto
31775.6 38804.1 lineto
31775.6 43040.2 lineto
33064.9 43040.2 lineto
33120.8 42904.8 lineto
33143.7 42881.9 lineto
33143.7 41356.2 lineto
33125.1 41337.6 lineto
33069 41202.4 lineto
33068.8 41055.9 lineto
33124.8 40920.6 lineto
33228.2 40816.9 lineto
33363.5 40760.8 lineto
33509.9 40760.6 lineto
33645.3 40816.6 lineto
33690.7 40861.9 lineto
33697.1 40859.2 lineto
33843.6 40859.1 lineto
33978.9 40915 lineto
34082.6 41018.5 lineto
34138.7 41153.7 lineto
34138.9 41300.2 lineto
34082.9 41435.5 lineto
34017.7 41500.8 lineto
34017.7 42877.9 lineto
34040.2 42900.3 lineto
34096.4 43035.6 lineto
34096.5 43182 lineto
34085.5 43208.7 lineto
37904.4 43208.7 lineto
37978.3 43029.9 lineto
38115 42893 lineto
38293.6 42818.9 lineto
38487 42818.7 lineto
38665.8 42892.6 lineto
38802.7 43029.2 lineto
38876.9 43207.9 lineto
38877.1 43401.3 lineto
38803.2 43580.1 lineto
38666.5 43717 lineto
38487.9 43791.1 lineto
38294.5 43791.3 lineto
38115.7 43717.4 lineto
37978.8 43580.8 lineto
37904.6 43402.1 lineto
37904.4 43208.7 lineto
34085.5 43208.7 lineto
34040.6 43317.4 lineto
33937.1 43421 lineto
33801.9 43477.2 lineto
33655.4 43477.3 lineto
33585.4 43448.4 lineto
33506.6 43481.1 lineto
33360.2 43481.2 lineto
33224.8 43425.3 lineto
33121.2 43321.9 lineto
33065 43186.6 lineto
33064.9 43040.2 lineto
31775.6 43040.2 lineto
31775.6 43831.5 lineto
34694.8 43831.5 lineto
34750.7 43696.2 lineto
34854.2 43592.5 lineto
34952.6 43551.7 lineto
34979.1 43487.5 lineto
35082.5 43383.9 lineto
35217.8 43327.7 lineto
35364.2 43327.6 lineto
35499.6 43383.5 lineto
35603.2 43487 lineto
35659.4 43622.2 lineto
35659.4 43654.6 lineto
36619.9 44615.1 lineto
39206.6 44615.1 lineto
39271.5 44458 lineto
39391.6 44337.8 lineto
39548.5 44272.6 lineto
39718.5 44272.4 lineto
39762.7 44290.7 lineto
39832.6 44220.8 lineto
39832.6 44201.7 lineto
39897.5 44044.6 lineto
40017.6 43924.4 lineto
40174.5 43859.2 lineto
40344.4 43859.1 lineto
40501.5 43924 lineto
40621.8 44044 lineto
40686.9 44201 lineto
40687.1 44370.9 lineto
40622.2 44528 lineto
40502.1 44648.2 lineto
40345.2 44713.4 lineto
40325.5 44713.4 lineto
40092.8 44946.1 lineto
39979.8 45021.6 lineto
39957.7 45026 lineto
39900.3 45037.4 lineto
39876.1 45061.6 lineto
39719.2 45126.8 lineto
39549.3 45126.9 lineto
39392.2 45062 lineto
39271.9 44942 lineto
39206.8 44785 lineto
39206.6 44615.1 lineto
36619.9 44615.1 lineto
36633.7 44628.9 lineto
36696.5 44722.8 lineto
36708.9 44785 lineto
36718.5 44833.5 lineto
36718.5 48138.6 lineto
36730.3 48138.6 lineto
36786.2 48003.3 lineto
36889.6 47899.6 lineto
37024.9 47843.5 lineto
37171.3 47843.3 lineto
37306.7 47899.3 lineto
37329.6 47922.1 lineto
37448.2 47922.1 lineto
38452 46918.4 lineto
38418.4 46884.8 lineto
38362.3 46749.6 lineto
38362.1 46603.2 lineto
38418.1 46467.8 lineto
38521.5 46364.2 lineto
38656.8 46308 lineto
38689.1 46308 lineto
38742.2 46254.9 lineto
38821.9 46201.6 lineto
38836.1 46192.2 lineto
38946.8 46170.1 lineto
39207.5 46170.1 lineto
39310.7 46190.7 lineto
39322.2 46179.1 lineto
39457.5 46123 lineto
39603.9 46122.8 lineto
39739.3 46178.8 lineto
39842.9 46282.2 lineto
39899.1 46417.5 lineto
39899.1 46449.9 lineto
40448.9 46999.6 lineto
40448.8 46918.5 lineto
40504.7 46783.1 lineto
40600.4 46687.3 lineto
40600.3 46642.5 lineto
40656.3 46507.2 lineto
40759.7 46403.5 lineto
40895 46347.4 lineto
41041.4 46347.3 lineto
41176.7 46403.2 lineto
41199.7 46426.1 lineto
42045.1 46426.1 lineto
42158.7 46378.9 lineto
42305.2 46378.8 lineto
42440.5 46434.7 lineto
42544.2 46538.1 lineto
42600.3 46673.4 lineto
42600.5 46819.8 lineto
42564.5 46906.9 lineto
42641.3 46938.6 lineto
42745 47042.1 lineto
42801.1 47177.3 lineto
42801.2 47323.8 lineto
42745.3 47459.1 lineto
42722.4 47482 lineto
42722.4 47939.6 lineto
42726.3 47949 lineto
42726.4 48095.4 lineto
42670.5 48230.8 lineto
42567.1 48334.4 lineto
42431.8 48390.6 lineto
42285.4 48390.7 lineto
42150 48334.8 lineto
42046.4 48231.3 lineto
41990.2 48096.1 lineto
41990.1 47949.6 lineto
42046 47814.3 lineto
42121.4 47738.8 lineto
42097.2 47748.8 lineto
42064.8 47748.9 lineto
41636.7 48177 lineto
41542.8 48239.7 lineto
41432.1 48261.7 lineto
40631.9 48261.7 lineto
40521.1 48239.7 lineto
40427.3 48177 lineto
39260 47009.7 lineto
39177.1 47044.1 lineto
39144.7 47044.1 lineto
37772.7 48416.1 lineto
37678.8 48478.9 lineto
37568.1 48500.9 lineto
37329.7 48500.9 lineto
37307.2 48523.4 lineto
37172 48579.6 lineto
37025.5 48579.7 lineto
36890.2 48523.8 lineto
36786.5 48420.3 lineto
36730.4 48285.1 lineto
36730.3 48138.6 lineto
36718.5 48138.6 lineto
36718.5 49383 lineto
36844.3 49508.7 lineto
39095.5 49508.7 lineto
39118 49486.2 lineto
39253.2 49430.1 lineto
39399.7 49429.9 lineto
39430.5 49442.7 lineto
44828.6 49442.7 lineto
44956.3 49133.6 lineto
45192.5 48897 lineto
45501.4 48768.7 lineto
45835.8 48768.4 lineto
46144.8 48896.1 lineto
46381.5 49132.4 lineto
46509.7 49441.2 lineto
46510 49775.6 lineto
46382.3 50084.6 lineto
46146 50321.3 lineto
45837.2 50449.5 lineto
45502.8 50449.8 lineto
45193.8 50322.1 lineto
44957.1 50085.9 lineto
44828.9 49777.1 lineto
44828.6 49442.7 lineto
39430.5 49442.7 lineto
39535 49485.9 lineto
39638.7 49589.3 lineto
39694.8 49724.6 lineto
39694.8 49756.8 lineto
40536.4 49756.8 lineto
40558.9 49734.3 lineto
40694.2 49678.1 lineto
40840.6 49678 lineto
40976 49733.9 lineto
41079.6 49837.4 lineto
41135.8 49972.6 lineto
41135.9 50119 lineto
41080 50254.4 lineto
40976.5 50358 lineto
40841.3 50414.2 lineto
40694.8 50414.3 lineto
40559.5 50358.4 lineto
40536.6 50335.5 lineto
36496.1 50335.5 lineto
36403.7 50317.1 lineto
36385.3 50313.5 lineto
36291.4 50250.8 lineto
35960.7 49920 lineto
35898 49826.2 lineto
35876 49715.4 lineto
35876 45126.6 lineto
35021.9 44272.6 lineto
34990.1 44272.6 lineto
34854.7 44216.7 lineto
34751.1 44113.2 lineto
34694.9 43978 lineto
34694.8 43831.5 lineto
31775.6 43831.5 lineto
31775.6 49442.7 lineto
32230.2 49442.7 lineto
32357.9 49133.6 lineto
32594.1 48897 lineto
32902.9 48768.7 lineto
33237.3 48768.4 lineto
33546.4 48896.1 lineto
33783 49132.4 lineto
33911.3 49441.2 lineto
33911.6 49775.6 lineto
33783.9 50084.6 lineto
33547.6 50321.3 lineto
33238.8 50449.5 lineto
32904.4 50449.8 lineto
32595.4 50322.1 lineto
32358.7 50085.9 lineto
32230.5 49777.1 lineto
32230.2 49442.7 lineto
31775.6 49442.7 lineto
31775.6 50904.4 lineto
46964.6 50904.4 lineto
46964.6 44059.8 lineto
poly1
showpage
grestore
%%EOF
