%!PS-Adobe-3.0
%%Creator: PCBNEW
%%CreationDate: Thu Feb 25 18:48:39 2016
%%Title: /home/ubuntu/HEXAGON-ROBOTICS/HEXAGON-ROBOTICS-GNSS-DR/GERBER/DR8-B.Paste.ps
%%Pages: 1
%%PageOrder: Ascend
%%BoundingBox: 0 0 596 842
%%DocumentMedia: A4 595 842 0 () ()
%%Orientation: Landscape
%%EndComments
%%BeginProlog
/line { newpath moveto lineto stroke } bind def
/cir0 { newpath 0 360 arc stroke } bind def
/cir1 { newpath 0 360 arc gsave fill grestore stroke } bind def
/cir2 { newpath 0 360 arc gsave fill grestore stroke } bind def
/arc0 { newpath arc stroke } bind def
/arc1 { newpath 4 index 4 index moveto arc closepath gsave fill
    grestore stroke } bind def
/arc2 { newpath 4 index 4 index moveto arc closepath gsave fill
    grestore stroke } bind def
/poly0 { stroke } bind def
/poly1 { closepath gsave fill grestore stroke } bind def
/poly2 { closepath gsave fill grestore stroke } bind def
/rect0 { rectstroke } bind def
/rect1 { rectfill } bind def
/rect2 { rectfill } bind def
/linemode0 { 0 setlinecap 0 setlinejoin 0 setlinewidth } bind def
/linemode1 { 1 setlinecap 1 setlinejoin } bind def
/dashedline { [200] 100 setdash } bind def
/solidline { [] 0 setdash } bind def
/phantomshow { moveto
    /KicadFont findfont 0.000001 scalefont setfont
    show } bind def
/textshow { gsave
    findfont exch scalefont setfont concat 1 scale 0 0 moveto show
    } bind def
/reencodefont {
  findfont dup length dict begin
  { 1 index /FID ne
    { def }
    { pop pop } ifelse
  } forall
  /Encoding ISOLatin1Encoding def
  currentdict
  end } bind def
/KicadFont /Helvetica reencodefont definefont pop
/KicadFont-Bold /Helvetica-Bold reencodefont definefont pop
/KicadFont-Oblique /Helvetica-Oblique reencodefont definefont pop
/KicadFont-BoldOblique /Helvetica-BoldOblique reencodefont definefont pop
%%EndProlog
%%Page: 1 1
%%BeginPageSetup
gsave
0.0072 0.0072 scale
linemode1
82680 0 translate 90 rotate
39.3701 setlinewidth
%%EndPageSetup
0 0 0 setrgbcolor
0 0 0 setrgbcolor
0 setlinewidth
newpath
41557.8 37364.6 moveto
41557.8 38939.4 lineto
42778.3 38939.4 lineto
42778.3 37364.6 lineto
41557.8 37364.6 lineto
poly1
0 0 0 setrgbcolor
newpath
36163.4 37372.6 moveto
36163.4 38947.4 lineto
37344.6 38947.4 lineto
37344.6 37372.6 lineto
36163.4 37372.6 lineto
poly1
0 0 0 setrgbcolor
newpath
32165.4 41656.4 moveto
32165.4 41971.3 lineto
32874 41971.3 lineto
32874 41656.4 lineto
32165.4 41656.4 lineto
poly1
0 0 0 setrgbcolor
newpath
32165.4 47168.2 moveto
32165.4 47483.1 lineto
32874 47483.1 lineto
32874 47168.2 lineto
32165.4 47168.2 lineto
poly1
0 0 0 setrgbcolor
newpath
36889.8 47168.2 moveto
36889.8 47483.1 lineto
37598.4 47483.1 lineto
37598.4 47168.2 lineto
36889.8 47168.2 lineto
poly1
0 0 0 setrgbcolor
newpath
36889.8 46735.1 moveto
36889.8 47050.1 lineto
37598.4 47050.1 lineto
37598.4 46735.1 lineto
36889.8 46735.1 lineto
poly1
0 0 0 setrgbcolor
newpath
36889.8 46302 moveto
36889.8 46617 lineto
37598.4 46617 lineto
37598.4 46302 lineto
36889.8 46302 lineto
poly1
0 0 0 setrgbcolor
newpath
36889.8 45869 moveto
36889.8 46183.9 lineto
37598.4 46183.9 lineto
37598.4 45869 lineto
36889.8 45869 lineto
poly1
0 0 0 setrgbcolor
newpath
36889.8 45435.9 moveto
36889.8 45750.9 lineto
37598.4 45750.9 lineto
37598.4 45435.9 lineto
36889.8 45435.9 lineto
poly1
0 0 0 setrgbcolor
newpath
36889.8 45002.8 moveto
36889.8 45317.8 lineto
37598.4 45317.8 lineto
37598.4 45002.8 lineto
36889.8 45002.8 lineto
poly1
0 0 0 setrgbcolor
newpath
36889.8 44569.8 moveto
36889.8 44884.7 lineto
37598.4 44884.7 lineto
37598.4 44569.8 lineto
36889.8 44569.8 lineto
poly1
0 0 0 setrgbcolor
newpath
36889.8 43388.7 moveto
36889.8 43703.6 lineto
37598.4 43703.6 lineto
37598.4 43388.7 lineto
36889.8 43388.7 lineto
poly1
0 0 0 setrgbcolor
newpath
36889.8 42955.6 moveto
36889.8 43270.6 lineto
37598.4 43270.6 lineto
37598.4 42955.6 lineto
36889.8 42955.6 lineto
poly1
0 0 0 setrgbcolor
newpath
36889.8 42522.5 moveto
36889.8 42837.5 lineto
37598.4 42837.5 lineto
37598.4 42522.5 lineto
36889.8 42522.5 lineto
poly1
0 0 0 setrgbcolor
newpath
36889.8 42089.4 moveto
36889.8 42404.4 lineto
37598.4 42404.4 lineto
37598.4 42089.4 lineto
36889.8 42089.4 lineto
poly1
0 0 0 setrgbcolor
newpath
36889.8 41656.4 moveto
36889.8 41971.3 lineto
37598.4 41971.3 lineto
37598.4 41656.4 lineto
36889.8 41656.4 lineto
poly1
0 0 0 setrgbcolor
newpath
32165.4 42089.4 moveto
32165.4 42404.4 lineto
32874 42404.4 lineto
32874 42089.4 lineto
32165.4 42089.4 lineto
poly1
0 0 0 setrgbcolor
newpath
32165.4 42522.5 moveto
32165.4 42837.5 lineto
32874 42837.5 lineto
32874 42522.5 lineto
32165.4 42522.5 lineto
poly1
0 0 0 setrgbcolor
newpath
32165.4 42955.6 moveto
32165.4 43270.6 lineto
32874 43270.6 lineto
32874 42955.6 lineto
32165.4 42955.6 lineto
poly1
0 0 0 setrgbcolor
newpath
32165.4 43388.7 moveto
32165.4 43703.6 lineto
32874 43703.6 lineto
32874 43388.7 lineto
32165.4 43388.7 lineto
poly1
0 0 0 setrgbcolor
newpath
32165.4 44569.8 moveto
32165.4 44884.7 lineto
32874 44884.7 lineto
32874 44569.8 lineto
32165.4 44569.8 lineto
poly1
0 0 0 setrgbcolor
newpath
32165.4 45002.8 moveto
32165.4 45317.8 lineto
32874 45317.8 lineto
32874 45002.8 lineto
32165.4 45002.8 lineto
poly1
0 0 0 setrgbcolor
newpath
32165.4 45435.9 moveto
32165.4 45750.9 lineto
32874 45750.9 lineto
32874 45435.9 lineto
32165.4 45435.9 lineto
poly1
0 0 0 setrgbcolor
newpath
32165.4 45869 moveto
32165.4 46183.9 lineto
32874 46183.9 lineto
32874 45869 lineto
32165.4 45869 lineto
poly1
0 0 0 setrgbcolor
newpath
32165.4 46302 moveto
32165.4 46617 lineto
32874 46617 lineto
32874 46302 lineto
32165.4 46302 lineto
poly1
0 0 0 setrgbcolor
newpath
32165.4 46735.1 moveto
32165.4 47050.1 lineto
32874 47050.1 lineto
32874 46735.1 lineto
32165.4 46735.1 lineto
poly1
0 0 0 setrgbcolor
newpath
43374 46648.5 moveto
43374 46845.4 lineto
43610.2 46845.4 lineto
43610.2 46648.5 lineto
43374 46648.5 lineto
poly1
0 0 0 setrgbcolor
newpath
43807.1 46648.5 moveto
43807.1 46845.4 lineto
44043.3 46845.4 lineto
44043.3 46648.5 lineto
43807.1 46648.5 lineto
poly1
0 0 0 setrgbcolor
newpath
43409.4 43695.7 moveto
43409.4 43892.6 lineto
43645.7 43892.6 lineto
43645.7 43695.7 lineto
43409.4 43695.7 lineto
poly1
0 0 0 setrgbcolor
newpath
43842.5 43695.7 moveto
43842.5 43892.6 lineto
44078.7 43892.6 lineto
44078.7 43695.7 lineto
43842.5 43695.7 lineto
poly1
0 0 0 setrgbcolor
newpath
43389.8 44465.4 moveto
43389.8 44760.7 lineto
43704.7 44760.7 lineto
43704.7 44465.4 lineto
43389.8 44465.4 lineto
poly1
0 0 0 setrgbcolor
newpath
43980.3 44465.4 moveto
43980.3 44760.7 lineto
44295.3 44760.7 lineto
44295.3 44465.4 lineto
43980.3 44465.4 lineto
poly1
0 0 0 setrgbcolor
newpath
42523.6 41780.4 moveto
42523.6 41485.1 lineto
42208.7 41485.1 lineto
42208.7 41780.4 lineto
42523.6 41780.4 lineto
poly1
0 0 0 setrgbcolor
newpath
41933.1 41780.4 moveto
41933.1 41485.1 lineto
41618.1 41485.1 lineto
41618.1 41780.4 lineto
41933.1 41780.4 lineto
poly1
0 0 0 setrgbcolor
newpath
40852.4 48809.9 moveto
41147.6 48809.9 lineto
41147.6 48495 lineto
40852.4 48495 lineto
40852.4 48809.9 lineto
poly1
0 0 0 setrgbcolor
newpath
40852.4 48219.4 moveto
41147.6 48219.4 lineto
41147.6 47904.4 lineto
40852.4 47904.4 lineto
40852.4 48219.4 lineto
poly1
0 0 0 setrgbcolor
newpath
41667.3 48802 moveto
41962.6 48802 lineto
41962.6 48487.1 lineto
41667.3 48487.1 lineto
41667.3 48802 lineto
poly1
0 0 0 setrgbcolor
newpath
41667.3 48211.5 moveto
41962.6 48211.5 lineto
41962.6 47896.5 lineto
41667.3 47896.5 lineto
41667.3 48211.5 lineto
poly1
0 0 0 setrgbcolor
newpath
38692.9 46475.3 moveto
39204.7 46475.3 lineto
39204.7 46199.7 lineto
38692.9 46199.7 lineto
38692.9 46475.3 lineto
poly1
0 0 0 setrgbcolor
newpath
38692.9 45727.2 moveto
39204.7 45727.2 lineto
39204.7 45451.7 lineto
38692.9 45451.7 lineto
38692.9 45727.2 lineto
poly1
0 0 0 setrgbcolor
newpath
39838.6 48928 moveto
40350.4 48928 lineto
40350.4 48652.4 lineto
39838.6 48652.4 lineto
39838.6 48928 lineto
poly1
0 0 0 setrgbcolor
newpath
39838.6 48180 moveto
40350.4 48180 lineto
40350.4 47904.4 lineto
39838.6 47904.4 lineto
39838.6 48180 lineto
poly1
0 0 0 setrgbcolor
newpath
43419.8 42642.9 moveto
43419.8 42902.9 lineto
43579.8 42902.9 lineto
43579.8 42642.9 lineto
43419.8 42642.9 lineto
poly1
0 0 0 setrgbcolor
newpath
43939.8 42642.9 moveto
43939.8 42902.9 lineto
44099.8 42902.9 lineto
44099.8 42642.9 lineto
43939.8 42642.9 lineto
poly1
0 0 0 setrgbcolor
newpath
43679.8 42642.9 moveto
43679.8 42902.9 lineto
43839.8 42902.9 lineto
43839.8 42642.9 lineto
43679.8 42642.9 lineto
poly1
0 0 0 setrgbcolor
newpath
43939.8 41842.9 moveto
43939.8 42102.9 lineto
44099.8 42102.9 lineto
44099.8 41842.9 lineto
43939.8 41842.9 lineto
poly1
0 0 0 setrgbcolor
newpath
43419.8 41842.9 moveto
43419.8 42102.9 lineto
43579.8 42102.9 lineto
43579.8 41842.9 lineto
43419.8 41842.9 lineto
poly1
0 0 0 setrgbcolor
newpath
36543.3 40156.4 moveto
36326.8 40156.4 lineto
36326.8 40353.2 lineto
36543.3 40353.2 lineto
36543.3 40156.4 lineto
poly1
0 0 0 setrgbcolor
newpath
37311 40185.9 moveto
37094.5 40185.9 lineto
37094.5 40323.7 lineto
37311 40323.7 lineto
37311 40185.9 lineto
poly1
0 0 0 setrgbcolor
newpath
42834.6 39471.3 moveto
42834.6 39254.8 lineto
42637.8 39254.8 lineto
42637.8 39471.3 lineto
42834.6 39471.3 lineto
poly1
0 0 0 setrgbcolor
newpath
42805.1 40239.1 moveto
42805.1 40022.5 lineto
42667.3 40022.5 lineto
42667.3 40239.1 lineto
42805.1 40239.1 lineto
poly1
0 0 0 setrgbcolor
newpath
36082.7 39412.3 moveto
36082.7 39648.5 lineto
36240.2 39648.5 lineto
36240.2 39412.3 lineto
36082.7 39412.3 lineto
poly1
0 0 0 setrgbcolor
newpath
36437 39412.3 moveto
36437 39648.5 lineto
36594.5 39648.5 lineto
36594.5 39412.3 lineto
36437 39412.3 lineto
poly1
0 0 0 setrgbcolor
newpath
41948.8 39565.8 moveto
41712.6 39565.8 lineto
41712.6 39723.3 lineto
41948.8 39723.3 lineto
41948.8 39565.8 lineto
poly1
0 0 0 setrgbcolor
newpath
41948.8 39920.2 moveto
41712.6 39920.2 lineto
41712.6 40077.6 lineto
41948.8 40077.6 lineto
41948.8 39920.2 lineto
poly1
0 0 0 setrgbcolor
newpath
44350.4 38910.3 moveto
44350.4 38615 lineto
44035.4 38615 lineto
44035.4 38910.3 lineto
44350.4 38910.3 lineto
poly1
0 0 0 setrgbcolor
newpath
43759.8 38910.3 moveto
43759.8 38615 lineto
43444.9 38615 lineto
43444.9 38910.3 lineto
43759.8 38910.3 lineto
poly1
0 0 0 setrgbcolor
newpath
44409.5 39943.5 moveto
44409.5 39628.5 lineto
44094.5 39628.5 lineto
44094.5 39943.5 lineto
44409.5 39943.5 lineto
poly1
0 0 0 setrgbcolor
newpath
43661.4 39943.5 moveto
43661.4 39628.5 lineto
43346.4 39628.5 lineto
43346.4 39943.5 lineto
43661.4 39943.5 lineto
poly1
0 0 0 setrgbcolor
newpath
44035.5 40730.5 moveto
44035.5 40415.5 lineto
43720.5 40415.5 lineto
43720.5 40730.5 lineto
44035.5 40730.5 lineto
poly1
0 0 0 setrgbcolor
newpath
45505.5 45363.5 moveto
46305.5 45363.5 lineto
46305.5 44563.5 lineto
45505.5 44563.5 lineto
45505.5 45363.5 lineto
poly1
0 0 0 setrgbcolor
newpath
45505.5 46938.3 moveto
46305.5 46938.3 lineto
46305.5 46138.3 lineto
45505.5 46138.3 lineto
45505.5 46938.3 lineto
poly1
0 0 0 setrgbcolor
newpath
42670.9 49524.1 moveto
42670.9 50324.1 lineto
43470.9 50324.1 lineto
43470.9 49524.1 lineto
42670.9 49524.1 lineto
poly1
0 0 0 setrgbcolor
newpath
39600 49524.1 moveto
39600 50324.1 lineto
40400 50324.1 lineto
40400 49524.1 lineto
39600 49524.1 lineto
poly1
0 0 0 setrgbcolor
newpath
41096.1 49524.1 moveto
41096.1 50324.1 lineto
41896.1 50324.1 lineto
41896.1 49524.1 lineto
41096.1 49524.1 lineto
poly1
0 0 0 setrgbcolor
newpath
32325 39132 moveto
32011 39132 lineto
32011 39446 lineto
32325 39446 lineto
32325 39132 lineto
poly1
0 0 0 setrgbcolor
newpath
32325 39722 moveto
32011 39722 lineto
32011 40036 lineto
32325 40036 lineto
32325 39722 lineto
poly1
0 0 0 setrgbcolor
newpath
33125 39140 moveto
32811 39140 lineto
32811 39454 lineto
33125 39454 lineto
33125 39140 lineto
poly1
0 0 0 setrgbcolor
newpath
33125 39730 moveto
32811 39730 lineto
32811 40044 lineto
33125 40044 lineto
33125 39730 lineto
poly1
0 0 0 setrgbcolor
newpath
35047.8 40711.9 moveto
35047.8 40200.1 lineto
34772.2 40200.1 lineto
34772.2 40711.9 lineto
35047.8 40711.9 lineto
poly1
0 0 0 setrgbcolor
newpath
34299.8 40711.9 moveto
34299.8 40200.1 lineto
34024.2 40200.1 lineto
34024.2 40711.9 lineto
34299.8 40711.9 lineto
poly1
0 0 0 setrgbcolor
newpath
35095.8 39399.9 moveto
35095.8 38888.1 lineto
34820.2 38888.1 lineto
34820.2 39399.9 lineto
35095.8 39399.9 lineto
poly1
0 0 0 setrgbcolor
newpath
34347.8 39399.9 moveto
34347.8 38888.1 lineto
34072.2 38888.1 lineto
34072.2 39399.9 lineto
34347.8 39399.9 lineto
poly1
0 0 0 setrgbcolor
newpath
35183.1 48176.1 moveto
34887.8 48176.1 lineto
34887.8 48491 lineto
35183.1 48491 lineto
35183.1 48176.1 lineto
poly1
0 0 0 setrgbcolor
newpath
35183.1 48766.6 moveto
34887.8 48766.6 lineto
34887.8 49081.6 lineto
35183.1 49081.6 lineto
35183.1 48766.6 lineto
poly1
0 0 0 setrgbcolor
newpath
41141.6 43388.7 moveto
41141.6 42758.7 lineto
40117.6 42758.7 lineto
40117.6 43388.7 lineto
41141.6 43388.7 lineto
poly1
0 0 0 setrgbcolor
newpath
42559.6 43388.7 moveto
42559.6 42758.7 lineto
41535.6 42758.7 lineto
41535.6 43388.7 lineto
42559.6 43388.7 lineto
poly1
0 0 0 setrgbcolor
newpath
40945 45908.4 moveto
40945 45278.4 lineto
39764 45278.4 lineto
39764 45908.4 lineto
40945 45908.4 lineto
poly1
0 0 0 setrgbcolor
newpath
42677 45908.4 moveto
42677 45278.4 lineto
41496 45278.4 lineto
41496 45908.4 lineto
42677 45908.4 lineto
poly1
0 0 0 setrgbcolor
newpath
36683.1 49747.4 moveto
36683.1 50494.4 lineto
37145.1 50494.4 lineto
37145.1 49747.4 lineto
36683.1 49747.4 lineto
poly1
0 0 0 setrgbcolor
newpath
37343.1 49747.4 moveto
37343.1 50494.4 lineto
37805.1 50494.4 lineto
37805.1 49747.4 lineto
37343.1 49747.4 lineto
poly1
0 0 0 setrgbcolor
newpath
37923.6 49747.4 moveto
37923.6 50494.4 lineto
38858.6 50494.4 lineto
38858.6 49747.4 lineto
37923.6 49747.4 lineto
poly1
0 0 0 setrgbcolor
newpath
35629.6 49747.4 moveto
35629.6 50494.4 lineto
36564.6 50494.4 lineto
36564.6 49747.4 lineto
35629.6 49747.4 lineto
poly1
0 0 0 setrgbcolor
newpath
37923.1 48802.4 moveto
37923.1 49629.4 lineto
38503.1 49629.4 lineto
38503.1 48802.4 lineto
37923.1 48802.4 lineto
poly1
0 0 0 setrgbcolor
newpath
35985.1 48802.4 moveto
35985.1 49629.4 lineto
36565.1 49629.4 lineto
36565.1 48802.4 lineto
35985.1 48802.4 lineto
poly1
0 0 0 setrgbcolor
newpath
36643.6 48802.4 moveto
36643.6 49345.4 lineto
36820.6 49345.4 lineto
36820.6 48802.4 lineto
36643.6 48802.4 lineto
poly1
0 0 0 setrgbcolor
newpath
36899.6 48802.4 moveto
36899.6 49345.4 lineto
37076.6 49345.4 lineto
37076.6 48802.4 lineto
36899.6 48802.4 lineto
poly1
0 0 0 setrgbcolor
newpath
37155.6 48802.4 moveto
37155.6 49345.4 lineto
37332.6 49345.4 lineto
37332.6 48802.4 lineto
37155.6 48802.4 lineto
poly1
0 0 0 setrgbcolor
newpath
37411.6 48802.4 moveto
37411.6 49345.4 lineto
37588.6 49345.4 lineto
37588.6 48802.4 lineto
37411.6 48802.4 lineto
poly1
0 0 0 setrgbcolor
newpath
37667.6 48802.4 moveto
37667.6 49345.4 lineto
37844.6 49345.4 lineto
37844.6 48802.4 lineto
37667.6 48802.4 lineto
poly1
0 0 0 setrgbcolor
newpath
44980.3 42453.6 moveto
45649.6 42453.6 lineto
45649.6 42217.4 lineto
44980.3 42217.4 lineto
44980.3 42453.6 lineto
poly1
0 0 0 setrgbcolor
newpath
44980.3 41961.5 moveto
45649.6 41961.5 lineto
45649.6 41725.3 lineto
44980.3 41725.3 lineto
44980.3 41961.5 lineto
poly1
0 0 0 setrgbcolor
newpath
44980.3 41469.4 moveto
45649.6 41469.4 lineto
45649.6 41233.1 lineto
44980.3 41233.1 lineto
44980.3 41469.4 lineto
poly1
0 0 0 setrgbcolor
newpath
44980.3 39993 moveto
45649.6 39993 lineto
45649.6 39756.8 lineto
44980.3 39756.8 lineto
44980.3 39993 lineto
poly1
0 0 0 setrgbcolor
newpath
44980.3 40977.2 moveto
45649.6 40977.2 lineto
45649.6 40741 lineto
44980.3 40741 lineto
44980.3 40977.2 lineto
poly1
0 0 0 setrgbcolor
newpath
44980.3 40485.1 moveto
45649.6 40485.1 lineto
45649.6 40248.9 lineto
44980.3 40248.9 lineto
44980.3 40485.1 lineto
poly1
0 0 0 setrgbcolor
newpath
46043.3 43260.7 moveto
47106.3 43260.7 lineto
47106.3 42867 lineto
46043.3 42867 lineto
46043.3 43260.7 lineto
poly1
0 0 0 setrgbcolor
newpath
46043.3 39343.4 moveto
47106.3 39343.4 lineto
47106.3 38949.7 lineto
46043.3 38949.7 lineto
46043.3 39343.4 lineto
poly1
0 0 0 setrgbcolor
newpath
43265.7 46120.9 moveto
43561 46120.9 lineto
43561 45806 lineto
43265.7 45806 lineto
43265.7 46120.9 lineto
poly1
0 0 0 setrgbcolor
newpath
43265.7 45530.4 moveto
43561 45530.4 lineto
43561 45215.4 lineto
43265.7 45215.4 lineto
43265.7 45530.4 lineto
poly1
showpage
grestore
%%EOF
