%!PS-Adobe-3.0
%%Creator: PCBNEW
%%CreationDate: Thu Feb 25 18:48:39 2016
%%Title: /home/ubuntu/HEXAGON-ROBOTICS/HEXAGON-ROBOTICS-GNSS-DR/GERBER/DR8-B.Mask.ps
%%Pages: 1
%%PageOrder: Ascend
%%BoundingBox: 0 0 596 842
%%DocumentMedia: A4 595 842 0 () ()
%%Orientation: Landscape
%%EndComments
%%BeginProlog
/line { newpath moveto lineto stroke } bind def
/cir0 { newpath 0 360 arc stroke } bind def
/cir1 { newpath 0 360 arc gsave fill grestore stroke } bind def
/cir2 { newpath 0 360 arc gsave fill grestore stroke } bind def
/arc0 { newpath arc stroke } bind def
/arc1 { newpath 4 index 4 index moveto arc closepath gsave fill
    grestore stroke } bind def
/arc2 { newpath 4 index 4 index moveto arc closepath gsave fill
    grestore stroke } bind def
/poly0 { stroke } bind def
/poly1 { closepath gsave fill grestore stroke } bind def
/poly2 { closepath gsave fill grestore stroke } bind def
/rect0 { rectstroke } bind def
/rect1 { rectfill } bind def
/rect2 { rectfill } bind def
/linemode0 { 0 setlinecap 0 setlinejoin 0 setlinewidth } bind def
/linemode1 { 1 setlinecap 1 setlinejoin } bind def
/dashedline { [200] 100 setdash } bind def
/solidline { [] 0 setdash } bind def
/phantomshow { moveto
    /KicadFont findfont 0.000001 scalefont setfont
    show } bind def
/textshow { gsave
    findfont exch scalefont setfont concat 1 scale 0 0 moveto show
    } bind def
/reencodefont {
  findfont dup length dict begin
  { 1 index /FID ne
    { def }
    { pop pop } ifelse
  } forall
  /Encoding ISOLatin1Encoding def
  currentdict
  end } bind def
/KicadFont /Helvetica reencodefont definefont pop
/KicadFont-Bold /Helvetica-Bold reencodefont definefont pop
/KicadFont-Oblique /Helvetica-Oblique reencodefont definefont pop
/KicadFont-BoldOblique /Helvetica-BoldOblique reencodefont definefont pop
%%EndProlog
%%Page: 1 1
%%BeginPageSetup
gsave
0.0072 0.0072 scale
linemode1
82680 0 translate 90 rotate
39.3701 setlinewidth
%%EndPageSetup
0 0 0 setrgbcolor
0 0 0 setrgbcolor
0 setlinewidth
newpath
41479.1 37285.9 moveto
41479.1 39018.1 lineto
42857 39018.1 lineto
42857 37285.9 lineto
41479.1 37285.9 lineto
poly1
0 0 0 setrgbcolor
newpath
36084.7 37293.9 moveto
36084.7 39026.1 lineto
37423.3 39026.1 lineto
37423.3 37293.9 lineto
36084.7 37293.9 lineto
poly1
0 0 0 setrgbcolor
38390.7 43305 314.961 cir1
39.3701 setlinewidth
0 0 0 setrgbcolor
0 setlinewidth
newpath
32086.6 41577.6 moveto
32086.6 42050.1 lineto
32952.8 42050.1 lineto
32952.8 41577.6 lineto
32086.6 41577.6 lineto
poly1
0 0 0 setrgbcolor
newpath
32086.6 47089.4 moveto
32086.6 47561.9 lineto
32952.8 47561.9 lineto
32952.8 47089.4 lineto
32086.6 47089.4 lineto
poly1
0 0 0 setrgbcolor
newpath
36811 47089.4 moveto
36811 47561.9 lineto
37677.2 47561.9 lineto
37677.2 47089.4 lineto
36811 47089.4 lineto
poly1
0 0 0 setrgbcolor
newpath
36811 46656.4 moveto
36811 47128.8 lineto
37677.2 47128.8 lineto
37677.2 46656.4 lineto
36811 46656.4 lineto
poly1
0 0 0 setrgbcolor
newpath
36811 46223.3 moveto
36811 46695.7 lineto
37677.2 46695.7 lineto
37677.2 46223.3 lineto
36811 46223.3 lineto
poly1
0 0 0 setrgbcolor
newpath
36811 45790.2 moveto
36811 46262.7 lineto
37677.2 46262.7 lineto
37677.2 45790.2 lineto
36811 45790.2 lineto
poly1
0 0 0 setrgbcolor
newpath
36811 45357.2 moveto
36811 45829.6 lineto
37677.2 45829.6 lineto
37677.2 45357.2 lineto
36811 45357.2 lineto
poly1
0 0 0 setrgbcolor
newpath
36811 44924.1 moveto
36811 45396.5 lineto
37677.2 45396.5 lineto
37677.2 44924.1 lineto
36811 44924.1 lineto
poly1
0 0 0 setrgbcolor
newpath
36811 44491 moveto
36811 44963.5 lineto
37677.2 44963.5 lineto
37677.2 44491 lineto
36811 44491 lineto
poly1
0 0 0 setrgbcolor
newpath
36811 43309.9 moveto
36811 43782.4 lineto
37677.2 43782.4 lineto
37677.2 43309.9 lineto
36811 43309.9 lineto
poly1
0 0 0 setrgbcolor
newpath
36811 42876.9 moveto
36811 43349.3 lineto
37677.2 43349.3 lineto
37677.2 42876.9 lineto
36811 42876.9 lineto
poly1
0 0 0 setrgbcolor
newpath
36811 42443.8 moveto
36811 42916.2 lineto
37677.2 42916.2 lineto
37677.2 42443.8 lineto
36811 42443.8 lineto
poly1
0 0 0 setrgbcolor
newpath
36811 42010.7 moveto
36811 42483.1 lineto
37677.2 42483.1 lineto
37677.2 42010.7 lineto
36811 42010.7 lineto
poly1
0 0 0 setrgbcolor
newpath
36811 41577.6 moveto
36811 42050.1 lineto
37677.2 42050.1 lineto
37677.2 41577.6 lineto
36811 41577.6 lineto
poly1
0 0 0 setrgbcolor
newpath
32086.6 42010.7 moveto
32086.6 42483.1 lineto
32952.8 42483.1 lineto
32952.8 42010.7 lineto
32086.6 42010.7 lineto
poly1
0 0 0 setrgbcolor
newpath
32086.6 42443.8 moveto
32086.6 42916.2 lineto
32952.8 42916.2 lineto
32952.8 42443.8 lineto
32086.6 42443.8 lineto
poly1
0 0 0 setrgbcolor
newpath
32086.6 42876.9 moveto
32086.6 43349.3 lineto
32952.8 43349.3 lineto
32952.8 42876.9 lineto
32086.6 42876.9 lineto
poly1
0 0 0 setrgbcolor
newpath
32086.6 43309.9 moveto
32086.6 43782.4 lineto
32952.8 43782.4 lineto
32952.8 43309.9 lineto
32086.6 43309.9 lineto
poly1
0 0 0 setrgbcolor
newpath
32086.6 44491 moveto
32086.6 44963.5 lineto
32952.8 44963.5 lineto
32952.8 44491 lineto
32086.6 44491 lineto
poly1
0 0 0 setrgbcolor
newpath
32086.6 44924.1 moveto
32086.6 45396.5 lineto
32952.8 45396.5 lineto
32952.8 44924.1 lineto
32086.6 44924.1 lineto
poly1
0 0 0 setrgbcolor
newpath
32086.6 45357.2 moveto
32086.6 45829.6 lineto
32952.8 45829.6 lineto
32952.8 45357.2 lineto
32086.6 45357.2 lineto
poly1
0 0 0 setrgbcolor
newpath
32086.6 45790.2 moveto
32086.6 46262.7 lineto
32952.8 46262.7 lineto
32952.8 45790.2 lineto
32086.6 45790.2 lineto
poly1
0 0 0 setrgbcolor
newpath
32086.6 46223.3 moveto
32086.6 46695.7 lineto
32952.8 46695.7 lineto
32952.8 46223.3 lineto
32086.6 46223.3 lineto
poly1
0 0 0 setrgbcolor
newpath
32086.6 46656.4 moveto
32086.6 47128.8 lineto
32952.8 47128.8 lineto
32952.8 46656.4 lineto
32086.6 46656.4 lineto
poly1
0 0 0 setrgbcolor
newpath
43295.3 46569.8 moveto
43295.3 46924.1 lineto
43689 46924.1 lineto
43689 46569.8 lineto
43295.3 46569.8 lineto
poly1
0 0 0 setrgbcolor
newpath
43728.3 46569.8 moveto
43728.3 46924.1 lineto
44122 46924.1 lineto
44122 46569.8 lineto
43728.3 46569.8 lineto
poly1
0 0 0 setrgbcolor
newpath
43330.7 43617 moveto
43330.7 43971.3 lineto
43724.4 43971.3 lineto
43724.4 43617 lineto
43330.7 43617 lineto
poly1
0 0 0 setrgbcolor
newpath
43763.8 43617 moveto
43763.8 43971.3 lineto
44157.5 43971.3 lineto
44157.5 43617 lineto
43763.8 43617 lineto
poly1
0 0 0 setrgbcolor
newpath
43311 44386.7 moveto
43311 44839.4 lineto
43783.5 44839.4 lineto
43783.5 44386.7 lineto
43311 44386.7 lineto
poly1
0 0 0 setrgbcolor
newpath
43901.6 44386.7 moveto
43901.6 44839.4 lineto
44374 44839.4 lineto
44374 44386.7 lineto
43901.6 44386.7 lineto
poly1
0 0 0 setrgbcolor
newpath
42602.4 41859.1 moveto
42602.4 41406.4 lineto
42129.9 41406.4 lineto
42129.9 41859.1 lineto
42602.4 41859.1 lineto
poly1
0 0 0 setrgbcolor
newpath
42011.8 41859.1 moveto
42011.8 41406.4 lineto
41539.4 41406.4 lineto
41539.4 41859.1 lineto
42011.8 41859.1 lineto
poly1
0 0 0 setrgbcolor
newpath
40773.6 48888.7 moveto
41226.4 48888.7 lineto
41226.4 48416.2 lineto
40773.6 48416.2 lineto
40773.6 48888.7 lineto
poly1
0 0 0 setrgbcolor
newpath
40773.6 48298.1 moveto
41226.4 48298.1 lineto
41226.4 47825.7 lineto
40773.6 47825.7 lineto
40773.6 48298.1 lineto
poly1
0 0 0 setrgbcolor
newpath
41588.6 48880.8 moveto
42041.3 48880.8 lineto
42041.3 48408.3 lineto
41588.6 48408.3 lineto
41588.6 48880.8 lineto
poly1
0 0 0 setrgbcolor
newpath
41588.6 48290.2 moveto
42041.3 48290.2 lineto
42041.3 47817.8 lineto
41588.6 47817.8 lineto
41588.6 48290.2 lineto
poly1
0 0 0 setrgbcolor
newpath
38614.2 46554 moveto
39283.5 46554 lineto
39283.5 46120.9 lineto
38614.2 46120.9 lineto
38614.2 46554 lineto
poly1
0 0 0 setrgbcolor
newpath
38614.2 45806 moveto
39283.5 45806 lineto
39283.5 45372.9 lineto
38614.2 45372.9 lineto
38614.2 45806 lineto
poly1
0 0 0 setrgbcolor
newpath
39759.8 49006.8 moveto
40429.1 49006.8 lineto
40429.1 48573.7 lineto
39759.8 48573.7 lineto
39759.8 49006.8 lineto
poly1
0 0 0 setrgbcolor
newpath
39759.8 48258.7 moveto
40429.1 48258.7 lineto
40429.1 47825.7 lineto
39759.8 47825.7 lineto
39759.8 48258.7 lineto
poly1
0 0 0 setrgbcolor
newpath
43341.1 42564.2 moveto
43341.1 42981.7 lineto
43658.6 42981.7 lineto
43658.6 42564.2 lineto
43341.1 42564.2 lineto
poly1
0 0 0 setrgbcolor
newpath
43861.1 42564.2 moveto
43861.1 42981.7 lineto
44178.6 42981.7 lineto
44178.6 42564.2 lineto
43861.1 42564.2 lineto
poly1
0 0 0 setrgbcolor
newpath
43601.1 42564.2 moveto
43601.1 42981.7 lineto
43918.6 42981.7 lineto
43918.6 42564.2 lineto
43601.1 42564.2 lineto
poly1
0 0 0 setrgbcolor
newpath
43861.1 41764.2 moveto
43861.1 42181.7 lineto
44178.6 42181.7 lineto
44178.6 41764.2 lineto
43861.1 41764.2 lineto
poly1
0 0 0 setrgbcolor
newpath
43341.1 41764.2 moveto
43341.1 42181.7 lineto
43658.6 42181.7 lineto
43658.6 41764.2 lineto
43341.1 41764.2 lineto
poly1
0 0 0 setrgbcolor
newpath
36622 40077.6 moveto
36248 40077.6 lineto
36248 40432 lineto
36622 40432 lineto
36622 40077.6 lineto
poly1
0 0 0 setrgbcolor
newpath
37389.8 40107.2 moveto
37015.7 40107.2 lineto
37015.7 40402.4 lineto
37389.8 40402.4 lineto
37389.8 40107.2 lineto
poly1
0 0 0 setrgbcolor
newpath
42913.4 39550.1 moveto
42913.4 39176.1 lineto
42559.1 39176.1 lineto
42559.1 39550.1 lineto
42913.4 39550.1 lineto
poly1
0 0 0 setrgbcolor
newpath
42883.9 40317.8 moveto
42883.9 39943.8 lineto
42588.6 39943.8 lineto
42588.6 40317.8 lineto
42883.9 40317.8 lineto
poly1
0 0 0 setrgbcolor
newpath
36003.9 39333.5 moveto
36003.9 39727.2 lineto
36318.9 39727.2 lineto
36318.9 39333.5 lineto
36003.9 39333.5 lineto
poly1
0 0 0 setrgbcolor
newpath
36358.3 39333.5 moveto
36358.3 39727.2 lineto
36673.2 39727.2 lineto
36673.2 39333.5 lineto
36358.3 39333.5 lineto
poly1
0 0 0 setrgbcolor
newpath
42027.6 39487.1 moveto
41633.9 39487.1 lineto
41633.9 39802 lineto
42027.6 39802 lineto
42027.6 39487.1 lineto
poly1
0 0 0 setrgbcolor
newpath
42027.6 39841.4 moveto
41633.9 39841.4 lineto
41633.9 40156.4 lineto
42027.6 40156.4 lineto
42027.6 39841.4 lineto
poly1
0 0 0 setrgbcolor
newpath
44429.1 38989.1 moveto
44429.1 38536.3 lineto
43956.7 38536.3 lineto
43956.7 38989.1 lineto
44429.1 38989.1 lineto
poly1
0 0 0 setrgbcolor
newpath
43838.6 38989.1 moveto
43838.6 38536.3 lineto
43366.1 38536.3 lineto
43366.1 38989.1 lineto
43838.6 38989.1 lineto
poly1
0 0 0 setrgbcolor
newpath
44488.2 40022.2 moveto
44488.2 39549.8 lineto
44015.7 39549.8 lineto
44015.7 40022.2 lineto
44488.2 40022.2 lineto
poly1
0 0 0 setrgbcolor
newpath
43740.2 40022.2 moveto
43740.2 39549.8 lineto
43267.7 39549.8 lineto
43267.7 40022.2 lineto
43740.2 40022.2 lineto
poly1
0 0 0 setrgbcolor
newpath
44114.2 40809.2 moveto
44114.2 40336.8 lineto
43641.7 40336.8 lineto
43641.7 40809.2 lineto
44114.2 40809.2 lineto
poly1
0 0 0 setrgbcolor
newpath
45426.8 45442.2 moveto
46384.3 45442.2 lineto
46384.3 44484.7 lineto
45426.8 44484.7 lineto
45426.8 45442.2 lineto
poly1
0 0 0 setrgbcolor
newpath
45426.8 47017 moveto
46384.3 47017 lineto
46384.3 46059.5 lineto
45426.8 46059.5 lineto
45426.8 47017 lineto
poly1
0 0 0 setrgbcolor
newpath
42592.1 49445.4 moveto
42592.1 50402.8 lineto
43549.6 50402.8 lineto
43549.6 49445.4 lineto
42592.1 49445.4 lineto
poly1
0 0 0 setrgbcolor
newpath
39521.3 49445.4 moveto
39521.3 50402.8 lineto
40478.7 50402.8 lineto
40478.7 49445.4 lineto
39521.3 49445.4 lineto
poly1
0 0 0 setrgbcolor
newpath
41017.3 49445.4 moveto
41017.3 50402.8 lineto
41974.8 50402.8 lineto
41974.8 49445.4 lineto
41017.3 49445.4 lineto
poly1
0 0 0 setrgbcolor
newpath
32403.7 39053.3 moveto
31932.3 39053.3 lineto
31932.3 39524.7 lineto
32403.7 39524.7 lineto
32403.7 39053.3 lineto
poly1
0 0 0 setrgbcolor
newpath
32403.7 39643.3 moveto
31932.3 39643.3 lineto
31932.3 40114.7 lineto
32403.7 40114.7 lineto
32403.7 39643.3 lineto
poly1
0 0 0 setrgbcolor
newpath
33203.7 39061.3 moveto
32732.3 39061.3 lineto
32732.3 39532.7 lineto
33203.7 39532.7 lineto
33203.7 39061.3 lineto
poly1
0 0 0 setrgbcolor
newpath
33203.7 39651.3 moveto
32732.3 39651.3 lineto
32732.3 40122.7 lineto
33203.7 40122.7 lineto
33203.7 39651.3 lineto
poly1
0 0 0 setrgbcolor
newpath
35126.6 40790.6 moveto
35126.6 40121.4 lineto
34693.5 40121.4 lineto
34693.5 40790.6 lineto
35126.6 40790.6 lineto
poly1
0 0 0 setrgbcolor
newpath
34378.5 40790.6 moveto
34378.5 40121.4 lineto
33945.4 40121.4 lineto
33945.4 40790.6 lineto
34378.5 40790.6 lineto
poly1
0 0 0 setrgbcolor
newpath
35174.6 39478.6 moveto
35174.6 38809.4 lineto
34741.5 38809.4 lineto
34741.5 39478.6 lineto
35174.6 39478.6 lineto
poly1
0 0 0 setrgbcolor
newpath
34426.5 39478.6 moveto
34426.5 38809.4 lineto
33993.4 38809.4 lineto
33993.4 39478.6 lineto
34426.5 39478.6 lineto
poly1
0 0 0 setrgbcolor
newpath
35261.8 48097.3 moveto
34809.1 48097.3 lineto
34809.1 48569.8 lineto
35261.8 48569.8 lineto
35261.8 48097.3 lineto
poly1
0 0 0 setrgbcolor
newpath
35261.8 48687.9 moveto
34809.1 48687.9 lineto
34809.1 49160.3 lineto
35261.8 49160.3 lineto
35261.8 48687.9 lineto
poly1
0 0 0 setrgbcolor
newpath
41220.3 43467.4 moveto
41220.3 42680 lineto
40038.8 42680 lineto
40038.8 43467.4 lineto
41220.3 43467.4 lineto
poly1
0 0 0 setrgbcolor
newpath
42638.3 43467.4 moveto
42638.3 42680 lineto
41456.8 42680 lineto
41456.8 43467.4 lineto
42638.3 43467.4 lineto
poly1
0 0 0 setrgbcolor
newpath
41023.7 45987.1 moveto
41023.7 45199.6 lineto
39685.2 45199.6 lineto
39685.2 45987.1 lineto
41023.7 45987.1 lineto
poly1
0 0 0 setrgbcolor
newpath
42755.7 45987.1 moveto
42755.7 45199.6 lineto
41417.2 45199.6 lineto
41417.2 45987.1 lineto
42755.7 45987.1 lineto
poly1
0 0 0 setrgbcolor
newpath
36604.4 49668.7 moveto
36604.4 50573.2 lineto
37223.8 50573.2 lineto
37223.8 49668.7 lineto
36604.4 49668.7 lineto
poly1
0 0 0 setrgbcolor
newpath
37264.4 49668.7 moveto
37264.4 50573.2 lineto
37883.8 50573.2 lineto
37883.8 49668.7 lineto
37264.4 49668.7 lineto
poly1
0 0 0 setrgbcolor
newpath
37844.9 49668.7 moveto
37844.9 50573.2 lineto
38937.3 50573.2 lineto
38937.3 49668.7 lineto
37844.9 49668.7 lineto
poly1
0 0 0 setrgbcolor
newpath
35550.9 49668.7 moveto
35550.9 50573.2 lineto
36643.3 50573.2 lineto
36643.3 49668.7 lineto
35550.9 49668.7 lineto
poly1
0 0 0 setrgbcolor
newpath
37844.4 48723.7 moveto
37844.4 49708.2 lineto
38581.8 49708.2 lineto
38581.8 48723.7 lineto
37844.4 48723.7 lineto
poly1
0 0 0 setrgbcolor
newpath
35906.4 48723.7 moveto
35906.4 49708.2 lineto
36643.8 49708.2 lineto
36643.8 48723.7 lineto
35906.4 48723.7 lineto
poly1
0 0 0 setrgbcolor
newpath
36564.9 48723.7 moveto
36564.9 49424.2 lineto
36899.3 49424.2 lineto
36899.3 48723.7 lineto
36564.9 48723.7 lineto
poly1
0 0 0 setrgbcolor
newpath
36820.9 48723.7 moveto
36820.9 49424.2 lineto
37155.3 49424.2 lineto
37155.3 48723.7 lineto
36820.9 48723.7 lineto
poly1
0 0 0 setrgbcolor
newpath
37076.9 48723.7 moveto
37076.9 49424.2 lineto
37411.3 49424.2 lineto
37411.3 48723.7 lineto
37076.9 48723.7 lineto
poly1
0 0 0 setrgbcolor
newpath
37332.9 48723.7 moveto
37332.9 49424.2 lineto
37667.3 49424.2 lineto
37667.3 48723.7 lineto
37332.9 48723.7 lineto
poly1
0 0 0 setrgbcolor
newpath
37588.9 48723.7 moveto
37588.9 49424.2 lineto
37923.3 49424.2 lineto
37923.3 48723.7 lineto
37588.9 48723.7 lineto
poly1
0 0 0 setrgbcolor
newpath
44901.6 42532.4 moveto
45728.3 42532.4 lineto
45728.3 42138.7 lineto
44901.6 42138.7 lineto
44901.6 42532.4 lineto
poly1
0 0 0 setrgbcolor
newpath
44901.6 42040.2 moveto
45728.3 42040.2 lineto
45728.3 41646.5 lineto
44901.6 41646.5 lineto
44901.6 42040.2 lineto
poly1
0 0 0 setrgbcolor
newpath
44901.6 41548.1 moveto
45728.3 41548.1 lineto
45728.3 41154.4 lineto
44901.6 41154.4 lineto
44901.6 41548.1 lineto
poly1
0 0 0 setrgbcolor
newpath
44901.6 40071.7 moveto
45728.3 40071.7 lineto
45728.3 39678 lineto
44901.6 39678 lineto
44901.6 40071.7 lineto
poly1
0 0 0 setrgbcolor
newpath
44901.6 41056 moveto
45728.3 41056 lineto
45728.3 40662.3 lineto
44901.6 40662.3 lineto
44901.6 41056 lineto
poly1
0 0 0 setrgbcolor
newpath
44901.6 40563.9 moveto
45728.3 40563.9 lineto
45728.3 40170.2 lineto
44901.6 40170.2 lineto
44901.6 40563.9 lineto
poly1
0 0 0 setrgbcolor
newpath
45964.6 43339.4 moveto
47185 43339.4 lineto
47185 42788.3 lineto
45964.6 42788.3 lineto
45964.6 43339.4 lineto
poly1
0 0 0 setrgbcolor
newpath
45964.6 39422.1 moveto
47185 39422.1 lineto
47185 38870.9 lineto
45964.6 38870.9 lineto
45964.6 39422.1 lineto
poly1
0 0 0 setrgbcolor
newpath
43187 46199.7 moveto
43639.8 46199.7 lineto
43639.8 45727.2 lineto
43187 45727.2 lineto
43187 46199.7 lineto
poly1
0 0 0 setrgbcolor
newpath
43187 45609.1 moveto
43639.8 45609.1 lineto
43639.8 45136.7 lineto
43187 45136.7 lineto
43187 45609.1 lineto
poly1
showpage
grestore
%%EOF
